Executing /home/yuhui/dev/src/gitlab.com/yuhuibao/instances/P2/P2 -benchmark=floydwarshall -report-all -metric-file-name=P2_floydwarshall_-gpu=R9Nano_-isa=gfx1010_metrics -gpu=R9Nano -isa=gfx1010
Start time: 2022-04-21 01:14:39.667967
Profiling server running on: 40293
Monitoring simulation with http://localhost:43953
End time: 2022-04-21 03:55:04.451264
Elapsed time: 2:40:24.783297
