Executing /home/yuhui/dev/src/gitlab.com/yuhuibao/instances/P2/P2 -benchmark=fastwalshtransform -report-all -metric-file-name=P2_fastwalshtransform_-gpu=R9Nano_-isa=gfx1010_metrics -gpu=R9Nano -isa=gfx1010
Start time: 2022-04-21 01:21:53.339134
Profiling server running on: 39653
Monitoring simulation with http://localhost:38791
End time: 2022-04-21 01:34:27.549921
Elapsed time: 0:12:34.210787
