Executing /home/yuhui/dev/src/gitlab.com/yuhuibao/instances/P2/P2 -benchmark=spmv -report-all -metric-file-name=P2_spmv_-gpu=R9Nano_-isa=gfx1010_metrics -gpu=R9Nano -isa=gfx1010
Start time: 2022-04-21 01:34:27.550273
Profiling server running on: 46347
Monitoring simulation with http://localhost:36695
Number of non-zero elements 109951
End time: 2022-04-21 01:47:52.842121
Elapsed time: 0:13:25.291848
