Executing /home/yuhui/dev/src/gitlab.com/yuhuibao/instances/P2DCU/P2DCU -benchmark=floydwarshall -report-all -metric-file-name=P2DCU_floydwarshall_-num-of-sa=8_-isa=gfx1010_metrics -num-of-sa=8 -isa=gfx1010
Start time: 2022-04-24 22:25:01.006259
Profiling server running on: 42841
Monitoring simulation with http://localhost:45215
End time: 2022-04-25 03:05:31.998311
Elapsed time: 4:40:30.992052
