Executing /home/yuhui/dev/src/gitlab.com/yuhuibao/instances/P2DCUL1/P2DCUL1 -benchmark=bicg -report-all -metric-file-name=P2DCUL1_bicg_-num-of-sa=32_-isa=gfx1010_metrics -num-of-sa=32 -isa=gfx1010
Start time: 2022-04-25 01:38:56.674023
Profiling server running on: 42825
Monitoring simulation with http://localhost:33765
End time: 2022-04-25 04:19:40.292133
Elapsed time: 2:40:43.618110
