,where,what,value
0,driver,kernel_time,0.000507776000
1,driver,total_time,0.003131231000
2,GPU1.CommandProcessor,kernel_time,0.000507542547
3,GPU1.SA_00.CU_00,inst_count,3539760.000000000000
4,GPU1.SA_00.CU_01,inst_count,3490368.000000000000
5,GPU1.SA_00.CU_02,inst_count,3515064.000000000000
6,GPU1.SA_00.CU_03,inst_count,3490368.000000000000
7,GPU1.SA_01.CU_00,inst_count,3542504.000000000000
8,GPU1.SA_01.CU_01,inst_count,3517808.000000000000
9,GPU1.SA_01.CU_02,inst_count,3520552.000000000000
10,GPU1.SA_01.CU_03,inst_count,3512320.000000000000
11,GPU1.SA_02.CU_00,inst_count,3537016.000000000000
12,GPU1.SA_02.CU_01,inst_count,3512320.000000000000
13,GPU1.SA_02.CU_02,inst_count,3501344.000000000000
14,GPU1.SA_02.CU_03,inst_count,3498600.000000000000
15,GPU1.SA_03.CU_00,inst_count,3534272.000000000000
16,GPU1.SA_03.CU_01,inst_count,3526040.000000000000
17,GPU1.SA_03.CU_02,inst_count,3482136.000000000000
18,GPU1.SA_03.CU_03,inst_count,3506832.000000000000
19,GPU1.SA_04.CU_00,inst_count,3526040.000000000000
20,GPU1.SA_04.CU_01,inst_count,3520552.000000000000
21,GPU1.SA_04.CU_02,inst_count,3506832.000000000000
22,GPU1.SA_04.CU_03,inst_count,3509576.000000000000
23,GPU1.SA_05.CU_00,inst_count,3498600.000000000000
24,GPU1.SA_05.CU_01,inst_count,3520552.000000000000
25,GPU1.SA_05.CU_02,inst_count,3482136.000000000000
26,GPU1.SA_05.CU_03,inst_count,3473904.000000000000
27,GPU1.SA_06.CU_00,inst_count,3526040.000000000000
28,GPU1.SA_06.CU_01,inst_count,3534272.000000000000
29,GPU1.SA_06.CU_02,inst_count,3490368.000000000000
30,GPU1.SA_06.CU_03,inst_count,3498600.000000000000
31,GPU1.SA_07.CU_00,inst_count,3498600.000000000000
32,GPU1.SA_07.CU_01,inst_count,3537016.000000000000
33,GPU1.SA_07.CU_02,inst_count,3501344.000000000000
34,GPU1.SA_07.CU_03,inst_count,3542504.000000000000
35,GPU1.SA_00.L0VCache_00_00,req_average_latency,0.000000022910
36,GPU1.SA_00.L0VCache_00_01,req_average_latency,0.000000022819
37,GPU1.SA_00.L0VCache_01_00,req_average_latency,0.000000023619
38,GPU1.SA_00.L0VCache_01_01,req_average_latency,0.000000023536
39,GPU1.SA_00.L0VCache_02_00,req_average_latency,0.000000022851
40,GPU1.SA_00.L0VCache_02_01,req_average_latency,0.000000022706
41,GPU1.SA_00.L0VCache_03_00,req_average_latency,0.000000023425
42,GPU1.SA_00.L0VCache_03_01,req_average_latency,0.000000023348
43,GPU1.SA_00.L1Cache,req_average_latency,0.000000110533
44,GPU1.SA_00.L0SCache_00,req_average_latency,0.000000002773
45,GPU1.SA_00.L0SCache_01,req_average_latency,0.000000002774
46,GPU1.SA_00.L0SCache_02,req_average_latency,0.000000002774
47,GPU1.SA_00.L0SCache_03,req_average_latency,0.000000002774
48,GPU1.SA_00.L0ICache_00,req_average_latency,0.000000002745
49,GPU1.SA_00.L0ICache_01,req_average_latency,0.000000002744
50,GPU1.SA_00.L0ICache_02,req_average_latency,0.000000002743
51,GPU1.SA_00.L0ICache_03,req_average_latency,0.000000002743
52,GPU1.SA_01.L0VCache_00_00,req_average_latency,0.000000022756
53,GPU1.SA_01.L0VCache_00_01,req_average_latency,0.000000022638
54,GPU1.SA_01.L0VCache_01_00,req_average_latency,0.000000023047
55,GPU1.SA_01.L0VCache_01_01,req_average_latency,0.000000022945
56,GPU1.SA_01.L0VCache_02_00,req_average_latency,0.000000023122
57,GPU1.SA_01.L0VCache_02_01,req_average_latency,0.000000023001
58,GPU1.SA_01.L0VCache_03_00,req_average_latency,0.000000023281
59,GPU1.SA_01.L0VCache_03_01,req_average_latency,0.000000023164
60,GPU1.SA_01.L1Cache,req_average_latency,0.000000112767
61,GPU1.SA_01.L0SCache_00,req_average_latency,0.000000002773
62,GPU1.SA_01.L0SCache_01,req_average_latency,0.000000002774
63,GPU1.SA_01.L0SCache_02,req_average_latency,0.000000002774
64,GPU1.SA_01.L0SCache_03,req_average_latency,0.000000002774
65,GPU1.SA_01.L0ICache_00,req_average_latency,0.000000002745
66,GPU1.SA_01.L0ICache_01,req_average_latency,0.000000002743
67,GPU1.SA_01.L0ICache_02,req_average_latency,0.000000002743
68,GPU1.SA_01.L0ICache_03,req_average_latency,0.000000002743
69,GPU1.SA_02.L0VCache_00_00,req_average_latency,0.000000023295
70,GPU1.SA_02.L0VCache_00_01,req_average_latency,0.000000023210
71,GPU1.SA_02.L0VCache_01_00,req_average_latency,0.000000023054
72,GPU1.SA_02.L0VCache_01_01,req_average_latency,0.000000022957
73,GPU1.SA_02.L0VCache_02_00,req_average_latency,0.000000023604
74,GPU1.SA_02.L0VCache_02_01,req_average_latency,0.000000023490
75,GPU1.SA_02.L0VCache_03_00,req_average_latency,0.000000023104
76,GPU1.SA_02.L0VCache_03_01,req_average_latency,0.000000023014
77,GPU1.SA_02.L1Cache,req_average_latency,0.000000109381
78,GPU1.SA_02.L0SCache_00,req_average_latency,0.000000002773
79,GPU1.SA_02.L0SCache_01,req_average_latency,0.000000002774
80,GPU1.SA_02.L0SCache_02,req_average_latency,0.000000002774
81,GPU1.SA_02.L0SCache_03,req_average_latency,0.000000002774
82,GPU1.SA_02.L0ICache_00,req_average_latency,0.000000002745
83,GPU1.SA_02.L0ICache_01,req_average_latency,0.000000002743
84,GPU1.SA_02.L0ICache_02,req_average_latency,0.000000002743
85,GPU1.SA_02.L0ICache_03,req_average_latency,0.000000002743
86,GPU1.SA_03.L0VCache_00_00,req_average_latency,0.000000022762
87,GPU1.SA_03.L0VCache_00_01,req_average_latency,0.000000022673
88,GPU1.SA_03.L0VCache_01_00,req_average_latency,0.000000022788
89,GPU1.SA_03.L0VCache_01_01,req_average_latency,0.000000022689
90,GPU1.SA_03.L0VCache_02_00,req_average_latency,0.000000023643
91,GPU1.SA_03.L0VCache_02_01,req_average_latency,0.000000023503
92,GPU1.SA_03.L0VCache_03_00,req_average_latency,0.000000023028
93,GPU1.SA_03.L0VCache_03_01,req_average_latency,0.000000022906
94,GPU1.SA_03.L1Cache,req_average_latency,0.000000113386
95,GPU1.SA_03.L0SCache_00,req_average_latency,0.000000002774
96,GPU1.SA_03.L0SCache_01,req_average_latency,0.000000002774
97,GPU1.SA_03.L0SCache_02,req_average_latency,0.000000002774
98,GPU1.SA_03.L0SCache_03,req_average_latency,0.000000002774
99,GPU1.SA_03.L0ICache_00,req_average_latency,0.000000002744
100,GPU1.SA_03.L0ICache_01,req_average_latency,0.000000002742
101,GPU1.SA_03.L0ICache_02,req_average_latency,0.000000002743
102,GPU1.SA_03.L0ICache_03,req_average_latency,0.000000002742
103,GPU1.SA_04.L0VCache_00_00,req_average_latency,0.000000023062
104,GPU1.SA_04.L0VCache_00_01,req_average_latency,0.000000022893
105,GPU1.SA_04.L0VCache_01_00,req_average_latency,0.000000023046
106,GPU1.SA_04.L0VCache_01_01,req_average_latency,0.000000022955
107,GPU1.SA_04.L0VCache_02_00,req_average_latency,0.000000023423
108,GPU1.SA_04.L0VCache_02_01,req_average_latency,0.000000023331
109,GPU1.SA_04.L0VCache_03_00,req_average_latency,0.000000023217
110,GPU1.SA_04.L0VCache_03_01,req_average_latency,0.000000023155
111,GPU1.SA_04.L1Cache,req_average_latency,0.000000110169
112,GPU1.SA_04.L0SCache_00,req_average_latency,0.000000002774
113,GPU1.SA_04.L0SCache_01,req_average_latency,0.000000002774
114,GPU1.SA_04.L0SCache_02,req_average_latency,0.000000002774
115,GPU1.SA_04.L0SCache_03,req_average_latency,0.000000002774
116,GPU1.SA_04.L0ICache_00,req_average_latency,0.000000002744
117,GPU1.SA_04.L0ICache_01,req_average_latency,0.000000002742
118,GPU1.SA_04.L0ICache_02,req_average_latency,0.000000002742
119,GPU1.SA_04.L0ICache_03,req_average_latency,0.000000002742
120,GPU1.SA_05.L0VCache_00_00,req_average_latency,0.000000023538
121,GPU1.SA_05.L0VCache_00_01,req_average_latency,0.000000023435
122,GPU1.SA_05.L0VCache_01_00,req_average_latency,0.000000023100
123,GPU1.SA_05.L0VCache_01_01,req_average_latency,0.000000022990
124,GPU1.SA_05.L0VCache_02_00,req_average_latency,0.000000023374
125,GPU1.SA_05.L0VCache_02_01,req_average_latency,0.000000023176
126,GPU1.SA_05.L0VCache_03_00,req_average_latency,0.000000023307
127,GPU1.SA_05.L0VCache_03_01,req_average_latency,0.000000023150
128,GPU1.SA_05.L1Cache,req_average_latency,0.000000108641
129,GPU1.SA_05.L0SCache_00,req_average_latency,0.000000002774
130,GPU1.SA_05.L0SCache_01,req_average_latency,0.000000002774
131,GPU1.SA_05.L0SCache_02,req_average_latency,0.000000002775
132,GPU1.SA_05.L0SCache_03,req_average_latency,0.000000002775
133,GPU1.SA_05.L0ICache_00,req_average_latency,0.000000002744
134,GPU1.SA_05.L0ICache_01,req_average_latency,0.000000002742
135,GPU1.SA_05.L0ICache_02,req_average_latency,0.000000002742
136,GPU1.SA_05.L0ICache_03,req_average_latency,0.000000002742
137,GPU1.SA_06.L0VCache_00_00,req_average_latency,0.000000023209
138,GPU1.SA_06.L0VCache_00_01,req_average_latency,0.000000023098
139,GPU1.SA_06.L0VCache_01_00,req_average_latency,0.000000023010
140,GPU1.SA_06.L0VCache_01_01,req_average_latency,0.000000022931
141,GPU1.SA_06.L0VCache_02_00,req_average_latency,0.000000023636
142,GPU1.SA_06.L0VCache_02_01,req_average_latency,0.000000023371
143,GPU1.SA_06.L0VCache_03_00,req_average_latency,0.000000023283
144,GPU1.SA_06.L0VCache_03_01,req_average_latency,0.000000023190
145,GPU1.SA_06.L1Cache,req_average_latency,0.000000109128
146,GPU1.SA_06.L0SCache_00,req_average_latency,0.000000002774
147,GPU1.SA_06.L0SCache_01,req_average_latency,0.000000002774
148,GPU1.SA_06.L0SCache_02,req_average_latency,0.000000002775
149,GPU1.SA_06.L0SCache_03,req_average_latency,0.000000002774
150,GPU1.SA_06.L0ICache_00,req_average_latency,0.000000002743
151,GPU1.SA_06.L0ICache_01,req_average_latency,0.000000002741
152,GPU1.SA_06.L0ICache_02,req_average_latency,0.000000002742
153,GPU1.SA_06.L0ICache_03,req_average_latency,0.000000002741
154,GPU1.SA_07.L0VCache_00_00,req_average_latency,0.000000023337
155,GPU1.SA_07.L0VCache_00_01,req_average_latency,0.000000023160
156,GPU1.SA_07.L0VCache_01_00,req_average_latency,0.000000022924
157,GPU1.SA_07.L0VCache_01_01,req_average_latency,0.000000022805
158,GPU1.SA_07.L0VCache_02_00,req_average_latency,0.000000023505
159,GPU1.SA_07.L0VCache_02_01,req_average_latency,0.000000023386
160,GPU1.SA_07.L0VCache_03_00,req_average_latency,0.000000022913
161,GPU1.SA_07.L0VCache_03_01,req_average_latency,0.000000022789
162,GPU1.SA_07.L1Cache,req_average_latency,0.000000110734
163,GPU1.SA_07.L0SCache_00,req_average_latency,0.000000002775
164,GPU1.SA_07.L0SCache_01,req_average_latency,0.000000002774
165,GPU1.SA_07.L0SCache_02,req_average_latency,0.000000002774
166,GPU1.SA_07.L0SCache_03,req_average_latency,0.000000002774
167,GPU1.SA_07.L0ICache_00,req_average_latency,0.000000002743
168,GPU1.SA_07.L0ICache_01,req_average_latency,0.000000002741
169,GPU1.SA_07.L0ICache_02,req_average_latency,0.000000002741
170,GPU1.SA_07.L0ICache_03,req_average_latency,0.000000002741
171,GPU1.L2_0,req_average_latency,0.000000185323
172,GPU1.L2_1,req_average_latency,0.000000185299
173,GPU1.L2_2,req_average_latency,0.000000185332
174,GPU1.L2_3,req_average_latency,0.000000185330
175,GPU1.L2_4,req_average_latency,0.000000185283
176,GPU1.L2_5,req_average_latency,0.000000185260
177,GPU1.L2_6,req_average_latency,0.000000185276
178,GPU1.L2_7,req_average_latency,0.000000166147
179,GPU1.L2_8,req_average_latency,0.000000185300
180,GPU1.L2_9,req_average_latency,0.000000185308
181,GPU1.L2_10,req_average_latency,0.000000185322
182,GPU1.L2_11,req_average_latency,0.000000185309
183,GPU1.L2_12,req_average_latency,0.000000185249
184,GPU1.L2_13,req_average_latency,0.000000185255
185,GPU1.L2_14,req_average_latency,0.000000185268
186,GPU1.L2_15,req_average_latency,0.000000166097
187,GPU1.SA_00.L0VCache_00_00,read-hit,212802.000000000000
188,GPU1.SA_00.L0VCache_00_00,read-miss,27895.000000000000
189,GPU1.SA_00.L0VCache_00_00,read-mshr-hit,0.000000000000
190,GPU1.SA_00.L0VCache_00_00,write-hit,0.000000000000
191,GPU1.SA_00.L0VCache_00_00,write-miss,10320.000000000000
192,GPU1.SA_00.L0VCache_00_00,write-mshr-hit,0.000000000000
193,GPU1.SA_00.L0VCache_00_01,read-hit,211985.000000000000
194,GPU1.SA_00.L0VCache_00_01,read-miss,28206.000000000000
195,GPU1.SA_00.L0VCache_00_01,read-mshr-hit,0.000000000000
196,GPU1.SA_00.L0VCache_00_01,write-hit,0.000000000000
197,GPU1.SA_00.L0VCache_00_01,write-miss,10320.000000000000
198,GPU1.SA_00.L0VCache_00_01,write-mshr-hit,0.000000000000
199,GPU1.SA_00.L0VCache_01_00,read-hit,202473.000000000000
200,GPU1.SA_00.L0VCache_01_00,read-miss,34087.000000000000
201,GPU1.SA_00.L0VCache_01_00,read-mshr-hit,0.000000000000
202,GPU1.SA_00.L0VCache_01_00,write-hit,0.000000000000
203,GPU1.SA_00.L0VCache_01_00,write-miss,10176.000000000000
204,GPU1.SA_00.L0VCache_01_00,write-mshr-hit,0.000000000000
205,GPU1.SA_00.L0VCache_01_01,read-hit,201804.000000000000
206,GPU1.SA_00.L0VCache_01_01,read-miss,34337.000000000000
207,GPU1.SA_00.L0VCache_01_01,read-mshr-hit,0.000000000000
208,GPU1.SA_00.L0VCache_01_01,write-hit,0.000000000000
209,GPU1.SA_00.L0VCache_01_01,write-miss,10176.000000000000
210,GPU1.SA_00.L0VCache_01_01,write-mshr-hit,0.000000000000
211,GPU1.SA_00.L0VCache_02_00,read-hit,214357.000000000000
212,GPU1.SA_00.L0VCache_02_00,read-miss,24983.000000000000
213,GPU1.SA_00.L0VCache_02_00,read-mshr-hit,0.000000000000
214,GPU1.SA_00.L0VCache_02_00,write-hit,0.000000000000
215,GPU1.SA_00.L0VCache_02_00,write-miss,10248.000000000000
216,GPU1.SA_00.L0VCache_02_00,write-mshr-hit,0.000000000000
217,GPU1.SA_00.L0VCache_02_01,read-hit,213863.000000000000
218,GPU1.SA_00.L0VCache_02_01,read-miss,25079.000000000000
219,GPU1.SA_00.L0VCache_02_01,read-mshr-hit,0.000000000000
220,GPU1.SA_00.L0VCache_02_01,write-hit,0.000000000000
221,GPU1.SA_00.L0VCache_02_01,write-miss,10248.000000000000
222,GPU1.SA_00.L0VCache_02_01,write-mshr-hit,0.000000000000
223,GPU1.SA_00.L0VCache_03_00,read-hit,206252.000000000000
224,GPU1.SA_00.L0VCache_03_00,read-miss,30647.000000000000
225,GPU1.SA_00.L0VCache_03_00,read-mshr-hit,0.000000000000
226,GPU1.SA_00.L0VCache_03_00,write-hit,0.000000000000
227,GPU1.SA_00.L0VCache_03_00,write-miss,10176.000000000000
228,GPU1.SA_00.L0VCache_03_00,write-mshr-hit,0.000000000000
229,GPU1.SA_00.L0VCache_03_01,read-hit,205699.000000000000
230,GPU1.SA_00.L0VCache_03_01,read-miss,30701.000000000000
231,GPU1.SA_00.L0VCache_03_01,read-mshr-hit,0.000000000000
232,GPU1.SA_00.L0VCache_03_01,write-hit,0.000000000000
233,GPU1.SA_00.L0VCache_03_01,write-miss,10176.000000000000
234,GPU1.SA_00.L0VCache_03_01,write-mshr-hit,0.000000000000
235,GPU1.SA_00.L1Cache,read-hit,149599.000000000000
236,GPU1.SA_00.L1Cache,read-miss,86317.000000000000
237,GPU1.SA_00.L1Cache,read-mshr-hit,0.000000000000
238,GPU1.SA_00.L1Cache,write-hit,0.000000000000
239,GPU1.SA_00.L1Cache,write-miss,81840.000000000000
240,GPU1.SA_00.L1Cache,write-mshr-hit,0.000000000000
241,GPU1.SA_00.L0SCache_00,read-hit,206352.000000000000
242,GPU1.SA_00.L0SCache_00,read-miss,3.000000000000
243,GPU1.SA_00.L0SCache_00,read-mshr-hit,0.000000000000
244,GPU1.SA_00.L0SCache_00,write-hit,0.000000000000
245,GPU1.SA_00.L0SCache_00,write-miss,0.000000000000
246,GPU1.SA_00.L0SCache_00,write-mshr-hit,0.000000000000
247,GPU1.SA_00.L0SCache_01,read-hit,203472.000000000000
248,GPU1.SA_00.L0SCache_01,read-miss,3.000000000000
249,GPU1.SA_00.L0SCache_01,read-mshr-hit,0.000000000000
250,GPU1.SA_00.L0SCache_01,write-hit,0.000000000000
251,GPU1.SA_00.L0SCache_01,write-miss,0.000000000000
252,GPU1.SA_00.L0SCache_01,write-mshr-hit,0.000000000000
253,GPU1.SA_00.L0SCache_02,read-hit,204912.000000000000
254,GPU1.SA_00.L0SCache_02,read-miss,3.000000000000
255,GPU1.SA_00.L0SCache_02,read-mshr-hit,0.000000000000
256,GPU1.SA_00.L0SCache_02,write-hit,0.000000000000
257,GPU1.SA_00.L0SCache_02,write-miss,0.000000000000
258,GPU1.SA_00.L0SCache_02,write-mshr-hit,0.000000000000
259,GPU1.SA_00.L0SCache_03,read-hit,203472.000000000000
260,GPU1.SA_00.L0SCache_03,read-miss,3.000000000000
261,GPU1.SA_00.L0SCache_03,read-mshr-hit,0.000000000000
262,GPU1.SA_00.L0SCache_03,write-hit,0.000000000000
263,GPU1.SA_00.L0SCache_03,write-miss,0.000000000000
264,GPU1.SA_00.L0SCache_03,write-mshr-hit,0.000000000000
265,GPU1.SA_00.L0ICache_00,read-hit,918332.000000000000
266,GPU1.SA_00.L0ICache_00,read-miss,7.000000000000
267,GPU1.SA_00.L0ICache_00,read-mshr-hit,0.000000000000
268,GPU1.SA_00.L0ICache_00,write-hit,0.000000000000
269,GPU1.SA_00.L0ICache_00,write-miss,0.000000000000
270,GPU1.SA_00.L0ICache_00,write-mshr-hit,0.000000000000
271,GPU1.SA_00.L0ICache_01,read-hit,905530.000000000000
272,GPU1.SA_00.L0ICache_01,read-miss,7.000000000000
273,GPU1.SA_00.L0ICache_01,read-mshr-hit,0.000000000000
274,GPU1.SA_00.L0ICache_01,write-hit,0.000000000000
275,GPU1.SA_00.L0ICache_01,write-miss,0.000000000000
276,GPU1.SA_00.L0ICache_01,write-mshr-hit,0.000000000000
277,GPU1.SA_00.L0ICache_02,read-hit,911939.000000000000
278,GPU1.SA_00.L0ICache_02,read-miss,7.000000000000
279,GPU1.SA_00.L0ICache_02,read-mshr-hit,0.000000000000
280,GPU1.SA_00.L0ICache_02,write-hit,0.000000000000
281,GPU1.SA_00.L0ICache_02,write-miss,0.000000000000
282,GPU1.SA_00.L0ICache_02,write-mshr-hit,0.000000000000
283,GPU1.SA_00.L0ICache_03,read-hit,905531.000000000000
284,GPU1.SA_00.L0ICache_03,read-miss,7.000000000000
285,GPU1.SA_00.L0ICache_03,read-mshr-hit,0.000000000000
286,GPU1.SA_00.L0ICache_03,write-hit,0.000000000000
287,GPU1.SA_00.L0ICache_03,write-miss,0.000000000000
288,GPU1.SA_00.L0ICache_03,write-mshr-hit,0.000000000000
289,GPU1.SA_01.L0VCache_00_00,read-hit,213791.000000000000
290,GPU1.SA_01.L0VCache_00_00,read-miss,27254.000000000000
291,GPU1.SA_01.L0VCache_00_00,read-mshr-hit,0.000000000000
292,GPU1.SA_01.L0VCache_00_00,write-hit,0.000000000000
293,GPU1.SA_01.L0VCache_00_00,write-miss,10328.000000000000
294,GPU1.SA_01.L0VCache_00_00,write-mshr-hit,0.000000000000
295,GPU1.SA_01.L0VCache_00_01,read-hit,213321.000000000000
296,GPU1.SA_01.L0VCache_00_01,read-miss,27365.000000000000
297,GPU1.SA_01.L0VCache_00_01,read-mshr-hit,0.000000000000
298,GPU1.SA_01.L0VCache_00_01,write-hit,0.000000000000
299,GPU1.SA_01.L0VCache_00_01,write-miss,10328.000000000000
300,GPU1.SA_01.L0VCache_00_01,write-mshr-hit,0.000000000000
301,GPU1.SA_01.L0VCache_01_00,read-hit,210076.000000000000
302,GPU1.SA_01.L0VCache_01_00,read-miss,29071.000000000000
303,GPU1.SA_01.L0VCache_01_00,read-mshr-hit,0.000000000000
304,GPU1.SA_01.L0VCache_01_00,write-hit,0.000000000000
305,GPU1.SA_01.L0VCache_01_00,write-miss,10256.000000000000
306,GPU1.SA_01.L0VCache_01_00,write-mshr-hit,0.000000000000
307,GPU1.SA_01.L0VCache_01_01,read-hit,209586.000000000000
308,GPU1.SA_01.L0VCache_01_01,read-miss,29030.000000000000
309,GPU1.SA_01.L0VCache_01_01,read-mshr-hit,0.000000000000
310,GPU1.SA_01.L0VCache_01_01,write-hit,0.000000000000
311,GPU1.SA_01.L0VCache_01_01,write-miss,10256.000000000000
312,GPU1.SA_01.L0VCache_01_01,write-mshr-hit,0.000000000000
313,GPU1.SA_01.L0VCache_02_00,read-hit,211313.000000000000
314,GPU1.SA_01.L0VCache_02_00,read-miss,28003.000000000000
315,GPU1.SA_01.L0VCache_02_00,read-mshr-hit,0.000000000000
316,GPU1.SA_01.L0VCache_02_00,write-hit,0.000000000000
317,GPU1.SA_01.L0VCache_02_00,write-miss,10264.000000000000
318,GPU1.SA_01.L0VCache_02_00,write-mshr-hit,0.000000000000
319,GPU1.SA_01.L0VCache_02_01,read-hit,210881.000000000000
320,GPU1.SA_01.L0VCache_02_01,read-miss,28097.000000000000
321,GPU1.SA_01.L0VCache_02_01,read-mshr-hit,0.000000000000
322,GPU1.SA_01.L0VCache_02_01,write-hit,0.000000000000
323,GPU1.SA_01.L0VCache_02_01,write-miss,10264.000000000000
324,GPU1.SA_01.L0VCache_02_01,write-mshr-hit,0.000000000000
325,GPU1.SA_01.L0VCache_03_00,read-hit,208787.000000000000
326,GPU1.SA_01.L0VCache_03_00,read-miss,29842.000000000000
327,GPU1.SA_01.L0VCache_03_00,read-mshr-hit,0.000000000000
328,GPU1.SA_01.L0VCache_03_00,write-hit,0.000000000000
329,GPU1.SA_01.L0VCache_03_00,write-miss,10240.000000000000
330,GPU1.SA_01.L0VCache_03_00,write-mshr-hit,0.000000000000
331,GPU1.SA_01.L0VCache_03_01,read-hit,208445.000000000000
332,GPU1.SA_01.L0VCache_03_01,read-miss,29707.000000000000
333,GPU1.SA_01.L0VCache_03_01,read-mshr-hit,0.000000000000
334,GPU1.SA_01.L0VCache_03_01,write-hit,0.000000000000
335,GPU1.SA_01.L0VCache_03_01,write-miss,10240.000000000000
336,GPU1.SA_01.L0VCache_03_01,write-mshr-hit,0.000000000000
337,GPU1.SA_01.L1Cache,read-hit,141682.000000000000
338,GPU1.SA_01.L1Cache,read-miss,86675.000000000000
339,GPU1.SA_01.L1Cache,read-mshr-hit,0.000000000000
340,GPU1.SA_01.L1Cache,write-hit,0.000000000000
341,GPU1.SA_01.L1Cache,write-miss,82176.000000000000
342,GPU1.SA_01.L1Cache,write-mshr-hit,0.000000000000
343,GPU1.SA_01.L0SCache_00,read-hit,206512.000000000000
344,GPU1.SA_01.L0SCache_00,read-miss,3.000000000000
345,GPU1.SA_01.L0SCache_00,read-mshr-hit,0.000000000000
346,GPU1.SA_01.L0SCache_00,write-hit,0.000000000000
347,GPU1.SA_01.L0SCache_00,write-miss,0.000000000000
348,GPU1.SA_01.L0SCache_00,write-mshr-hit,0.000000000000
349,GPU1.SA_01.L0SCache_01,read-hit,205072.000000000000
350,GPU1.SA_01.L0SCache_01,read-miss,3.000000000000
351,GPU1.SA_01.L0SCache_01,read-mshr-hit,0.000000000000
352,GPU1.SA_01.L0SCache_01,write-hit,0.000000000000
353,GPU1.SA_01.L0SCache_01,write-miss,0.000000000000
354,GPU1.SA_01.L0SCache_01,write-mshr-hit,0.000000000000
355,GPU1.SA_01.L0SCache_02,read-hit,205232.000000000000
356,GPU1.SA_01.L0SCache_02,read-miss,3.000000000000
357,GPU1.SA_01.L0SCache_02,read-mshr-hit,0.000000000000
358,GPU1.SA_01.L0SCache_02,write-hit,0.000000000000
359,GPU1.SA_01.L0SCache_02,write-miss,0.000000000000
360,GPU1.SA_01.L0SCache_02,write-mshr-hit,0.000000000000
361,GPU1.SA_01.L0SCache_03,read-hit,204752.000000000000
362,GPU1.SA_01.L0SCache_03,read-miss,3.000000000000
363,GPU1.SA_01.L0SCache_03,read-mshr-hit,0.000000000000
364,GPU1.SA_01.L0SCache_03,write-hit,0.000000000000
365,GPU1.SA_01.L0SCache_03,write-miss,0.000000000000
366,GPU1.SA_01.L0SCache_03,write-mshr-hit,0.000000000000
367,GPU1.SA_01.L0ICache_00,read-hit,919044.000000000000
368,GPU1.SA_01.L0ICache_00,read-miss,7.000000000000
369,GPU1.SA_01.L0ICache_00,read-mshr-hit,0.000000000000
370,GPU1.SA_01.L0ICache_00,write-hit,0.000000000000
371,GPU1.SA_01.L0ICache_00,write-miss,0.000000000000
372,GPU1.SA_01.L0ICache_00,write-mshr-hit,0.000000000000
373,GPU1.SA_01.L0ICache_01,read-hit,912651.000000000000
374,GPU1.SA_01.L0ICache_01,read-miss,7.000000000000
375,GPU1.SA_01.L0ICache_01,read-mshr-hit,0.000000000000
376,GPU1.SA_01.L0ICache_01,write-hit,0.000000000000
377,GPU1.SA_01.L0ICache_01,write-miss,0.000000000000
378,GPU1.SA_01.L0ICache_01,write-mshr-hit,0.000000000000
379,GPU1.SA_01.L0ICache_02,read-hit,913362.000000000000
380,GPU1.SA_01.L0ICache_02,read-miss,7.000000000000
381,GPU1.SA_01.L0ICache_02,read-mshr-hit,0.000000000000
382,GPU1.SA_01.L0ICache_02,write-hit,0.000000000000
383,GPU1.SA_01.L0ICache_02,write-miss,0.000000000000
384,GPU1.SA_01.L0ICache_02,write-mshr-hit,0.000000000000
385,GPU1.SA_01.L0ICache_03,read-hit,911227.000000000000
386,GPU1.SA_01.L0ICache_03,read-miss,7.000000000000
387,GPU1.SA_01.L0ICache_03,read-mshr-hit,0.000000000000
388,GPU1.SA_01.L0ICache_03,write-hit,0.000000000000
389,GPU1.SA_01.L0ICache_03,write-miss,0.000000000000
390,GPU1.SA_01.L0ICache_03,write-mshr-hit,0.000000000000
391,GPU1.SA_02.L0VCache_00_00,read-hit,208842.000000000000
392,GPU1.SA_02.L0VCache_00_00,read-miss,31400.000000000000
393,GPU1.SA_02.L0VCache_00_00,read-mshr-hit,0.000000000000
394,GPU1.SA_02.L0VCache_00_00,write-hit,0.000000000000
395,GPU1.SA_02.L0VCache_00_00,write-miss,10312.000000000000
396,GPU1.SA_02.L0VCache_00_00,write-mshr-hit,0.000000000000
397,GPU1.SA_02.L0VCache_00_01,read-hit,207931.000000000000
398,GPU1.SA_02.L0VCache_00_01,read-miss,31682.000000000000
399,GPU1.SA_02.L0VCache_00_01,read-mshr-hit,0.000000000000
400,GPU1.SA_02.L0VCache_00_01,write-hit,0.000000000000
401,GPU1.SA_02.L0VCache_00_01,write-miss,10312.000000000000
402,GPU1.SA_02.L0VCache_00_01,write-mshr-hit,0.000000000000
403,GPU1.SA_02.L0VCache_01_00,read-hit,209530.000000000000
404,GPU1.SA_02.L0VCache_01_00,read-miss,29128.000000000000
405,GPU1.SA_02.L0VCache_01_00,read-mshr-hit,0.000000000000
406,GPU1.SA_02.L0VCache_01_00,write-hit,0.000000000000
407,GPU1.SA_02.L0VCache_01_00,write-miss,10240.000000000000
408,GPU1.SA_02.L0VCache_01_00,write-mshr-hit,0.000000000000
409,GPU1.SA_02.L0VCache_01_01,read-hit,209137.000000000000
410,GPU1.SA_02.L0VCache_01_01,read-miss,29097.000000000000
411,GPU1.SA_02.L0VCache_01_01,read-mshr-hit,0.000000000000
412,GPU1.SA_02.L0VCache_01_01,write-hit,0.000000000000
413,GPU1.SA_02.L0VCache_01_01,write-miss,10240.000000000000
414,GPU1.SA_02.L0VCache_01_01,write-mshr-hit,0.000000000000
415,GPU1.SA_02.L0VCache_02_00,read-hit,204868.000000000000
416,GPU1.SA_02.L0VCache_02_00,read-miss,32459.000000000000
417,GPU1.SA_02.L0VCache_02_00,read-mshr-hit,0.000000000000
418,GPU1.SA_02.L0VCache_02_00,write-hit,0.000000000000
419,GPU1.SA_02.L0VCache_02_00,write-miss,10208.000000000000
420,GPU1.SA_02.L0VCache_02_00,write-mshr-hit,0.000000000000
421,GPU1.SA_02.L0VCache_02_01,read-hit,204641.000000000000
422,GPU1.SA_02.L0VCache_02_01,read-miss,32316.000000000000
423,GPU1.SA_02.L0VCache_02_01,read-mshr-hit,0.000000000000
424,GPU1.SA_02.L0VCache_02_01,write-hit,0.000000000000
425,GPU1.SA_02.L0VCache_02_01,write-miss,10208.000000000000
426,GPU1.SA_02.L0VCache_02_01,write-mshr-hit,0.000000000000
427,GPU1.SA_02.L0VCache_03_00,read-hit,210655.000000000000
428,GPU1.SA_02.L0VCache_03_00,read-miss,27167.000000000000
429,GPU1.SA_02.L0VCache_03_00,read-mshr-hit,0.000000000000
430,GPU1.SA_02.L0VCache_03_00,write-hit,0.000000000000
431,GPU1.SA_02.L0VCache_03_00,write-miss,10200.000000000000
432,GPU1.SA_02.L0VCache_03_00,write-mshr-hit,0.000000000000
433,GPU1.SA_02.L0VCache_03_01,read-hit,210252.000000000000
434,GPU1.SA_02.L0VCache_03_01,read-miss,27266.000000000000
435,GPU1.SA_02.L0VCache_03_01,read-mshr-hit,0.000000000000
436,GPU1.SA_02.L0VCache_03_01,write-hit,0.000000000000
437,GPU1.SA_02.L0VCache_03_01,write-miss,10200.000000000000
438,GPU1.SA_02.L0VCache_03_01,write-mshr-hit,0.000000000000
439,GPU1.SA_02.L1Cache,read-hit,154080.000000000000
440,GPU1.SA_02.L1Cache,read-miss,86426.000000000000
441,GPU1.SA_02.L1Cache,read-mshr-hit,0.000000000000
442,GPU1.SA_02.L1Cache,write-hit,0.000000000000
443,GPU1.SA_02.L1Cache,write-miss,81920.000000000000
444,GPU1.SA_02.L1Cache,write-mshr-hit,0.000000000000
445,GPU1.SA_02.L0SCache_00,read-hit,206192.000000000000
446,GPU1.SA_02.L0SCache_00,read-miss,3.000000000000
447,GPU1.SA_02.L0SCache_00,read-mshr-hit,0.000000000000
448,GPU1.SA_02.L0SCache_00,write-hit,0.000000000000
449,GPU1.SA_02.L0SCache_00,write-miss,0.000000000000
450,GPU1.SA_02.L0SCache_00,write-mshr-hit,0.000000000000
451,GPU1.SA_02.L0SCache_01,read-hit,204752.000000000000
452,GPU1.SA_02.L0SCache_01,read-miss,3.000000000000
453,GPU1.SA_02.L0SCache_01,read-mshr-hit,0.000000000000
454,GPU1.SA_02.L0SCache_01,write-hit,0.000000000000
455,GPU1.SA_02.L0SCache_01,write-miss,0.000000000000
456,GPU1.SA_02.L0SCache_01,write-mshr-hit,0.000000000000
457,GPU1.SA_02.L0SCache_02,read-hit,204112.000000000000
458,GPU1.SA_02.L0SCache_02,read-miss,3.000000000000
459,GPU1.SA_02.L0SCache_02,read-mshr-hit,0.000000000000
460,GPU1.SA_02.L0SCache_02,write-hit,0.000000000000
461,GPU1.SA_02.L0SCache_02,write-miss,0.000000000000
462,GPU1.SA_02.L0SCache_02,write-mshr-hit,0.000000000000
463,GPU1.SA_02.L0SCache_03,read-hit,203952.000000000000
464,GPU1.SA_02.L0SCache_03,read-miss,3.000000000000
465,GPU1.SA_02.L0SCache_03,read-mshr-hit,0.000000000000
466,GPU1.SA_02.L0SCache_03,write-hit,0.000000000000
467,GPU1.SA_02.L0SCache_03,write-miss,0.000000000000
468,GPU1.SA_02.L0SCache_03,write-mshr-hit,0.000000000000
469,GPU1.SA_02.L0ICache_00,read-hit,917620.000000000000
470,GPU1.SA_02.L0ICache_00,read-miss,7.000000000000
471,GPU1.SA_02.L0ICache_00,read-mshr-hit,0.000000000000
472,GPU1.SA_02.L0ICache_00,write-hit,0.000000000000
473,GPU1.SA_02.L0ICache_00,write-miss,0.000000000000
474,GPU1.SA_02.L0ICache_00,write-mshr-hit,0.000000000000
475,GPU1.SA_02.L0ICache_01,read-hit,911226.000000000000
476,GPU1.SA_02.L0ICache_01,read-miss,7.000000000000
477,GPU1.SA_02.L0ICache_01,read-mshr-hit,0.000000000000
478,GPU1.SA_02.L0ICache_01,write-hit,0.000000000000
479,GPU1.SA_02.L0ICache_01,write-miss,0.000000000000
480,GPU1.SA_02.L0ICache_01,write-mshr-hit,0.000000000000
481,GPU1.SA_02.L0ICache_02,read-hit,908379.000000000000
482,GPU1.SA_02.L0ICache_02,read-miss,7.000000000000
483,GPU1.SA_02.L0ICache_02,read-mshr-hit,0.000000000000
484,GPU1.SA_02.L0ICache_02,write-hit,0.000000000000
485,GPU1.SA_02.L0ICache_02,write-miss,0.000000000000
486,GPU1.SA_02.L0ICache_02,write-mshr-hit,0.000000000000
487,GPU1.SA_02.L0ICache_03,read-hit,907666.000000000000
488,GPU1.SA_02.L0ICache_03,read-miss,7.000000000000
489,GPU1.SA_02.L0ICache_03,read-mshr-hit,0.000000000000
490,GPU1.SA_02.L0ICache_03,write-hit,0.000000000000
491,GPU1.SA_02.L0ICache_03,write-miss,0.000000000000
492,GPU1.SA_02.L0ICache_03,write-mshr-hit,0.000000000000
493,GPU1.SA_03.L0VCache_00_00,read-hit,213408.000000000000
494,GPU1.SA_03.L0VCache_00_00,read-miss,27078.000000000000
495,GPU1.SA_03.L0VCache_00_00,read-mshr-hit,0.000000000000
496,GPU1.SA_03.L0VCache_00_00,write-hit,0.000000000000
497,GPU1.SA_03.L0VCache_00_00,write-miss,10304.000000000000
498,GPU1.SA_03.L0VCache_00_00,write-mshr-hit,0.000000000000
499,GPU1.SA_03.L0VCache_00_01,read-hit,212571.000000000000
500,GPU1.SA_03.L0VCache_00_01,read-miss,27347.000000000000
501,GPU1.SA_03.L0VCache_00_01,read-mshr-hit,0.000000000000
502,GPU1.SA_03.L0VCache_00_01,write-hit,0.000000000000
503,GPU1.SA_03.L0VCache_00_01,write-miss,10304.000000000000
504,GPU1.SA_03.L0VCache_00_01,write-mshr-hit,0.000000000000
505,GPU1.SA_03.L0VCache_01_00,read-hit,213298.000000000000
506,GPU1.SA_03.L0VCache_01_00,read-miss,26501.000000000000
507,GPU1.SA_03.L0VCache_01_00,read-mshr-hit,0.000000000000
508,GPU1.SA_03.L0VCache_01_00,write-hit,0.000000000000
509,GPU1.SA_03.L0VCache_01_00,write-miss,10280.000000000000
510,GPU1.SA_03.L0VCache_01_00,write-mshr-hit,0.000000000000
511,GPU1.SA_03.L0VCache_01_01,read-hit,212783.000000000000
512,GPU1.SA_03.L0VCache_01_01,read-miss,26627.000000000000
513,GPU1.SA_03.L0VCache_01_01,read-mshr-hit,0.000000000000
514,GPU1.SA_03.L0VCache_01_01,write-hit,0.000000000000
515,GPU1.SA_03.L0VCache_01_01,write-miss,10280.000000000000
516,GPU1.SA_03.L0VCache_01_01,write-mshr-hit,0.000000000000
517,GPU1.SA_03.L0VCache_02_00,read-hit,203749.000000000000
518,GPU1.SA_03.L0VCache_02_00,read-miss,32365.000000000000
519,GPU1.SA_03.L0VCache_02_00,read-mshr-hit,0.000000000000
520,GPU1.SA_03.L0VCache_02_00,write-hit,0.000000000000
521,GPU1.SA_03.L0VCache_02_00,write-miss,10152.000000000000
522,GPU1.SA_03.L0VCache_02_00,write-mshr-hit,0.000000000000
523,GPU1.SA_03.L0VCache_02_01,read-hit,203571.000000000000
524,GPU1.SA_03.L0VCache_02_01,read-miss,32204.000000000000
525,GPU1.SA_03.L0VCache_02_01,read-mshr-hit,0.000000000000
526,GPU1.SA_03.L0VCache_02_01,write-hit,0.000000000000
527,GPU1.SA_03.L0VCache_02_01,write-miss,10152.000000000000
528,GPU1.SA_03.L0VCache_02_01,write-mshr-hit,0.000000000000
529,GPU1.SA_03.L0VCache_03_00,read-hit,211699.000000000000
530,GPU1.SA_03.L0VCache_03_00,read-miss,26986.000000000000
531,GPU1.SA_03.L0VCache_03_00,read-mshr-hit,0.000000000000
532,GPU1.SA_03.L0VCache_03_00,write-hit,0.000000000000
533,GPU1.SA_03.L0VCache_03_00,write-miss,10224.000000000000
534,GPU1.SA_03.L0VCache_03_00,write-mshr-hit,0.000000000000
535,GPU1.SA_03.L0VCache_03_01,read-hit,211177.000000000000
536,GPU1.SA_03.L0VCache_03_01,read-miss,27015.000000000000
537,GPU1.SA_03.L0VCache_03_01,read-mshr-hit,0.000000000000
538,GPU1.SA_03.L0VCache_03_01,write-hit,0.000000000000
539,GPU1.SA_03.L0VCache_03_01,write-miss,10224.000000000000
540,GPU1.SA_03.L0VCache_03_01,write-mshr-hit,0.000000000000
541,GPU1.SA_03.L1Cache,read-hit,139665.000000000000
542,GPU1.SA_03.L1Cache,read-miss,86427.000000000000
543,GPU1.SA_03.L1Cache,read-mshr-hit,0.000000000000
544,GPU1.SA_03.L1Cache,write-hit,0.000000000000
545,GPU1.SA_03.L1Cache,write-miss,81920.000000000000
546,GPU1.SA_03.L1Cache,write-mshr-hit,0.000000000000
547,GPU1.SA_03.L0SCache_00,read-hit,206032.000000000000
548,GPU1.SA_03.L0SCache_00,read-miss,3.000000000000
549,GPU1.SA_03.L0SCache_00,read-mshr-hit,0.000000000000
550,GPU1.SA_03.L0SCache_00,write-hit,0.000000000000
551,GPU1.SA_03.L0SCache_00,write-miss,0.000000000000
552,GPU1.SA_03.L0SCache_00,write-mshr-hit,0.000000000000
553,GPU1.SA_03.L0SCache_01,read-hit,205552.000000000000
554,GPU1.SA_03.L0SCache_01,read-miss,3.000000000000
555,GPU1.SA_03.L0SCache_01,read-mshr-hit,0.000000000000
556,GPU1.SA_03.L0SCache_01,write-hit,0.000000000000
557,GPU1.SA_03.L0SCache_01,write-miss,0.000000000000
558,GPU1.SA_03.L0SCache_01,write-mshr-hit,0.000000000000
559,GPU1.SA_03.L0SCache_02,read-hit,202992.000000000000
560,GPU1.SA_03.L0SCache_02,read-miss,3.000000000000
561,GPU1.SA_03.L0SCache_02,read-mshr-hit,0.000000000000
562,GPU1.SA_03.L0SCache_02,write-hit,0.000000000000
563,GPU1.SA_03.L0SCache_02,write-miss,0.000000000000
564,GPU1.SA_03.L0SCache_02,write-mshr-hit,0.000000000000
565,GPU1.SA_03.L0SCache_03,read-hit,204432.000000000000
566,GPU1.SA_03.L0SCache_03,read-miss,3.000000000000
567,GPU1.SA_03.L0SCache_03,read-mshr-hit,0.000000000000
568,GPU1.SA_03.L0SCache_03,write-hit,0.000000000000
569,GPU1.SA_03.L0SCache_03,write-miss,0.000000000000
570,GPU1.SA_03.L0SCache_03,write-mshr-hit,0.000000000000
571,GPU1.SA_03.L0ICache_00,read-hit,916908.000000000000
572,GPU1.SA_03.L0ICache_00,read-miss,7.000000000000
573,GPU1.SA_03.L0ICache_00,read-mshr-hit,0.000000000000
574,GPU1.SA_03.L0ICache_00,write-hit,0.000000000000
575,GPU1.SA_03.L0ICache_00,write-miss,0.000000000000
576,GPU1.SA_03.L0ICache_00,write-mshr-hit,0.000000000000
577,GPU1.SA_03.L0ICache_01,read-hit,914787.000000000000
578,GPU1.SA_03.L0ICache_01,read-miss,7.000000000000
579,GPU1.SA_03.L0ICache_01,read-mshr-hit,0.000000000000
580,GPU1.SA_03.L0ICache_01,write-hit,0.000000000000
581,GPU1.SA_03.L0ICache_01,write-miss,0.000000000000
582,GPU1.SA_03.L0ICache_01,write-mshr-hit,0.000000000000
583,GPU1.SA_03.L0ICache_02,read-hit,903395.000000000000
584,GPU1.SA_03.L0ICache_02,read-miss,7.000000000000
585,GPU1.SA_03.L0ICache_02,read-mshr-hit,0.000000000000
586,GPU1.SA_03.L0ICache_02,write-hit,0.000000000000
587,GPU1.SA_03.L0ICache_02,write-miss,0.000000000000
588,GPU1.SA_03.L0ICache_02,write-mshr-hit,0.000000000000
589,GPU1.SA_03.L0ICache_03,read-hit,909803.000000000000
590,GPU1.SA_03.L0ICache_03,read-miss,7.000000000000
591,GPU1.SA_03.L0ICache_03,read-mshr-hit,0.000000000000
592,GPU1.SA_03.L0ICache_03,write-hit,0.000000000000
593,GPU1.SA_03.L0ICache_03,write-miss,0.000000000000
594,GPU1.SA_03.L0ICache_03,write-mshr-hit,0.000000000000
595,GPU1.SA_04.L0VCache_00_00,read-hit,210302.000000000000
596,GPU1.SA_04.L0VCache_00_00,read-miss,29449.000000000000
597,GPU1.SA_04.L0VCache_00_00,read-mshr-hit,0.000000000000
598,GPU1.SA_04.L0VCache_00_00,write-hit,0.000000000000
599,GPU1.SA_04.L0VCache_00_00,write-miss,10280.000000000000
600,GPU1.SA_04.L0VCache_00_00,write-mshr-hit,0.000000000000
601,GPU1.SA_04.L0VCache_00_01,read-hit,209980.000000000000
602,GPU1.SA_04.L0VCache_00_01,read-miss,29358.000000000000
603,GPU1.SA_04.L0VCache_00_01,read-mshr-hit,0.000000000000
604,GPU1.SA_04.L0VCache_00_01,write-hit,0.000000000000
605,GPU1.SA_04.L0VCache_00_01,write-miss,10280.000000000000
606,GPU1.SA_04.L0VCache_00_01,write-mshr-hit,0.000000000000
607,GPU1.SA_04.L0VCache_01_00,read-hit,210416.000000000000
608,GPU1.SA_04.L0VCache_01_00,read-miss,28810.000000000000
609,GPU1.SA_04.L0VCache_01_00,read-mshr-hit,0.000000000000
610,GPU1.SA_04.L0VCache_01_00,write-hit,0.000000000000
611,GPU1.SA_04.L0VCache_01_00,write-miss,10264.000000000000
612,GPU1.SA_04.L0VCache_01_00,write-mshr-hit,0.000000000000
613,GPU1.SA_04.L0VCache_01_01,read-hit,209969.000000000000
614,GPU1.SA_04.L0VCache_01_01,read-miss,28779.000000000000
615,GPU1.SA_04.L0VCache_01_01,read-mshr-hit,0.000000000000
616,GPU1.SA_04.L0VCache_01_01,write-hit,0.000000000000
617,GPU1.SA_04.L0VCache_01_01,write-miss,10264.000000000000
618,GPU1.SA_04.L0VCache_01_01,write-mshr-hit,0.000000000000
619,GPU1.SA_04.L0VCache_02_00,read-hit,207501.000000000000
620,GPU1.SA_04.L0VCache_02_00,read-miss,30604.000000000000
621,GPU1.SA_04.L0VCache_02_00,read-mshr-hit,0.000000000000
622,GPU1.SA_04.L0VCache_02_00,write-hit,0.000000000000
623,GPU1.SA_04.L0VCache_02_00,write-miss,10224.000000000000
624,GPU1.SA_04.L0VCache_02_00,write-mshr-hit,0.000000000000
625,GPU1.SA_04.L0VCache_02_01,read-hit,206787.000000000000
626,GPU1.SA_04.L0VCache_02_01,read-miss,30768.000000000000
627,GPU1.SA_04.L0VCache_02_01,read-mshr-hit,0.000000000000
628,GPU1.SA_04.L0VCache_02_01,write-hit,0.000000000000
629,GPU1.SA_04.L0VCache_02_01,write-miss,10224.000000000000
630,GPU1.SA_04.L0VCache_02_01,write-mshr-hit,0.000000000000
631,GPU1.SA_04.L0VCache_03_00,read-hit,208577.000000000000
632,GPU1.SA_04.L0VCache_03_00,read-miss,29711.000000000000
633,GPU1.SA_04.L0VCache_03_00,read-mshr-hit,0.000000000000
634,GPU1.SA_04.L0VCache_03_00,write-hit,0.000000000000
635,GPU1.SA_04.L0VCache_03_00,write-miss,10232.000000000000
636,GPU1.SA_04.L0VCache_03_00,write-mshr-hit,0.000000000000
637,GPU1.SA_04.L0VCache_03_01,read-hit,207792.000000000000
638,GPU1.SA_04.L0VCache_03_01,read-miss,29983.000000000000
639,GPU1.SA_04.L0VCache_03_01,read-mshr-hit,0.000000000000
640,GPU1.SA_04.L0VCache_03_01,write-hit,0.000000000000
641,GPU1.SA_04.L0VCache_03_01,write-miss,10232.000000000000
642,GPU1.SA_04.L0VCache_03_01,write-mshr-hit,0.000000000000
643,GPU1.SA_04.L1Cache,read-hit,150946.000000000000
644,GPU1.SA_04.L1Cache,read-miss,86499.000000000000
645,GPU1.SA_04.L1Cache,read-mshr-hit,0.000000000000
646,GPU1.SA_04.L1Cache,write-hit,0.000000000000
647,GPU1.SA_04.L1Cache,write-miss,82000.000000000000
648,GPU1.SA_04.L1Cache,write-mshr-hit,0.000000000000
649,GPU1.SA_04.L0SCache_00,read-hit,205552.000000000000
650,GPU1.SA_04.L0SCache_00,read-miss,3.000000000000
651,GPU1.SA_04.L0SCache_00,read-mshr-hit,0.000000000000
652,GPU1.SA_04.L0SCache_00,write-hit,0.000000000000
653,GPU1.SA_04.L0SCache_00,write-miss,0.000000000000
654,GPU1.SA_04.L0SCache_00,write-mshr-hit,0.000000000000
655,GPU1.SA_04.L0SCache_01,read-hit,205232.000000000000
656,GPU1.SA_04.L0SCache_01,read-miss,3.000000000000
657,GPU1.SA_04.L0SCache_01,read-mshr-hit,0.000000000000
658,GPU1.SA_04.L0SCache_01,write-hit,0.000000000000
659,GPU1.SA_04.L0SCache_01,write-miss,0.000000000000
660,GPU1.SA_04.L0SCache_01,write-mshr-hit,0.000000000000
661,GPU1.SA_04.L0SCache_02,read-hit,204432.000000000000
662,GPU1.SA_04.L0SCache_02,read-miss,3.000000000000
663,GPU1.SA_04.L0SCache_02,read-mshr-hit,0.000000000000
664,GPU1.SA_04.L0SCache_02,write-hit,0.000000000000
665,GPU1.SA_04.L0SCache_02,write-miss,0.000000000000
666,GPU1.SA_04.L0SCache_02,write-mshr-hit,0.000000000000
667,GPU1.SA_04.L0SCache_03,read-hit,204592.000000000000
668,GPU1.SA_04.L0SCache_03,read-miss,3.000000000000
669,GPU1.SA_04.L0SCache_03,read-mshr-hit,0.000000000000
670,GPU1.SA_04.L0SCache_03,write-hit,0.000000000000
671,GPU1.SA_04.L0SCache_03,write-miss,0.000000000000
672,GPU1.SA_04.L0SCache_03,write-mshr-hit,0.000000000000
673,GPU1.SA_04.L0ICache_00,read-hit,914772.000000000000
674,GPU1.SA_04.L0ICache_00,read-miss,7.000000000000
675,GPU1.SA_04.L0ICache_00,read-mshr-hit,0.000000000000
676,GPU1.SA_04.L0ICache_00,write-hit,0.000000000000
677,GPU1.SA_04.L0ICache_00,write-miss,0.000000000000
678,GPU1.SA_04.L0ICache_00,write-mshr-hit,0.000000000000
679,GPU1.SA_04.L0ICache_01,read-hit,913362.000000000000
680,GPU1.SA_04.L0ICache_01,read-miss,7.000000000000
681,GPU1.SA_04.L0ICache_01,read-mshr-hit,0.000000000000
682,GPU1.SA_04.L0ICache_01,write-hit,0.000000000000
683,GPU1.SA_04.L0ICache_01,write-miss,0.000000000000
684,GPU1.SA_04.L0ICache_01,write-mshr-hit,0.000000000000
685,GPU1.SA_04.L0ICache_02,read-hit,909803.000000000000
686,GPU1.SA_04.L0ICache_02,read-miss,7.000000000000
687,GPU1.SA_04.L0ICache_02,read-mshr-hit,0.000000000000
688,GPU1.SA_04.L0ICache_02,write-hit,0.000000000000
689,GPU1.SA_04.L0ICache_02,write-miss,0.000000000000
690,GPU1.SA_04.L0ICache_02,write-mshr-hit,0.000000000000
691,GPU1.SA_04.L0ICache_03,read-hit,910514.000000000000
692,GPU1.SA_04.L0ICache_03,read-miss,7.000000000000
693,GPU1.SA_04.L0ICache_03,read-mshr-hit,0.000000000000
694,GPU1.SA_04.L0ICache_03,write-hit,0.000000000000
695,GPU1.SA_04.L0ICache_03,write-miss,0.000000000000
696,GPU1.SA_04.L0ICache_03,write-mshr-hit,0.000000000000
697,GPU1.SA_05.L0VCache_00_00,read-hit,204078.000000000000
698,GPU1.SA_05.L0VCache_00_00,read-miss,33143.000000000000
699,GPU1.SA_05.L0VCache_00_00,read-mshr-hit,0.000000000000
700,GPU1.SA_05.L0VCache_00_00,write-hit,0.000000000000
701,GPU1.SA_05.L0VCache_00_00,write-miss,10200.000000000000
702,GPU1.SA_05.L0VCache_00_00,write-mshr-hit,0.000000000000
703,GPU1.SA_05.L0VCache_00_01,read-hit,203283.000000000000
704,GPU1.SA_05.L0VCache_00_01,read-miss,33345.000000000000
705,GPU1.SA_05.L0VCache_00_01,read-mshr-hit,0.000000000000
706,GPU1.SA_05.L0VCache_00_01,write-hit,0.000000000000
707,GPU1.SA_05.L0VCache_00_01,write-miss,10200.000000000000
708,GPU1.SA_05.L0VCache_00_01,write-mshr-hit,0.000000000000
709,GPU1.SA_05.L0VCache_01_00,read-hit,210022.000000000000
710,GPU1.SA_05.L0VCache_01_00,read-miss,29152.000000000000
711,GPU1.SA_05.L0VCache_01_00,read-mshr-hit,0.000000000000
712,GPU1.SA_05.L0VCache_01_00,write-hit,0.000000000000
713,GPU1.SA_05.L0VCache_01_00,write-miss,10264.000000000000
714,GPU1.SA_05.L0VCache_01_00,write-mshr-hit,0.000000000000
715,GPU1.SA_05.L0VCache_01_01,read-hit,209766.000000000000
716,GPU1.SA_05.L0VCache_01_01,read-miss,29126.000000000000
717,GPU1.SA_05.L0VCache_01_01,read-mshr-hit,0.000000000000
718,GPU1.SA_05.L0VCache_01_01,write-hit,0.000000000000
719,GPU1.SA_05.L0VCache_01_01,write-miss,10264.000000000000
720,GPU1.SA_05.L0VCache_01_01,write-mshr-hit,0.000000000000
721,GPU1.SA_05.L0VCache_02_00,read-hit,205994.000000000000
722,GPU1.SA_05.L0VCache_02_00,read-miss,30390.000000000000
723,GPU1.SA_05.L0VCache_02_00,read-mshr-hit,0.000000000000
724,GPU1.SA_05.L0VCache_02_00,write-hit,0.000000000000
725,GPU1.SA_05.L0VCache_02_00,write-miss,10152.000000000000
726,GPU1.SA_05.L0VCache_02_00,write-mshr-hit,0.000000000000
727,GPU1.SA_05.L0VCache_02_01,read-hit,205668.000000000000
728,GPU1.SA_05.L0VCache_02_01,read-miss,30387.000000000000
729,GPU1.SA_05.L0VCache_02_01,read-mshr-hit,0.000000000000
730,GPU1.SA_05.L0VCache_02_01,write-hit,0.000000000000
731,GPU1.SA_05.L0VCache_02_01,write-miss,10152.000000000000
732,GPU1.SA_05.L0VCache_02_01,write-mshr-hit,0.000000000000
733,GPU1.SA_05.L0VCache_03_00,read-hit,206998.000000000000
734,GPU1.SA_05.L0VCache_03_00,read-miss,29021.000000000000
735,GPU1.SA_05.L0VCache_03_00,read-mshr-hit,0.000000000000
736,GPU1.SA_05.L0VCache_03_00,write-hit,0.000000000000
737,GPU1.SA_05.L0VCache_03_00,write-miss,10128.000000000000
738,GPU1.SA_05.L0VCache_03_00,write-mshr-hit,0.000000000000
739,GPU1.SA_05.L0VCache_03_01,read-hit,207166.000000000000
740,GPU1.SA_05.L0VCache_03_01,read-miss,28648.000000000000
741,GPU1.SA_05.L0VCache_03_01,read-mshr-hit,0.000000000000
742,GPU1.SA_05.L0VCache_03_01,write-hit,0.000000000000
743,GPU1.SA_05.L0VCache_03_01,write-miss,10128.000000000000
744,GPU1.SA_05.L0VCache_03_01,write-mshr-hit,0.000000000000
745,GPU1.SA_05.L1Cache,read-hit,157175.000000000000
746,GPU1.SA_05.L1Cache,read-miss,86020.000000000000
747,GPU1.SA_05.L1Cache,read-mshr-hit,0.000000000000
748,GPU1.SA_05.L1Cache,write-hit,0.000000000000
749,GPU1.SA_05.L1Cache,write-miss,81488.000000000000
750,GPU1.SA_05.L1Cache,write-mshr-hit,0.000000000000
751,GPU1.SA_05.L0SCache_00,read-hit,203952.000000000000
752,GPU1.SA_05.L0SCache_00,read-miss,3.000000000000
753,GPU1.SA_05.L0SCache_00,read-mshr-hit,0.000000000000
754,GPU1.SA_05.L0SCache_00,write-hit,0.000000000000
755,GPU1.SA_05.L0SCache_00,write-miss,0.000000000000
756,GPU1.SA_05.L0SCache_00,write-mshr-hit,0.000000000000
757,GPU1.SA_05.L0SCache_01,read-hit,205232.000000000000
758,GPU1.SA_05.L0SCache_01,read-miss,3.000000000000
759,GPU1.SA_05.L0SCache_01,read-mshr-hit,0.000000000000
760,GPU1.SA_05.L0SCache_01,write-hit,0.000000000000
761,GPU1.SA_05.L0SCache_01,write-miss,0.000000000000
762,GPU1.SA_05.L0SCache_01,write-mshr-hit,0.000000000000
763,GPU1.SA_05.L0SCache_02,read-hit,202992.000000000000
764,GPU1.SA_05.L0SCache_02,read-miss,3.000000000000
765,GPU1.SA_05.L0SCache_02,read-mshr-hit,0.000000000000
766,GPU1.SA_05.L0SCache_02,write-hit,0.000000000000
767,GPU1.SA_05.L0SCache_02,write-miss,0.000000000000
768,GPU1.SA_05.L0SCache_02,write-mshr-hit,0.000000000000
769,GPU1.SA_05.L0SCache_03,read-hit,202512.000000000000
770,GPU1.SA_05.L0SCache_03,read-miss,3.000000000000
771,GPU1.SA_05.L0SCache_03,read-mshr-hit,0.000000000000
772,GPU1.SA_05.L0SCache_03,write-hit,0.000000000000
773,GPU1.SA_05.L0SCache_03,write-miss,0.000000000000
774,GPU1.SA_05.L0SCache_03,write-mshr-hit,0.000000000000
775,GPU1.SA_05.L0ICache_00,read-hit,907652.000000000000
776,GPU1.SA_05.L0ICache_00,read-miss,7.000000000000
777,GPU1.SA_05.L0ICache_00,read-mshr-hit,0.000000000000
778,GPU1.SA_05.L0ICache_00,write-hit,0.000000000000
779,GPU1.SA_05.L0ICache_00,write-miss,0.000000000000
780,GPU1.SA_05.L0ICache_00,write-mshr-hit,0.000000000000
781,GPU1.SA_05.L0ICache_01,read-hit,913362.000000000000
782,GPU1.SA_05.L0ICache_01,read-miss,7.000000000000
783,GPU1.SA_05.L0ICache_01,read-mshr-hit,0.000000000000
784,GPU1.SA_05.L0ICache_01,write-hit,0.000000000000
785,GPU1.SA_05.L0ICache_01,write-miss,0.000000000000
786,GPU1.SA_05.L0ICache_01,write-mshr-hit,0.000000000000
787,GPU1.SA_05.L0ICache_02,read-hit,903394.000000000000
788,GPU1.SA_05.L0ICache_02,read-miss,7.000000000000
789,GPU1.SA_05.L0ICache_02,read-mshr-hit,0.000000000000
790,GPU1.SA_05.L0ICache_02,write-hit,0.000000000000
791,GPU1.SA_05.L0ICache_02,write-miss,0.000000000000
792,GPU1.SA_05.L0ICache_02,write-mshr-hit,0.000000000000
793,GPU1.SA_05.L0ICache_03,read-hit,901250.000000000000
794,GPU1.SA_05.L0ICache_03,read-miss,7.000000000000
795,GPU1.SA_05.L0ICache_03,read-mshr-hit,0.000000000000
796,GPU1.SA_05.L0ICache_03,write-hit,0.000000000000
797,GPU1.SA_05.L0ICache_03,write-miss,0.000000000000
798,GPU1.SA_05.L0ICache_03,write-mshr-hit,0.000000000000
799,GPU1.SA_06.L0VCache_00_00,read-hit,209199.000000000000
800,GPU1.SA_06.L0VCache_00_00,read-miss,30327.000000000000
801,GPU1.SA_06.L0VCache_00_00,read-mshr-hit,0.000000000000
802,GPU1.SA_06.L0VCache_00_00,write-hit,0.000000000000
803,GPU1.SA_06.L0VCache_00_00,write-miss,10280.000000000000
804,GPU1.SA_06.L0VCache_00_00,write-mshr-hit,0.000000000000
805,GPU1.SA_06.L0VCache_00_01,read-hit,208690.000000000000
806,GPU1.SA_06.L0VCache_00_01,read-miss,30409.000000000000
807,GPU1.SA_06.L0VCache_00_01,read-mshr-hit,0.000000000000
808,GPU1.SA_06.L0VCache_00_01,write-hit,0.000000000000
809,GPU1.SA_06.L0VCache_00_01,write-miss,10280.000000000000
810,GPU1.SA_06.L0VCache_00_01,write-mshr-hit,0.000000000000
811,GPU1.SA_06.L0VCache_01_00,read-hit,211536.000000000000
812,GPU1.SA_06.L0VCache_01_00,read-miss,28795.000000000000
813,GPU1.SA_06.L0VCache_01_00,read-mshr-hit,0.000000000000
814,GPU1.SA_06.L0VCache_01_00,write-hit,0.000000000000
815,GPU1.SA_06.L0VCache_01_00,write-miss,10304.000000000000
816,GPU1.SA_06.L0VCache_01_00,write-mshr-hit,0.000000000000
817,GPU1.SA_06.L0VCache_01_01,read-hit,210947.000000000000
818,GPU1.SA_06.L0VCache_01_01,read-miss,28940.000000000000
819,GPU1.SA_06.L0VCache_01_01,read-mshr-hit,0.000000000000
820,GPU1.SA_06.L0VCache_01_01,write-hit,0.000000000000
821,GPU1.SA_06.L0VCache_01_01,write-miss,10304.000000000000
822,GPU1.SA_06.L0VCache_01_01,write-mshr-hit,0.000000000000
823,GPU1.SA_06.L0VCache_02_00,read-hit,204301.000000000000
824,GPU1.SA_06.L0VCache_02_00,read-miss,32474.000000000000
825,GPU1.SA_06.L0VCache_02_00,read-mshr-hit,0.000000000000
826,GPU1.SA_06.L0VCache_02_00,write-hit,0.000000000000
827,GPU1.SA_06.L0VCache_02_00,write-miss,10176.000000000000
828,GPU1.SA_06.L0VCache_02_00,write-mshr-hit,0.000000000000
829,GPU1.SA_06.L0VCache_02_01,read-hit,204343.000000000000
830,GPU1.SA_06.L0VCache_02_01,read-miss,32139.000000000000
831,GPU1.SA_06.L0VCache_02_01,read-mshr-hit,0.000000000000
832,GPU1.SA_06.L0VCache_02_01,write-hit,0.000000000000
833,GPU1.SA_06.L0VCache_02_01,write-miss,10176.000000000000
834,GPU1.SA_06.L0VCache_02_01,write-mshr-hit,0.000000000000
835,GPU1.SA_06.L0VCache_03_00,read-hit,208334.000000000000
836,GPU1.SA_06.L0VCache_03_00,read-miss,29336.000000000000
837,GPU1.SA_06.L0VCache_03_00,read-mshr-hit,0.000000000000
838,GPU1.SA_06.L0VCache_03_00,write-hit,0.000000000000
839,GPU1.SA_06.L0VCache_03_00,write-miss,10200.000000000000
840,GPU1.SA_06.L0VCache_03_00,write-mshr-hit,0.000000000000
841,GPU1.SA_06.L0VCache_03_01,read-hit,207999.000000000000
842,GPU1.SA_06.L0VCache_03_01,read-miss,29415.000000000000
843,GPU1.SA_06.L0VCache_03_01,read-mshr-hit,0.000000000000
844,GPU1.SA_06.L0VCache_03_01,write-hit,0.000000000000
845,GPU1.SA_06.L0VCache_03_01,write-miss,10200.000000000000
846,GPU1.SA_06.L0VCache_03_01,write-mshr-hit,0.000000000000
847,GPU1.SA_06.L1Cache,read-hit,155418.000000000000
848,GPU1.SA_06.L1Cache,read-miss,86402.000000000000
849,GPU1.SA_06.L1Cache,read-mshr-hit,0.000000000000
850,GPU1.SA_06.L1Cache,write-hit,0.000000000000
851,GPU1.SA_06.L1Cache,write-miss,81920.000000000000
852,GPU1.SA_06.L1Cache,write-mshr-hit,0.000000000000
853,GPU1.SA_06.L0SCache_00,read-hit,205552.000000000000
854,GPU1.SA_06.L0SCache_00,read-miss,3.000000000000
855,GPU1.SA_06.L0SCache_00,read-mshr-hit,0.000000000000
856,GPU1.SA_06.L0SCache_00,write-hit,0.000000000000
857,GPU1.SA_06.L0SCache_00,write-miss,0.000000000000
858,GPU1.SA_06.L0SCache_00,write-mshr-hit,0.000000000000
859,GPU1.SA_06.L0SCache_01,read-hit,206032.000000000000
860,GPU1.SA_06.L0SCache_01,read-miss,3.000000000000
861,GPU1.SA_06.L0SCache_01,read-mshr-hit,0.000000000000
862,GPU1.SA_06.L0SCache_01,write-hit,0.000000000000
863,GPU1.SA_06.L0SCache_01,write-miss,0.000000000000
864,GPU1.SA_06.L0SCache_01,write-mshr-hit,0.000000000000
865,GPU1.SA_06.L0SCache_02,read-hit,203472.000000000000
866,GPU1.SA_06.L0SCache_02,read-miss,3.000000000000
867,GPU1.SA_06.L0SCache_02,read-mshr-hit,0.000000000000
868,GPU1.SA_06.L0SCache_02,write-hit,0.000000000000
869,GPU1.SA_06.L0SCache_02,write-miss,0.000000000000
870,GPU1.SA_06.L0SCache_02,write-mshr-hit,0.000000000000
871,GPU1.SA_06.L0SCache_03,read-hit,203952.000000000000
872,GPU1.SA_06.L0SCache_03,read-miss,3.000000000000
873,GPU1.SA_06.L0SCache_03,read-mshr-hit,0.000000000000
874,GPU1.SA_06.L0SCache_03,write-hit,0.000000000000
875,GPU1.SA_06.L0SCache_03,write-miss,0.000000000000
876,GPU1.SA_06.L0SCache_03,write-mshr-hit,0.000000000000
877,GPU1.SA_06.L0ICache_00,read-hit,914764.000000000000
878,GPU1.SA_06.L0ICache_00,read-miss,7.000000000000
879,GPU1.SA_06.L0ICache_00,read-mshr-hit,0.000000000000
880,GPU1.SA_06.L0ICache_00,write-hit,0.000000000000
881,GPU1.SA_06.L0ICache_00,write-miss,0.000000000000
882,GPU1.SA_06.L0ICache_00,write-mshr-hit,0.000000000000
883,GPU1.SA_06.L0ICache_01,read-hit,916906.000000000000
884,GPU1.SA_06.L0ICache_01,read-miss,7.000000000000
885,GPU1.SA_06.L0ICache_01,read-mshr-hit,0.000000000000
886,GPU1.SA_06.L0ICache_01,write-hit,0.000000000000
887,GPU1.SA_06.L0ICache_01,write-miss,0.000000000000
888,GPU1.SA_06.L0ICache_01,write-mshr-hit,0.000000000000
889,GPU1.SA_06.L0ICache_02,read-hit,905526.000000000000
890,GPU1.SA_06.L0ICache_02,read-miss,7.000000000000
891,GPU1.SA_06.L0ICache_02,read-mshr-hit,0.000000000000
892,GPU1.SA_06.L0ICache_02,write-hit,0.000000000000
893,GPU1.SA_06.L0ICache_02,write-miss,0.000000000000
894,GPU1.SA_06.L0ICache_02,write-mshr-hit,0.000000000000
895,GPU1.SA_06.L0ICache_03,read-hit,907659.000000000000
896,GPU1.SA_06.L0ICache_03,read-miss,7.000000000000
897,GPU1.SA_06.L0ICache_03,read-mshr-hit,0.000000000000
898,GPU1.SA_06.L0ICache_03,write-hit,0.000000000000
899,GPU1.SA_06.L0ICache_03,write-miss,0.000000000000
900,GPU1.SA_06.L0ICache_03,write-mshr-hit,0.000000000000
901,GPU1.SA_07.L0VCache_00_00,read-hit,204917.000000000000
902,GPU1.SA_07.L0VCache_00_00,read-miss,32393.000000000000
903,GPU1.SA_07.L0VCache_00_00,read-mshr-hit,0.000000000000
904,GPU1.SA_07.L0VCache_00_00,write-hit,0.000000000000
905,GPU1.SA_07.L0VCache_00_00,write-miss,10200.000000000000
906,GPU1.SA_07.L0VCache_00_00,write-mshr-hit,0.000000000000
907,GPU1.SA_07.L0VCache_00_01,read-hit,204787.000000000000
908,GPU1.SA_07.L0VCache_00_01,read-miss,32148.000000000000
909,GPU1.SA_07.L0VCache_00_01,read-mshr-hit,0.000000000000
910,GPU1.SA_07.L0VCache_00_01,write-hit,0.000000000000
911,GPU1.SA_07.L0VCache_00_01,write-miss,10200.000000000000
912,GPU1.SA_07.L0VCache_00_01,write-mshr-hit,0.000000000000
913,GPU1.SA_07.L0VCache_01_00,read-hit,212341.000000000000
914,GPU1.SA_07.L0VCache_01_00,read-miss,28207.000000000000
915,GPU1.SA_07.L0VCache_01_00,read-mshr-hit,0.000000000000
916,GPU1.SA_07.L0VCache_01_00,write-hit,0.000000000000
917,GPU1.SA_07.L0VCache_01_00,write-miss,10312.000000000000
918,GPU1.SA_07.L0VCache_01_00,write-mshr-hit,0.000000000000
919,GPU1.SA_07.L0VCache_01_01,read-hit,212130.000000000000
920,GPU1.SA_07.L0VCache_01_01,read-miss,28106.000000000000
921,GPU1.SA_07.L0VCache_01_01,read-mshr-hit,0.000000000000
922,GPU1.SA_07.L0VCache_01_01,write-hit,0.000000000000
923,GPU1.SA_07.L0VCache_01_01,write-miss,10312.000000000000
924,GPU1.SA_07.L0VCache_01_01,write-mshr-hit,0.000000000000
925,GPU1.SA_07.L0VCache_02_00,read-hit,206467.000000000000
926,GPU1.SA_07.L0VCache_02_00,read-miss,31108.000000000000
927,GPU1.SA_07.L0VCache_02_00,read-mshr-hit,0.000000000000
928,GPU1.SA_07.L0VCache_02_00,write-hit,0.000000000000
929,GPU1.SA_07.L0VCache_02_00,write-miss,10208.000000000000
930,GPU1.SA_07.L0VCache_02_00,write-mshr-hit,0.000000000000
931,GPU1.SA_07.L0VCache_02_01,read-hit,206014.000000000000
932,GPU1.SA_07.L0VCache_02_01,read-miss,31178.000000000000
933,GPU1.SA_07.L0VCache_02_01,read-mshr-hit,0.000000000000
934,GPU1.SA_07.L0VCache_02_01,write-hit,0.000000000000
935,GPU1.SA_07.L0VCache_02_01,write-miss,10208.000000000000
936,GPU1.SA_07.L0VCache_02_01,write-mshr-hit,0.000000000000
937,GPU1.SA_07.L0VCache_03_00,read-hit,214652.000000000000
938,GPU1.SA_07.L0VCache_03_00,read-miss,26359.000000000000
939,GPU1.SA_07.L0VCache_03_00,read-mshr-hit,0.000000000000
940,GPU1.SA_07.L0VCache_03_00,write-hit,0.000000000000
941,GPU1.SA_07.L0VCache_03_00,write-miss,10328.000000000000
942,GPU1.SA_07.L0VCache_03_00,write-mshr-hit,0.000000000000
943,GPU1.SA_07.L0VCache_03_01,read-hit,214509.000000000000
944,GPU1.SA_07.L0VCache_03_01,read-miss,26271.000000000000
945,GPU1.SA_07.L0VCache_03_01,read-mshr-hit,0.000000000000
946,GPU1.SA_07.L0VCache_03_01,write-hit,0.000000000000
947,GPU1.SA_07.L0VCache_03_01,write-miss,10328.000000000000
948,GPU1.SA_07.L0VCache_03_01,write-mshr-hit,0.000000000000
949,GPU1.SA_07.L1Cache,read-hit,149168.000000000000
950,GPU1.SA_07.L1Cache,read-miss,86578.000000000000
951,GPU1.SA_07.L1Cache,read-mshr-hit,0.000000000000
952,GPU1.SA_07.L1Cache,write-hit,0.000000000000
953,GPU1.SA_07.L1Cache,write-miss,82096.000000000000
954,GPU1.SA_07.L1Cache,write-mshr-hit,0.000000000000
955,GPU1.SA_07.L0SCache_00,read-hit,203952.000000000000
956,GPU1.SA_07.L0SCache_00,read-miss,3.000000000000
957,GPU1.SA_07.L0SCache_00,read-mshr-hit,0.000000000000
958,GPU1.SA_07.L0SCache_00,write-hit,0.000000000000
959,GPU1.SA_07.L0SCache_00,write-miss,0.000000000000
960,GPU1.SA_07.L0SCache_00,write-mshr-hit,0.000000000000
961,GPU1.SA_07.L0SCache_01,read-hit,206192.000000000000
962,GPU1.SA_07.L0SCache_01,read-miss,3.000000000000
963,GPU1.SA_07.L0SCache_01,read-mshr-hit,0.000000000000
964,GPU1.SA_07.L0SCache_01,write-hit,0.000000000000
965,GPU1.SA_07.L0SCache_01,write-miss,0.000000000000
966,GPU1.SA_07.L0SCache_01,write-mshr-hit,0.000000000000
967,GPU1.SA_07.L0SCache_02,read-hit,204112.000000000000
968,GPU1.SA_07.L0SCache_02,read-miss,3.000000000000
969,GPU1.SA_07.L0SCache_02,read-mshr-hit,0.000000000000
970,GPU1.SA_07.L0SCache_02,write-hit,0.000000000000
971,GPU1.SA_07.L0SCache_02,write-miss,0.000000000000
972,GPU1.SA_07.L0SCache_02,write-mshr-hit,0.000000000000
973,GPU1.SA_07.L0SCache_03,read-hit,206512.000000000000
974,GPU1.SA_07.L0SCache_03,read-miss,3.000000000000
975,GPU1.SA_07.L0SCache_03,read-mshr-hit,0.000000000000
976,GPU1.SA_07.L0SCache_03,write-hit,0.000000000000
977,GPU1.SA_07.L0SCache_03,write-miss,0.000000000000
978,GPU1.SA_07.L0SCache_03,write-mshr-hit,0.000000000000
979,GPU1.SA_07.L0ICache_00,read-hit,907644.000000000000
980,GPU1.SA_07.L0ICache_00,read-miss,7.000000000000
981,GPU1.SA_07.L0ICache_00,read-mshr-hit,0.000000000000
982,GPU1.SA_07.L0ICache_00,write-hit,0.000000000000
983,GPU1.SA_07.L0ICache_00,write-miss,0.000000000000
984,GPU1.SA_07.L0ICache_00,write-mshr-hit,0.000000000000
985,GPU1.SA_07.L0ICache_01,read-hit,917626.000000000000
986,GPU1.SA_07.L0ICache_01,read-miss,7.000000000000
987,GPU1.SA_07.L0ICache_01,read-mshr-hit,0.000000000000
988,GPU1.SA_07.L0ICache_01,write-hit,0.000000000000
989,GPU1.SA_07.L0ICache_01,write-miss,0.000000000000
990,GPU1.SA_07.L0ICache_01,write-mshr-hit,0.000000000000
991,GPU1.SA_07.L0ICache_02,read-hit,908371.000000000000
992,GPU1.SA_07.L0ICache_02,read-miss,7.000000000000
993,GPU1.SA_07.L0ICache_02,read-mshr-hit,0.000000000000
994,GPU1.SA_07.L0ICache_02,write-hit,0.000000000000
995,GPU1.SA_07.L0ICache_02,write-miss,0.000000000000
996,GPU1.SA_07.L0ICache_02,write-mshr-hit,0.000000000000
997,GPU1.SA_07.L0ICache_03,read-hit,919055.000000000000
998,GPU1.SA_07.L0ICache_03,read-miss,7.000000000000
999,GPU1.SA_07.L0ICache_03,read-mshr-hit,0.000000000000
1000,GPU1.SA_07.L0ICache_03,write-hit,0.000000000000
1001,GPU1.SA_07.L0ICache_03,write-miss,0.000000000000
1002,GPU1.SA_07.L0ICache_03,write-mshr-hit,0.000000000000
1003,GPU1.L2_0,read-hit,4.000000000000
1004,GPU1.L2_0,read-miss,40964.000000000000
1005,GPU1.L2_0,read-mshr-hit,0.000000000000
1006,GPU1.L2_0,write-hit,0.000000000000
1007,GPU1.L2_0,write-miss,40960.000000000000
1008,GPU1.L2_0,write-mshr-hit,0.000000000000
1009,GPU1.L2_1,read-hit,7.000000000000
1010,GPU1.L2_1,read-miss,40960.000000000000
1011,GPU1.L2_1,read-mshr-hit,0.000000000000
1012,GPU1.L2_1,write-hit,0.000000000000
1013,GPU1.L2_1,write-miss,40960.000000000000
1014,GPU1.L2_1,write-mshr-hit,0.000000000000
1015,GPU1.L2_2,read-hit,7.000000000000
1016,GPU1.L2_2,read-miss,40962.000000000000
1017,GPU1.L2_2,read-mshr-hit,0.000000000000
1018,GPU1.L2_2,write-hit,0.000000000000
1019,GPU1.L2_2,write-miss,40960.000000000000
1020,GPU1.L2_2,write-mshr-hit,0.000000000000
1021,GPU1.L2_3,read-hit,7.000000000000
1022,GPU1.L2_3,read-miss,40962.000000000000
1023,GPU1.L2_3,read-mshr-hit,0.000000000000
1024,GPU1.L2_3,write-hit,0.000000000000
1025,GPU1.L2_3,write-miss,40960.000000000000
1026,GPU1.L2_3,write-mshr-hit,0.000000000000
1027,GPU1.L2_4,read-hit,2.000000000000
1028,GPU1.L2_4,read-miss,40962.000000000000
1029,GPU1.L2_4,read-mshr-hit,0.000000000000
1030,GPU1.L2_4,write-hit,0.000000000000
1031,GPU1.L2_4,write-miss,40960.000000000000
1032,GPU1.L2_4,write-mshr-hit,0.000000000000
1033,GPU1.L2_5,read-hit,7.000000000000
1034,GPU1.L2_5,read-miss,40961.000000000000
1035,GPU1.L2_5,read-mshr-hit,0.000000000000
1036,GPU1.L2_5,write-hit,0.000000000000
1037,GPU1.L2_5,write-miss,40960.000000000000
1038,GPU1.L2_5,write-mshr-hit,0.000000000000
1039,GPU1.L2_6,read-hit,5.000000000000
1040,GPU1.L2_6,read-miss,40960.000000000000
1041,GPU1.L2_6,read-mshr-hit,0.000000000000
1042,GPU1.L2_6,write-hit,0.000000000000
1043,GPU1.L2_6,write-miss,40960.000000000000
1044,GPU1.L2_6,write-mshr-hit,0.000000000000
1045,GPU1.L2_7,read-hit,18246.000000000000
1046,GPU1.L2_7,read-miss,40960.000000000000
1047,GPU1.L2_7,read-mshr-hit,0.000000000000
1048,GPU1.L2_7,write-hit,0.000000000000
1049,GPU1.L2_7,write-miss,40960.000000000000
1050,GPU1.L2_7,write-mshr-hit,0.000000000000
1051,GPU1.L2_8,read-hit,0.000000000000
1052,GPU1.L2_8,read-miss,40960.000000000000
1053,GPU1.L2_8,read-mshr-hit,0.000000000000
1054,GPU1.L2_8,write-hit,0.000000000000
1055,GPU1.L2_8,write-miss,40960.000000000000
1056,GPU1.L2_8,write-mshr-hit,0.000000000000
1057,GPU1.L2_9,read-hit,0.000000000000
1058,GPU1.L2_9,read-miss,40960.000000000000
1059,GPU1.L2_9,read-mshr-hit,0.000000000000
1060,GPU1.L2_9,write-hit,0.000000000000
1061,GPU1.L2_9,write-miss,40960.000000000000
1062,GPU1.L2_9,write-mshr-hit,0.000000000000
1063,GPU1.L2_10,read-hit,0.000000000000
1064,GPU1.L2_10,read-miss,40960.000000000000
1065,GPU1.L2_10,read-mshr-hit,0.000000000000
1066,GPU1.L2_10,write-hit,0.000000000000
1067,GPU1.L2_10,write-miss,40960.000000000000
1068,GPU1.L2_10,write-mshr-hit,0.000000000000
1069,GPU1.L2_11,read-hit,0.000000000000
1070,GPU1.L2_11,read-miss,40960.000000000000
1071,GPU1.L2_11,read-mshr-hit,0.000000000000
1072,GPU1.L2_11,write-hit,0.000000000000
1073,GPU1.L2_11,write-miss,40960.000000000000
1074,GPU1.L2_11,write-mshr-hit,0.000000000000
1075,GPU1.L2_12,read-hit,0.000000000000
1076,GPU1.L2_12,read-miss,40960.000000000000
1077,GPU1.L2_12,read-mshr-hit,0.000000000000
1078,GPU1.L2_12,write-hit,0.000000000000
1079,GPU1.L2_12,write-miss,40960.000000000000
1080,GPU1.L2_12,write-mshr-hit,0.000000000000
1081,GPU1.L2_13,read-hit,0.000000000000
1082,GPU1.L2_13,read-miss,40960.000000000000
1083,GPU1.L2_13,read-mshr-hit,0.000000000000
1084,GPU1.L2_13,write-hit,0.000000000000
1085,GPU1.L2_13,write-miss,40960.000000000000
1086,GPU1.L2_13,write-mshr-hit,0.000000000000
1087,GPU1.L2_14,read-hit,0.000000000000
1088,GPU1.L2_14,read-miss,40960.000000000000
1089,GPU1.L2_14,read-mshr-hit,0.000000000000
1090,GPU1.L2_14,write-hit,0.000000000000
1091,GPU1.L2_14,write-miss,40960.000000000000
1092,GPU1.L2_14,write-mshr-hit,0.000000000000
1093,GPU1.L2_15,read-hit,18246.000000000000
1094,GPU1.L2_15,read-miss,40960.000000000000
1095,GPU1.L2_15,read-mshr-hit,0.000000000000
1096,GPU1.L2_15,write-hit,0.000000000000
1097,GPU1.L2_15,write-miss,40960.000000000000
1098,GPU1.L2_15,write-mshr-hit,0.000000000000
1099,GPU1.SA_00.L0VTLB_00_00,hit,234551.000000000000
1100,GPU1.SA_00.L0VTLB_00_00,miss,2809.000000000000
1101,GPU1.SA_00.L0VTLB_00_00,mshr-hit,15480.000000000000
1102,GPU1.SA_00.L0VTLB_00_01,hit,234879.000000000000
1103,GPU1.SA_00.L0VTLB_00_01,miss,2496.000000000000
1104,GPU1.SA_00.L0VTLB_00_01,mshr-hit,15465.000000000000
1105,GPU1.SA_00.L0VTLB_01_00,hit,231902.000000000000
1106,GPU1.SA_00.L0VTLB_01_00,miss,2727.000000000000
1107,GPU1.SA_00.L0VTLB_01_00,mshr-hit,14683.000000000000
1108,GPU1.SA_00.L0VTLB_01_01,hit,232005.000000000000
1109,GPU1.SA_00.L0VTLB_01_01,miss,2454.000000000000
1110,GPU1.SA_00.L0VTLB_01_01,mshr-hit,14853.000000000000
1111,GPU1.SA_00.L0VTLB_02_00,hit,233086.000000000000
1112,GPU1.SA_00.L0VTLB_02_00,miss,2750.000000000000
1113,GPU1.SA_00.L0VTLB_02_00,mshr-hit,15240.000000000000
1114,GPU1.SA_00.L0VTLB_02_01,hit,233205.000000000000
1115,GPU1.SA_00.L0VTLB_02_01,miss,2464.000000000000
1116,GPU1.SA_00.L0VTLB_02_01,mshr-hit,15407.000000000000
1117,GPU1.SA_00.L0VTLB_03_00,hit,231683.000000000000
1118,GPU1.SA_00.L0VTLB_03_00,miss,2666.000000000000
1119,GPU1.SA_00.L0VTLB_03_00,mshr-hit,14963.000000000000
1120,GPU1.SA_00.L0VTLB_03_01,hit,231824.000000000000
1121,GPU1.SA_00.L0VTLB_03_01,miss,2396.000000000000
1122,GPU1.SA_00.L0VTLB_03_01,mshr-hit,15092.000000000000
1123,GPU1.SA_00.L0STLB_00,hit,206192.000000000000
1124,GPU1.SA_00.L0STLB_00,miss,3.000000000000
1125,GPU1.SA_00.L0STLB_00,mshr-hit,205.000000000000
1126,GPU1.SA_00.L0STLB_01,hit,203312.000000000000
1127,GPU1.SA_00.L0STLB_01,miss,3.000000000000
1128,GPU1.SA_00.L0STLB_01,mshr-hit,205.000000000000
1129,GPU1.SA_00.L0STLB_02,hit,204752.000000000000
1130,GPU1.SA_00.L0STLB_02,miss,3.000000000000
1131,GPU1.SA_00.L0STLB_02,mshr-hit,205.000000000000
1132,GPU1.SA_00.L0STLB_03,hit,203312.000000000000
1133,GPU1.SA_00.L0STLB_03,miss,3.000000000000
1134,GPU1.SA_00.L0STLB_03,mshr-hit,205.000000000000
1135,GPU1.SA_00.L0ITLB_00,hit,6.000000000000
1136,GPU1.SA_00.L0ITLB_00,miss,1.000000000000
1137,GPU1.SA_00.L0ITLB_00,mshr-hit,0.000000000000
1138,GPU1.SA_00.L0ITLB_01,hit,6.000000000000
1139,GPU1.SA_00.L0ITLB_01,miss,1.000000000000
1140,GPU1.SA_00.L0ITLB_01,mshr-hit,0.000000000000
1141,GPU1.SA_00.L0ITLB_02,hit,6.000000000000
1142,GPU1.SA_00.L0ITLB_02,miss,1.000000000000
1143,GPU1.SA_00.L0ITLB_02,mshr-hit,0.000000000000
1144,GPU1.SA_00.L0ITLB_03,hit,6.000000000000
1145,GPU1.SA_00.L0ITLB_03,miss,1.000000000000
1146,GPU1.SA_00.L0ITLB_03,mshr-hit,0.000000000000
1147,GPU1.SA_01.L0VTLB_00_00,hit,234855.000000000000
1148,GPU1.SA_01.L0VTLB_00_00,miss,2825.000000000000
1149,GPU1.SA_01.L0VTLB_00_00,mshr-hit,15356.000000000000
1150,GPU1.SA_01.L0VTLB_00_01,hit,235048.000000000000
1151,GPU1.SA_01.L0VTLB_00_01,miss,2502.000000000000
1152,GPU1.SA_01.L0VTLB_00_01,mshr-hit,15486.000000000000
1153,GPU1.SA_01.L0VTLB_01_00,hit,233450.000000000000
1154,GPU1.SA_01.L0VTLB_01_00,miss,2733.000000000000
1155,GPU1.SA_01.L0VTLB_01_00,mshr-hit,15089.000000000000
1156,GPU1.SA_01.L0VTLB_01_01,hit,233581.000000000000
1157,GPU1.SA_01.L0VTLB_01_01,miss,2448.000000000000
1158,GPU1.SA_01.L0VTLB_01_01,mshr-hit,15243.000000000000
1159,GPU1.SA_01.L0VTLB_02_00,hit,233433.000000000000
1160,GPU1.SA_01.L0VTLB_02_00,miss,2740.000000000000
1161,GPU1.SA_01.L0VTLB_02_00,mshr-hit,15295.000000000000
1162,GPU1.SA_01.L0VTLB_02_01,hit,233559.000000000000
1163,GPU1.SA_01.L0VTLB_02_01,miss,2454.000000000000
1164,GPU1.SA_01.L0VTLB_02_01,mshr-hit,15455.000000000000
1165,GPU1.SA_01.L0VTLB_03_00,hit,232845.000000000000
1166,GPU1.SA_01.L0VTLB_03_00,miss,2808.000000000000
1167,GPU1.SA_01.L0VTLB_03_00,mshr-hit,15227.000000000000
1168,GPU1.SA_01.L0VTLB_03_01,hit,232947.000000000000
1169,GPU1.SA_01.L0VTLB_03_01,miss,2500.000000000000
1170,GPU1.SA_01.L0VTLB_03_01,mshr-hit,15433.000000000000
1171,GPU1.SA_01.L0STLB_00,hit,206352.000000000000
1172,GPU1.SA_01.L0STLB_00,miss,3.000000000000
1173,GPU1.SA_01.L0STLB_00,mshr-hit,205.000000000000
1174,GPU1.SA_01.L0STLB_01,hit,204912.000000000000
1175,GPU1.SA_01.L0STLB_01,miss,3.000000000000
1176,GPU1.SA_01.L0STLB_01,mshr-hit,205.000000000000
1177,GPU1.SA_01.L0STLB_02,hit,205072.000000000000
1178,GPU1.SA_01.L0STLB_02,miss,3.000000000000
1179,GPU1.SA_01.L0STLB_02,mshr-hit,205.000000000000
1180,GPU1.SA_01.L0STLB_03,hit,204592.000000000000
1181,GPU1.SA_01.L0STLB_03,miss,3.000000000000
1182,GPU1.SA_01.L0STLB_03,mshr-hit,205.000000000000
1183,GPU1.SA_01.L0ITLB_00,hit,6.000000000000
1184,GPU1.SA_01.L0ITLB_00,miss,1.000000000000
1185,GPU1.SA_01.L0ITLB_00,mshr-hit,0.000000000000
1186,GPU1.SA_01.L0ITLB_01,hit,6.000000000000
1187,GPU1.SA_01.L0ITLB_01,miss,1.000000000000
1188,GPU1.SA_01.L0ITLB_01,mshr-hit,0.000000000000
1189,GPU1.SA_01.L0ITLB_02,hit,6.000000000000
1190,GPU1.SA_01.L0ITLB_02,miss,1.000000000000
1191,GPU1.SA_01.L0ITLB_02,mshr-hit,0.000000000000
1192,GPU1.SA_01.L0ITLB_03,hit,6.000000000000
1193,GPU1.SA_01.L0ITLB_03,miss,1.000000000000
1194,GPU1.SA_01.L0ITLB_03,mshr-hit,0.000000000000
1195,GPU1.SA_02.L0VTLB_00_00,hit,234690.000000000000
1196,GPU1.SA_02.L0VTLB_00_00,miss,2793.000000000000
1197,GPU1.SA_02.L0VTLB_00_00,mshr-hit,15161.000000000000
1198,GPU1.SA_02.L0VTLB_00_01,hit,234889.000000000000
1199,GPU1.SA_02.L0VTLB_00_01,miss,2514.000000000000
1200,GPU1.SA_02.L0VTLB_00_01,mshr-hit,15241.000000000000
1201,GPU1.SA_02.L0VTLB_01_00,hit,233013.000000000000
1202,GPU1.SA_02.L0VTLB_01_00,miss,2768.000000000000
1203,GPU1.SA_02.L0VTLB_01_00,mshr-hit,15099.000000000000
1204,GPU1.SA_02.L0VTLB_01_01,hit,233140.000000000000
1205,GPU1.SA_02.L0VTLB_01_01,miss,2486.000000000000
1206,GPU1.SA_02.L0VTLB_01_01,mshr-hit,15254.000000000000
1207,GPU1.SA_02.L0VTLB_02_00,hit,232446.000000000000
1208,GPU1.SA_02.L0VTLB_02_00,miss,2728.000000000000
1209,GPU1.SA_02.L0VTLB_02_00,mshr-hit,14922.000000000000
1210,GPU1.SA_02.L0VTLB_02_01,hit,232584.000000000000
1211,GPU1.SA_02.L0VTLB_02_01,miss,2456.000000000000
1212,GPU1.SA_02.L0VTLB_02_01,mshr-hit,15056.000000000000
1213,GPU1.SA_02.L0VTLB_03_00,hit,232448.000000000000
1214,GPU1.SA_02.L0VTLB_03_00,miss,2678.000000000000
1215,GPU1.SA_02.L0VTLB_03_00,mshr-hit,14774.000000000000
1216,GPU1.SA_02.L0VTLB_03_01,hit,232655.000000000000
1217,GPU1.SA_02.L0VTLB_03_01,miss,2436.000000000000
1218,GPU1.SA_02.L0VTLB_03_01,mshr-hit,14809.000000000000
1219,GPU1.SA_02.L0STLB_00,hit,206032.000000000000
1220,GPU1.SA_02.L0STLB_00,miss,3.000000000000
1221,GPU1.SA_02.L0STLB_00,mshr-hit,205.000000000000
1222,GPU1.SA_02.L0STLB_01,hit,204592.000000000000
1223,GPU1.SA_02.L0STLB_01,miss,3.000000000000
1224,GPU1.SA_02.L0STLB_01,mshr-hit,205.000000000000
1225,GPU1.SA_02.L0STLB_02,hit,203952.000000000000
1226,GPU1.SA_02.L0STLB_02,miss,3.000000000000
1227,GPU1.SA_02.L0STLB_02,mshr-hit,205.000000000000
1228,GPU1.SA_02.L0STLB_03,hit,203792.000000000000
1229,GPU1.SA_02.L0STLB_03,miss,3.000000000000
1230,GPU1.SA_02.L0STLB_03,mshr-hit,205.000000000000
1231,GPU1.SA_02.L0ITLB_00,hit,6.000000000000
1232,GPU1.SA_02.L0ITLB_00,miss,1.000000000000
1233,GPU1.SA_02.L0ITLB_00,mshr-hit,0.000000000000
1234,GPU1.SA_02.L0ITLB_01,hit,6.000000000000
1235,GPU1.SA_02.L0ITLB_01,miss,1.000000000000
1236,GPU1.SA_02.L0ITLB_01,mshr-hit,0.000000000000
1237,GPU1.SA_02.L0ITLB_02,hit,6.000000000000
1238,GPU1.SA_02.L0ITLB_02,miss,1.000000000000
1239,GPU1.SA_02.L0ITLB_02,mshr-hit,0.000000000000
1240,GPU1.SA_02.L0ITLB_03,hit,6.000000000000
1241,GPU1.SA_02.L0ITLB_03,miss,1.000000000000
1242,GPU1.SA_02.L0ITLB_03,mshr-hit,0.000000000000
1243,GPU1.SA_03.L0VTLB_00_00,hit,234330.000000000000
1244,GPU1.SA_03.L0VTLB_00_00,miss,2771.000000000000
1245,GPU1.SA_03.L0VTLB_00_00,mshr-hit,15347.000000000000
1246,GPU1.SA_03.L0VTLB_00_01,hit,234419.000000000000
1247,GPU1.SA_03.L0VTLB_00_01,miss,2502.000000000000
1248,GPU1.SA_03.L0VTLB_00_01,mshr-hit,15527.000000000000
1249,GPU1.SA_03.L0VTLB_01_00,hit,233929.000000000000
1250,GPU1.SA_03.L0VTLB_01_00,miss,2770.000000000000
1251,GPU1.SA_03.L0VTLB_01_00,mshr-hit,15161.000000000000
1252,GPU1.SA_03.L0VTLB_01_01,hit,234106.000000000000
1253,GPU1.SA_03.L0VTLB_01_01,miss,2482.000000000000
1254,GPU1.SA_03.L0VTLB_01_01,mshr-hit,15272.000000000000
1255,GPU1.SA_03.L0VTLB_02_00,hit,231309.000000000000
1256,GPU1.SA_03.L0VTLB_02_00,miss,2698.000000000000
1257,GPU1.SA_03.L0VTLB_02_00,mshr-hit,14717.000000000000
1258,GPU1.SA_03.L0VTLB_02_01,hit,231425.000000000000
1259,GPU1.SA_03.L0VTLB_02_01,miss,2434.000000000000
1260,GPU1.SA_03.L0VTLB_02_01,mshr-hit,14865.000000000000
1261,GPU1.SA_03.L0VTLB_03_00,hit,232612.000000000000
1262,GPU1.SA_03.L0VTLB_03_00,miss,2711.000000000000
1263,GPU1.SA_03.L0VTLB_03_00,mshr-hit,15165.000000000000
1264,GPU1.SA_03.L0VTLB_03_01,hit,232806.000000000000
1265,GPU1.SA_03.L0VTLB_03_01,miss,2436.000000000000
1266,GPU1.SA_03.L0VTLB_03_01,mshr-hit,15246.000000000000
1267,GPU1.SA_03.L0STLB_00,hit,205872.000000000000
1268,GPU1.SA_03.L0STLB_00,miss,3.000000000000
1269,GPU1.SA_03.L0STLB_00,mshr-hit,205.000000000000
1270,GPU1.SA_03.L0STLB_01,hit,205392.000000000000
1271,GPU1.SA_03.L0STLB_01,miss,3.000000000000
1272,GPU1.SA_03.L0STLB_01,mshr-hit,205.000000000000
1273,GPU1.SA_03.L0STLB_02,hit,202832.000000000000
1274,GPU1.SA_03.L0STLB_02,miss,3.000000000000
1275,GPU1.SA_03.L0STLB_02,mshr-hit,205.000000000000
1276,GPU1.SA_03.L0STLB_03,hit,204272.000000000000
1277,GPU1.SA_03.L0STLB_03,miss,3.000000000000
1278,GPU1.SA_03.L0STLB_03,mshr-hit,205.000000000000
1279,GPU1.SA_03.L0ITLB_00,hit,6.000000000000
1280,GPU1.SA_03.L0ITLB_00,miss,1.000000000000
1281,GPU1.SA_03.L0ITLB_00,mshr-hit,0.000000000000
1282,GPU1.SA_03.L0ITLB_01,hit,6.000000000000
1283,GPU1.SA_03.L0ITLB_01,miss,1.000000000000
1284,GPU1.SA_03.L0ITLB_01,mshr-hit,0.000000000000
1285,GPU1.SA_03.L0ITLB_02,hit,6.000000000000
1286,GPU1.SA_03.L0ITLB_02,miss,1.000000000000
1287,GPU1.SA_03.L0ITLB_02,mshr-hit,0.000000000000
1288,GPU1.SA_03.L0ITLB_03,hit,6.000000000000
1289,GPU1.SA_03.L0ITLB_03,miss,1.000000000000
1290,GPU1.SA_03.L0ITLB_03,mshr-hit,0.000000000000
1291,GPU1.SA_04.L0VTLB_00_00,hit,233725.000000000000
1292,GPU1.SA_04.L0VTLB_00_00,miss,2838.000000000000
1293,GPU1.SA_04.L0VTLB_00_00,mshr-hit,15297.000000000000
1294,GPU1.SA_04.L0VTLB_00_01,hit,233897.000000000000
1295,GPU1.SA_04.L0VTLB_00_01,miss,2510.000000000000
1296,GPU1.SA_04.L0VTLB_00_01,mshr-hit,15453.000000000000
1297,GPU1.SA_04.L0VTLB_01_00,hit,233872.000000000000
1298,GPU1.SA_04.L0VTLB_01_00,miss,2726.000000000000
1299,GPU1.SA_04.L0VTLB_01_00,mshr-hit,14870.000000000000
1300,GPU1.SA_04.L0VTLB_01_01,hit,233900.000000000000
1301,GPU1.SA_04.L0VTLB_01_01,miss,2448.000000000000
1302,GPU1.SA_04.L0VTLB_01_01,mshr-hit,15120.000000000000
1303,GPU1.SA_04.L0VTLB_02_00,hit,232977.000000000000
1304,GPU1.SA_04.L0VTLB_02_00,miss,2725.000000000000
1305,GPU1.SA_04.L0VTLB_02_00,mshr-hit,14786.000000000000
1306,GPU1.SA_04.L0VTLB_02_01,hit,233138.000000000000
1307,GPU1.SA_04.L0VTLB_02_01,miss,2452.000000000000
1308,GPU1.SA_04.L0VTLB_02_01,mshr-hit,14898.000000000000
1309,GPU1.SA_04.L0VTLB_03_00,hit,232933.000000000000
1310,GPU1.SA_04.L0VTLB_03_00,miss,2764.000000000000
1311,GPU1.SA_04.L0VTLB_03_00,mshr-hit,14987.000000000000
1312,GPU1.SA_04.L0VTLB_03_01,hit,233173.000000000000
1313,GPU1.SA_04.L0VTLB_03_01,miss,2462.000000000000
1314,GPU1.SA_04.L0VTLB_03_01,mshr-hit,15049.000000000000
1315,GPU1.SA_04.L0STLB_00,hit,205392.000000000000
1316,GPU1.SA_04.L0STLB_00,miss,3.000000000000
1317,GPU1.SA_04.L0STLB_00,mshr-hit,205.000000000000
1318,GPU1.SA_04.L0STLB_01,hit,205072.000000000000
1319,GPU1.SA_04.L0STLB_01,miss,3.000000000000
1320,GPU1.SA_04.L0STLB_01,mshr-hit,205.000000000000
1321,GPU1.SA_04.L0STLB_02,hit,204272.000000000000
1322,GPU1.SA_04.L0STLB_02,miss,3.000000000000
1323,GPU1.SA_04.L0STLB_02,mshr-hit,205.000000000000
1324,GPU1.SA_04.L0STLB_03,hit,204432.000000000000
1325,GPU1.SA_04.L0STLB_03,miss,3.000000000000
1326,GPU1.SA_04.L0STLB_03,mshr-hit,205.000000000000
1327,GPU1.SA_04.L0ITLB_00,hit,6.000000000000
1328,GPU1.SA_04.L0ITLB_00,miss,1.000000000000
1329,GPU1.SA_04.L0ITLB_00,mshr-hit,0.000000000000
1330,GPU1.SA_04.L0ITLB_01,hit,6.000000000000
1331,GPU1.SA_04.L0ITLB_01,miss,1.000000000000
1332,GPU1.SA_04.L0ITLB_01,mshr-hit,0.000000000000
1333,GPU1.SA_04.L0ITLB_02,hit,6.000000000000
1334,GPU1.SA_04.L0ITLB_02,miss,1.000000000000
1335,GPU1.SA_04.L0ITLB_02,mshr-hit,0.000000000000
1336,GPU1.SA_04.L0ITLB_03,hit,6.000000000000
1337,GPU1.SA_04.L0ITLB_03,miss,1.000000000000
1338,GPU1.SA_04.L0ITLB_03,mshr-hit,0.000000000000
1339,GPU1.SA_05.L0VTLB_00_00,hit,232541.000000000000
1340,GPU1.SA_05.L0VTLB_00_00,miss,2747.000000000000
1341,GPU1.SA_05.L0VTLB_00_00,mshr-hit,14612.000000000000
1342,GPU1.SA_05.L0VTLB_00_01,hit,232634.000000000000
1343,GPU1.SA_05.L0VTLB_00_01,miss,2440.000000000000
1344,GPU1.SA_05.L0VTLB_00_01,mshr-hit,14826.000000000000
1345,GPU1.SA_05.L0VTLB_01_00,hit,233522.000000000000
1346,GPU1.SA_05.L0VTLB_01_00,miss,2734.000000000000
1347,GPU1.SA_05.L0VTLB_01_00,mshr-hit,15212.000000000000
1348,GPU1.SA_05.L0VTLB_01_01,hit,233649.000000000000
1349,GPU1.SA_05.L0VTLB_01_01,miss,2450.000000000000
1350,GPU1.SA_05.L0VTLB_01_01,mshr-hit,15369.000000000000
1351,GPU1.SA_05.L0VTLB_02_00,hit,231331.000000000000
1352,GPU1.SA_05.L0VTLB_02_00,miss,2726.000000000000
1353,GPU1.SA_05.L0VTLB_02_00,mshr-hit,14667.000000000000
1354,GPU1.SA_05.L0VTLB_02_01,hit,231537.000000000000
1355,GPU1.SA_05.L0VTLB_02_01,miss,2442.000000000000
1356,GPU1.SA_05.L0VTLB_02_01,mshr-hit,14745.000000000000
1357,GPU1.SA_05.L0VTLB_03_00,hit,230718.000000000000
1358,GPU1.SA_05.L0VTLB_03_00,miss,2715.000000000000
1359,GPU1.SA_05.L0VTLB_03_00,mshr-hit,14703.000000000000
1360,GPU1.SA_05.L0VTLB_03_01,hit,230755.000000000000
1361,GPU1.SA_05.L0VTLB_03_01,miss,2442.000000000000
1362,GPU1.SA_05.L0VTLB_03_01,mshr-hit,14939.000000000000
1363,GPU1.SA_05.L0STLB_00,hit,203792.000000000000
1364,GPU1.SA_05.L0STLB_00,miss,3.000000000000
1365,GPU1.SA_05.L0STLB_00,mshr-hit,205.000000000000
1366,GPU1.SA_05.L0STLB_01,hit,205072.000000000000
1367,GPU1.SA_05.L0STLB_01,miss,3.000000000000
1368,GPU1.SA_05.L0STLB_01,mshr-hit,205.000000000000
1369,GPU1.SA_05.L0STLB_02,hit,202832.000000000000
1370,GPU1.SA_05.L0STLB_02,miss,3.000000000000
1371,GPU1.SA_05.L0STLB_02,mshr-hit,205.000000000000
1372,GPU1.SA_05.L0STLB_03,hit,202352.000000000000
1373,GPU1.SA_05.L0STLB_03,miss,3.000000000000
1374,GPU1.SA_05.L0STLB_03,mshr-hit,205.000000000000
1375,GPU1.SA_05.L0ITLB_00,hit,6.000000000000
1376,GPU1.SA_05.L0ITLB_00,miss,1.000000000000
1377,GPU1.SA_05.L0ITLB_00,mshr-hit,0.000000000000
1378,GPU1.SA_05.L0ITLB_01,hit,6.000000000000
1379,GPU1.SA_05.L0ITLB_01,miss,1.000000000000
1380,GPU1.SA_05.L0ITLB_01,mshr-hit,0.000000000000
1381,GPU1.SA_05.L0ITLB_02,hit,6.000000000000
1382,GPU1.SA_05.L0ITLB_02,miss,1.000000000000
1383,GPU1.SA_05.L0ITLB_02,mshr-hit,0.000000000000
1384,GPU1.SA_05.L0ITLB_03,hit,6.000000000000
1385,GPU1.SA_05.L0ITLB_03,miss,1.000000000000
1386,GPU1.SA_05.L0ITLB_03,mshr-hit,0.000000000000
1387,GPU1.SA_06.L0VTLB_00_00,hit,233873.000000000000
1388,GPU1.SA_06.L0VTLB_00_00,miss,2764.000000000000
1389,GPU1.SA_06.L0VTLB_00_00,mshr-hit,15223.000000000000
1390,GPU1.SA_06.L0VTLB_00_01,hit,234037.000000000000
1391,GPU1.SA_06.L0VTLB_00_01,miss,2490.000000000000
1392,GPU1.SA_06.L0VTLB_00_01,mshr-hit,15333.000000000000
1393,GPU1.SA_06.L0VTLB_01_00,hit,234301.000000000000
1394,GPU1.SA_06.L0VTLB_01_00,miss,2769.000000000000
1395,GPU1.SA_06.L0VTLB_01_00,mshr-hit,15378.000000000000
1396,GPU1.SA_06.L0VTLB_01_01,hit,234524.000000000000
1397,GPU1.SA_06.L0VTLB_01_01,miss,2478.000000000000
1398,GPU1.SA_06.L0VTLB_01_01,mshr-hit,15446.000000000000
1399,GPU1.SA_06.L0VTLB_02_00,hit,231668.000000000000
1400,GPU1.SA_06.L0VTLB_02_00,miss,2718.000000000000
1401,GPU1.SA_06.L0VTLB_02_00,mshr-hit,14926.000000000000
1402,GPU1.SA_06.L0VTLB_02_01,hit,231786.000000000000
1403,GPU1.SA_06.L0VTLB_02_01,miss,2420.000000000000
1404,GPU1.SA_06.L0VTLB_02_01,mshr-hit,15106.000000000000
1405,GPU1.SA_06.L0VTLB_03_00,hit,232090.000000000000
1406,GPU1.SA_06.L0VTLB_03_00,miss,2741.000000000000
1407,GPU1.SA_06.L0VTLB_03_00,mshr-hit,15069.000000000000
1408,GPU1.SA_06.L0VTLB_03_01,hit,232218.000000000000
1409,GPU1.SA_06.L0VTLB_03_01,miss,2460.000000000000
1410,GPU1.SA_06.L0VTLB_03_01,mshr-hit,15222.000000000000
1411,GPU1.SA_06.L0STLB_00,hit,205392.000000000000
1412,GPU1.SA_06.L0STLB_00,miss,3.000000000000
1413,GPU1.SA_06.L0STLB_00,mshr-hit,205.000000000000
1414,GPU1.SA_06.L0STLB_01,hit,205872.000000000000
1415,GPU1.SA_06.L0STLB_01,miss,3.000000000000
1416,GPU1.SA_06.L0STLB_01,mshr-hit,205.000000000000
1417,GPU1.SA_06.L0STLB_02,hit,203312.000000000000
1418,GPU1.SA_06.L0STLB_02,miss,3.000000000000
1419,GPU1.SA_06.L0STLB_02,mshr-hit,205.000000000000
1420,GPU1.SA_06.L0STLB_03,hit,203792.000000000000
1421,GPU1.SA_06.L0STLB_03,miss,3.000000000000
1422,GPU1.SA_06.L0STLB_03,mshr-hit,205.000000000000
1423,GPU1.SA_06.L0ITLB_00,hit,6.000000000000
1424,GPU1.SA_06.L0ITLB_00,miss,1.000000000000
1425,GPU1.SA_06.L0ITLB_00,mshr-hit,0.000000000000
1426,GPU1.SA_06.L0ITLB_01,hit,6.000000000000
1427,GPU1.SA_06.L0ITLB_01,miss,1.000000000000
1428,GPU1.SA_06.L0ITLB_01,mshr-hit,0.000000000000
1429,GPU1.SA_06.L0ITLB_02,hit,6.000000000000
1430,GPU1.SA_06.L0ITLB_02,miss,1.000000000000
1431,GPU1.SA_06.L0ITLB_02,mshr-hit,0.000000000000
1432,GPU1.SA_06.L0ITLB_03,hit,6.000000000000
1433,GPU1.SA_06.L0ITLB_03,miss,1.000000000000
1434,GPU1.SA_06.L0ITLB_03,mshr-hit,0.000000000000
1435,GPU1.SA_07.L0VTLB_00_00,hit,232391.000000000000
1436,GPU1.SA_07.L0VTLB_00_00,miss,2735.000000000000
1437,GPU1.SA_07.L0VTLB_00_00,mshr-hit,14774.000000000000
1438,GPU1.SA_07.L0VTLB_00_01,hit,232527.000000000000
1439,GPU1.SA_07.L0VTLB_00_01,miss,2444.000000000000
1440,GPU1.SA_07.L0VTLB_00_01,mshr-hit,14929.000000000000
1441,GPU1.SA_07.L0VTLB_01_00,hit,234369.000000000000
1442,GPU1.SA_07.L0VTLB_01_00,miss,2784.000000000000
1443,GPU1.SA_07.L0VTLB_01_00,mshr-hit,15491.000000000000
1444,GPU1.SA_07.L0VTLB_01_01,hit,234411.000000000000
1445,GPU1.SA_07.L0VTLB_01_01,miss,2492.000000000000
1446,GPU1.SA_07.L0VTLB_01_01,mshr-hit,15741.000000000000
1447,GPU1.SA_07.L0VTLB_02_00,hit,232491.000000000000
1448,GPU1.SA_07.L0VTLB_02_00,miss,2770.000000000000
1449,GPU1.SA_07.L0VTLB_02_00,mshr-hit,14835.000000000000
1450,GPU1.SA_07.L0VTLB_02_01,hit,232688.000000000000
1451,GPU1.SA_07.L0VTLB_02_01,miss,2456.000000000000
1452,GPU1.SA_07.L0VTLB_02_01,mshr-hit,14952.000000000000
1453,GPU1.SA_07.L0VTLB_03_00,hit,234621.000000000000
1454,GPU1.SA_07.L0VTLB_03_00,miss,2783.000000000000
1455,GPU1.SA_07.L0VTLB_03_00,mshr-hit,15632.000000000000
1456,GPU1.SA_07.L0VTLB_03_01,hit,234767.000000000000
1457,GPU1.SA_07.L0VTLB_03_01,miss,2492.000000000000
1458,GPU1.SA_07.L0VTLB_03_01,mshr-hit,15777.000000000000
1459,GPU1.SA_07.L0STLB_00,hit,203792.000000000000
1460,GPU1.SA_07.L0STLB_00,miss,3.000000000000
1461,GPU1.SA_07.L0STLB_00,mshr-hit,205.000000000000
1462,GPU1.SA_07.L0STLB_01,hit,206032.000000000000
1463,GPU1.SA_07.L0STLB_01,miss,3.000000000000
1464,GPU1.SA_07.L0STLB_01,mshr-hit,205.000000000000
1465,GPU1.SA_07.L0STLB_02,hit,203952.000000000000
1466,GPU1.SA_07.L0STLB_02,miss,3.000000000000
1467,GPU1.SA_07.L0STLB_02,mshr-hit,205.000000000000
1468,GPU1.SA_07.L0STLB_03,hit,206352.000000000000
1469,GPU1.SA_07.L0STLB_03,miss,3.000000000000
1470,GPU1.SA_07.L0STLB_03,mshr-hit,205.000000000000
1471,GPU1.SA_07.L0ITLB_00,hit,6.000000000000
1472,GPU1.SA_07.L0ITLB_00,miss,1.000000000000
1473,GPU1.SA_07.L0ITLB_00,mshr-hit,0.000000000000
1474,GPU1.SA_07.L0ITLB_01,hit,6.000000000000
1475,GPU1.SA_07.L0ITLB_01,miss,1.000000000000
1476,GPU1.SA_07.L0ITLB_01,mshr-hit,0.000000000000
1477,GPU1.SA_07.L0ITLB_02,hit,6.000000000000
1478,GPU1.SA_07.L0ITLB_02,miss,1.000000000000
1479,GPU1.SA_07.L0ITLB_02,mshr-hit,0.000000000000
1480,GPU1.SA_07.L0ITLB_03,hit,6.000000000000
1481,GPU1.SA_07.L0ITLB_03,miss,1.000000000000
1482,GPU1.SA_07.L0ITLB_03,mshr-hit,0.000000000000
1483,GPU1.L2TLB,hit,34741.000000000000
1484,GPU1.L2TLB,miss,20485.000000000000
1485,GPU1.L2TLB,mshr-hit,111754.000000000000
1486,GPU1.RDMA,outgoing_trans_count,0.000000000000
1487,GPU1.RDMA,incoming_trans_count,0.000000000000
1488,GPU1.DRAM_0,read_trans_count,40964.000000000000
1489,GPU1.DRAM_0,write_trans_count,80773.000000000000
1490,GPU1.DRAM_0,read_avg_latency,0.000000190000
1491,GPU1.DRAM_0,write_avg_latency,0.000000190000
1492,GPU1.DRAM_0,read_size,2621696.000000000000
1493,GPU1.DRAM_0,write_size,5169472.000000000000
1494,GPU1.DRAM_1,read_trans_count,40960.000000000000
1495,GPU1.DRAM_1,write_trans_count,80770.000000000000
1496,GPU1.DRAM_1,read_avg_latency,0.000000190000
1497,GPU1.DRAM_1,write_avg_latency,0.000000190000
1498,GPU1.DRAM_1,read_size,2621440.000000000000
1499,GPU1.DRAM_1,write_size,5169280.000000000000
1500,GPU1.DRAM_2,read_trans_count,40962.000000000000
1501,GPU1.DRAM_2,write_trans_count,80770.000000000000
1502,GPU1.DRAM_2,read_avg_latency,0.000000190000
1503,GPU1.DRAM_2,write_avg_latency,0.000000190000
1504,GPU1.DRAM_2,read_size,2621568.000000000000
1505,GPU1.DRAM_2,write_size,5169280.000000000000
1506,GPU1.DRAM_3,read_trans_count,40962.000000000000
1507,GPU1.DRAM_3,write_trans_count,80770.000000000000
1508,GPU1.DRAM_3,read_avg_latency,0.000000190000
1509,GPU1.DRAM_3,write_avg_latency,0.000000190000
1510,GPU1.DRAM_3,read_size,2621568.000000000000
1511,GPU1.DRAM_3,write_size,5169252.000000000000
1512,GPU1.DRAM_4,read_trans_count,40962.000000000000
1513,GPU1.DRAM_4,write_trans_count,80768.000000000000
1514,GPU1.DRAM_4,read_avg_latency,0.000000190000
1515,GPU1.DRAM_4,write_avg_latency,0.000000190000
1516,GPU1.DRAM_4,read_size,2621568.000000000000
1517,GPU1.DRAM_4,write_size,5169152.000000000000
1518,GPU1.DRAM_5,read_trans_count,40961.000000000000
1519,GPU1.DRAM_5,write_trans_count,80768.000000000000
1520,GPU1.DRAM_5,read_avg_latency,0.000000190000
1521,GPU1.DRAM_5,write_avg_latency,0.000000190000
1522,GPU1.DRAM_5,read_size,2621504.000000000000
1523,GPU1.DRAM_5,write_size,5169152.000000000000
1524,GPU1.DRAM_6,read_trans_count,40960.000000000000
1525,GPU1.DRAM_6,write_trans_count,80768.000000000000
1526,GPU1.DRAM_6,read_avg_latency,0.000000190000
1527,GPU1.DRAM_6,write_avg_latency,0.000000190000
1528,GPU1.DRAM_6,read_size,2621440.000000000000
1529,GPU1.DRAM_6,write_size,5169152.000000000000
1530,GPU1.DRAM_7,read_trans_count,40960.000000000000
1531,GPU1.DRAM_7,write_trans_count,80768.000000000000
1532,GPU1.DRAM_7,read_avg_latency,0.000000190000
1533,GPU1.DRAM_7,write_avg_latency,0.000000190000
1534,GPU1.DRAM_7,read_size,2621440.000000000000
1535,GPU1.DRAM_7,write_size,5169152.000000000000
1536,GPU1.DRAM_8,read_trans_count,40960.000000000000
1537,GPU1.DRAM_8,write_trans_count,80768.000000000000
1538,GPU1.DRAM_8,read_avg_latency,0.000000190000
1539,GPU1.DRAM_8,write_avg_latency,0.000000190000
1540,GPU1.DRAM_8,read_size,2621440.000000000000
1541,GPU1.DRAM_8,write_size,5169152.000000000000
1542,GPU1.DRAM_9,read_trans_count,40960.000000000000
1543,GPU1.DRAM_9,write_trans_count,80768.000000000000
1544,GPU1.DRAM_9,read_avg_latency,0.000000190000
1545,GPU1.DRAM_9,write_avg_latency,0.000000190000
1546,GPU1.DRAM_9,read_size,2621440.000000000000
1547,GPU1.DRAM_9,write_size,5169152.000000000000
1548,GPU1.DRAM_10,read_trans_count,40960.000000000000
1549,GPU1.DRAM_10,write_trans_count,80768.000000000000
1550,GPU1.DRAM_10,read_avg_latency,0.000000190000
1551,GPU1.DRAM_10,write_avg_latency,0.000000190000
1552,GPU1.DRAM_10,read_size,2621440.000000000000
1553,GPU1.DRAM_10,write_size,5169152.000000000000
1554,GPU1.DRAM_11,read_trans_count,40960.000000000000
1555,GPU1.DRAM_11,write_trans_count,80768.000000000000
1556,GPU1.DRAM_11,read_avg_latency,0.000000190000
1557,GPU1.DRAM_11,write_avg_latency,0.000000190000
1558,GPU1.DRAM_11,read_size,2621440.000000000000
1559,GPU1.DRAM_11,write_size,5169152.000000000000
1560,GPU1.DRAM_12,read_trans_count,40960.000000000000
1561,GPU1.DRAM_12,write_trans_count,80768.000000000000
1562,GPU1.DRAM_12,read_avg_latency,0.000000190000
1563,GPU1.DRAM_12,write_avg_latency,0.000000190000
1564,GPU1.DRAM_12,read_size,2621440.000000000000
1565,GPU1.DRAM_12,write_size,5169152.000000000000
1566,GPU1.DRAM_13,read_trans_count,40960.000000000000
1567,GPU1.DRAM_13,write_trans_count,80768.000000000000
1568,GPU1.DRAM_13,read_avg_latency,0.000000190000
1569,GPU1.DRAM_13,write_avg_latency,0.000000190000
1570,GPU1.DRAM_13,read_size,2621440.000000000000
1571,GPU1.DRAM_13,write_size,5169152.000000000000
1572,GPU1.DRAM_14,read_trans_count,40960.000000000000
1573,GPU1.DRAM_14,write_trans_count,80768.000000000000
1574,GPU1.DRAM_14,read_avg_latency,0.000000190000
1575,GPU1.DRAM_14,write_avg_latency,0.000000190000
1576,GPU1.DRAM_14,read_size,2621440.000000000000
1577,GPU1.DRAM_14,write_size,5169152.000000000000
1578,GPU1.DRAM_15,read_trans_count,40960.000000000000
1579,GPU1.DRAM_15,write_trans_count,80768.000000000000
1580,GPU1.DRAM_15,read_avg_latency,0.000000190000
1581,GPU1.DRAM_15,write_avg_latency,0.000000190000
1582,GPU1.DRAM_15,read_size,2621440.000000000000
1583,GPU1.DRAM_15,write_size,5169152.000000000000
