Executing /home/yuhui/dev/src/gitlab.com/yuhuibao/instances/P2DCUL1freq/P2DCUL1freq -benchmark=pagerank -report-all -metric-file-name=P2DCUL1freq_pagerank_-gpu=R9Nano_-isa=gfx1010_metrics -gpu=R9Nano -isa=gfx1010
Start time: 2022-04-24 05:34:19.487959
Profiling server running on: 33027
Monitoring simulation with http://localhost:44967
Iteration 0
Iteration 1
Iteration 2
End time: 2022-04-24 08:38:08.235291
Elapsed time: 3:03:48.747332
