Executing /home/yuhui/dev/src/gitlab.com/yuhuibao/instances/P2DCUL1freq/P2DCUL1freq -benchmark=spmv -report-all -metric-file-name=P2DCUL1freq_spmv_-gpu=R9Nano_-isa=gfx1010_metrics -gpu=R9Nano -isa=gfx1010
Start time: 2022-04-24 05:34:19.489341
Profiling server running on: 44117
Monitoring simulation with http://localhost:33489
Number of non-zero elements 109951
End time: 2022-04-24 05:51:29.114186
Elapsed time: 0:17:09.624845
