Executing /home/yuhui/dev/src/gitlab.com/yuhuibao/instances/P2DCU/P2DCU -benchmark=fir -report-all -metric-file-name=P2DCU_fir_-num-of-sa=64_-isa=gfx1010_metrics -num-of-sa=64 -isa=gfx1010
Start time: 2022-04-24 22:48:07.603049
Profiling server running on: 43911
Monitoring simulation with http://localhost:42959
End time: 2022-04-25 01:24:20.830091
Elapsed time: 2:36:13.227042
