Executing /home/yuhui/dev/src/gitlab.com/yuhuibao/instances/P2DCU/P2DCU -benchmark=spmv -report-all -metric-file-name=P2DCU_spmv_-num-of-sa=16_-isa=gfx1010_metrics -num-of-sa=16 -isa=gfx1010
Start time: 2022-04-24 22:25:01.021998
Profiling server running on: 40699
Monitoring simulation with http://localhost:36675
Number of non-zero elements 109951
End time: 2022-04-24 23:07:33.137867
Elapsed time: 0:42:32.115869
