Executing /home/yuhui/dev/src/gitlab.com/yuhuibao/instances/P2DCU/P2DCU -benchmark=bicg -report-all -metric-file-name=P2DCU_bicg_-num-of-sa=32_-isa=gfx1010_metrics -num-of-sa=32 -isa=gfx1010
Start time: 2022-04-24 22:25:01.016880
Profiling server running on: 39655
Monitoring simulation with http://localhost:42297
End time: 2022-04-25 00:16:49.639025
Elapsed time: 1:51:48.622145
