Executing /home/yuhui/dev/src/gitlab.com/yuhuibao/instances/P2DCUL1/P2DCUL1 -benchmark=atax -report-all -metric-file-name=P2DCUL1_atax_-num-of-sa=16_-isa=gfx1010_metrics -num-of-sa=16 -isa=gfx1010
Start time: 2022-04-25 00:33:35.559760
Profiling server running on: 36287
Monitoring simulation with http://localhost:45821
End time: 2022-04-25 03:03:26.186985
Elapsed time: 2:29:50.627225
