Executing /home/yuhui/dev/src/gitlab.com/yuhuibao/instances/P2DCUL1/P2DCUL1 -benchmark=pagerank -report-all -metric-file-name=P2DCUL1_pagerank_-num-of-sa=8_-isa=gfx1010_metrics -num-of-sa=8 -isa=gfx1010
Start time: 2022-04-25 00:17:37.321943
Profiling server running on: 34135
Monitoring simulation with http://localhost:44151
Iteration 0
Iteration 1
Iteration 2
End time: 2022-04-25 05:14:36.681012
Elapsed time: 4:56:59.359069
