Executing /home/yuhui/dev/src/gitlab.com/yuhuibao/instances/P2DCUL1/P2DCUL1 -benchmark=kmeans -report-all -metric-file-name=P2DCUL1_kmeans_-num-of-sa=8_-isa=gfx1010_metrics -num-of-sa=8 -isa=gfx1010
Start time: 2022-04-25 00:02:46.394150
Profiling server running on: 35407
Monitoring simulation with http://localhost:40483
GPU iterated 3 times
End time: 2022-04-25 07:14:46.422116
Elapsed time: 7:12:00.027966
