Executing /home/yuhui/dev/src/gitlab.com/yuhuibao/instances/P2DCUL1/P2DCUL1 -benchmark=floydwarshall -report-all -metric-file-name=P2DCUL1_floydwarshall_-gpu=R9Nano_-isa=gfx1010_metrics -gpu=R9Nano -isa=gfx1010
Start time: 2022-04-21 03:42:21.208762
Profiling server running on: 33133
Monitoring simulation with http://localhost:46143
End time: 2022-04-21 08:30:04.067297
Elapsed time: 4:47:42.858535
