Executing /home/yuhui/dev/src/gitlab.com/yuhuibao/instances/P2DCU/P2DCU -benchmark=matrixtranspose -report-all -metric-file-name=P2DCU_matrixtranspose_-num-of-sa=64_-isa=gfx1010_metrics -num-of-sa=64 -isa=gfx1010
Start time: 2022-04-23 03:41:17.630732
Profiling server running on: 34071
Monitoring simulation with http://localhost:36427
End time: 2022-04-23 03:50:36.534412
Elapsed time: 0:09:18.903680
