Executing /home/yuhui/dev/src/gitlab.com/yuhuibao/instances/P2DCU/P2DCU -benchmark=matrixtranspose -report-all -metric-file-name=P2DCU_matrixtranspose_-gpu=R9Nano_-isa=gfx803_metrics -gpu=R9Nano -isa=gfx803
Start time: 2022-04-21 02:23:13.746007
Profiling server running on: 45549
Monitoring simulation with http://localhost:35969
End time: 2022-04-21 02:30:43.558783
Elapsed time: 0:07:29.812776
