Executing /home/yuhui/dev/src/gitlab.com/yuhuibao/instances/P2DCU/P2DCU -benchmark=spmv -report-all -metric-file-name=P2DCU_spmv_-num-of-sa=512_-isa=gfx1010_metrics -num-of-sa=512 -isa=gfx1010
Start time: 2022-04-22 23:25:15.839796
Profiling server running on: 40935
Monitoring simulation with http://localhost:42365
Number of non-zero elements 109951
End time: 2022-04-23 00:57:18.148242
Elapsed time: 1:32:02.308446
