Executing /home/yuhui/dev/src/gitlab.com/yuhuibao/instances/P2DCUL1/P2DCUL1 -benchmark=spmv -report-all -metric-file-name=P2DCUL1_spmv_-gpu=R9Nano_-isa=gfx803_metrics -gpu=R9Nano -isa=gfx803
Start time: 2022-04-21 12:39:55.173009
Profiling server running on: 46109
Monitoring simulation with http://localhost:34785
Number of non-zero elements 109951
End time: 2022-04-21 12:55:47.958312
Elapsed time: 0:15:52.785303
