,where,what,value
0,driver,kernel_time,0.000790644000
1,driver,total_time,0.001432898000
2,GPU1.CommandProcessor,kernel_time,0.000785944000
3,GPU1.SA_00.CU_00,inst_count,523600.000000000000
4,GPU1.SA_01.CU_00,inst_count,522000.000000000000
5,GPU1.SA_02.CU_00,inst_count,524400.000000000000
6,GPU1.SA_03.CU_00,inst_count,526000.000000000000
7,GPU1.SA_04.CU_00,inst_count,522400.000000000000
8,GPU1.SA_05.CU_00,inst_count,521600.000000000000
9,GPU1.SA_06.CU_00,inst_count,518400.000000000000
10,GPU1.SA_07.CU_00,inst_count,518800.000000000000
11,GPU1.SA_08.CU_00,inst_count,519200.000000000000
12,GPU1.SA_09.CU_00,inst_count,518400.000000000000
13,GPU1.SA_10.CU_00,inst_count,520000.000000000000
14,GPU1.SA_11.CU_00,inst_count,517600.000000000000
15,GPU1.SA_12.CU_00,inst_count,519600.000000000000
16,GPU1.SA_13.CU_00,inst_count,517600.000000000000
17,GPU1.SA_14.CU_00,inst_count,518400.000000000000
18,GPU1.SA_15.CU_00,inst_count,517200.000000000000
19,GPU1.SA_16.CU_00,inst_count,514000.000000000000
20,GPU1.SA_17.CU_00,inst_count,511600.000000000000
21,GPU1.SA_18.CU_00,inst_count,505200.000000000000
22,GPU1.SA_19.CU_00,inst_count,506000.000000000000
23,GPU1.SA_20.CU_00,inst_count,503600.000000000000
24,GPU1.SA_21.CU_00,inst_count,506400.000000000000
25,GPU1.SA_22.CU_00,inst_count,503600.000000000000
26,GPU1.SA_23.CU_00,inst_count,504000.000000000000
27,GPU1.SA_24.CU_00,inst_count,502000.000000000000
28,GPU1.SA_25.CU_00,inst_count,501200.000000000000
29,GPU1.SA_26.CU_00,inst_count,498800.000000000000
30,GPU1.SA_27.CU_00,inst_count,501200.000000000000
31,GPU1.SA_28.CU_00,inst_count,501200.000000000000
32,GPU1.SA_29.CU_00,inst_count,500000.000000000000
33,GPU1.SA_30.CU_00,inst_count,500400.000000000000
34,GPU1.SA_31.CU_00,inst_count,499600.000000000000
35,GPU1.SA_00.L0VCache_00_00,req_average_latency,0.000000233697
36,GPU1.SA_00.L0VCache_00_01,req_average_latency,0.000000233388
37,GPU1.SA_00.L1Cache,req_average_latency,0.000000246844
38,GPU1.SA_00.L0SCache_00,req_average_latency,0.000000010299
39,GPU1.SA_00.L0ICache_00,req_average_latency,0.000000015600
40,GPU1.SA_01.L0VCache_00_00,req_average_latency,0.000000234503
41,GPU1.SA_01.L0VCache_00_01,req_average_latency,0.000000234014
42,GPU1.SA_01.L1Cache,req_average_latency,0.000000247058
43,GPU1.SA_01.L0SCache_00,req_average_latency,0.000000010323
44,GPU1.SA_01.L0ICache_00,req_average_latency,0.000000015667
45,GPU1.SA_02.L0VCache_00_00,req_average_latency,0.000000234095
46,GPU1.SA_02.L0VCache_00_01,req_average_latency,0.000000233549
47,GPU1.SA_02.L1Cache,req_average_latency,0.000000247035
48,GPU1.SA_02.L0SCache_00,req_average_latency,0.000000010302
49,GPU1.SA_02.L0ICache_00,req_average_latency,0.000000015626
50,GPU1.SA_03.L0VCache_00_00,req_average_latency,0.000000233735
51,GPU1.SA_03.L0VCache_00_01,req_average_latency,0.000000233329
52,GPU1.SA_03.L1Cache,req_average_latency,0.000000247006
53,GPU1.SA_03.L0SCache_00,req_average_latency,0.000000010281
54,GPU1.SA_03.L0ICache_00,req_average_latency,0.000000015613
55,GPU1.SA_04.L0VCache_00_00,req_average_latency,0.000000234183
56,GPU1.SA_04.L0VCache_00_01,req_average_latency,0.000000233825
57,GPU1.SA_04.L1Cache,req_average_latency,0.000000247107
58,GPU1.SA_04.L0SCache_00,req_average_latency,0.000000010323
59,GPU1.SA_04.L0ICache_00,req_average_latency,0.000000015669
60,GPU1.SA_05.L0VCache_00_00,req_average_latency,0.000000233890
61,GPU1.SA_05.L0VCache_00_01,req_average_latency,0.000000233480
62,GPU1.SA_05.L1Cache,req_average_latency,0.000000247177
63,GPU1.SA_05.L0SCache_00,req_average_latency,0.000000010343
64,GPU1.SA_05.L0ICache_00,req_average_latency,0.000000015641
65,GPU1.SA_06.L0VCache_00_00,req_average_latency,0.000000233701
66,GPU1.SA_06.L0VCache_00_01,req_average_latency,0.000000233288
67,GPU1.SA_06.L1Cache,req_average_latency,0.000000247117
68,GPU1.SA_06.L0SCache_00,req_average_latency,0.000000010365
69,GPU1.SA_06.L0ICache_00,req_average_latency,0.000000015758
70,GPU1.SA_07.L0VCache_00_00,req_average_latency,0.000000233845
71,GPU1.SA_07.L0VCache_00_01,req_average_latency,0.000000233478
72,GPU1.SA_07.L1Cache,req_average_latency,0.000000247179
73,GPU1.SA_07.L0SCache_00,req_average_latency,0.000000010357
74,GPU1.SA_07.L0ICache_00,req_average_latency,0.000000015789
75,GPU1.SA_08.L0VCache_00_00,req_average_latency,0.000000233525
76,GPU1.SA_08.L0VCache_00_01,req_average_latency,0.000000233131
77,GPU1.SA_08.L1Cache,req_average_latency,0.000000247586
78,GPU1.SA_08.L0SCache_00,req_average_latency,0.000000010346
79,GPU1.SA_08.L0ICache_00,req_average_latency,0.000000015850
80,GPU1.SA_09.L0VCache_00_00,req_average_latency,0.000000233765
81,GPU1.SA_09.L0VCache_00_01,req_average_latency,0.000000233348
82,GPU1.SA_09.L1Cache,req_average_latency,0.000000247454
83,GPU1.SA_09.L0SCache_00,req_average_latency,0.000000010350
84,GPU1.SA_09.L0ICache_00,req_average_latency,0.000000015867
85,GPU1.SA_10.L0VCache_00_00,req_average_latency,0.000000233383
86,GPU1.SA_10.L0VCache_00_01,req_average_latency,0.000000233085
87,GPU1.SA_10.L1Cache,req_average_latency,0.000000247397
88,GPU1.SA_10.L0SCache_00,req_average_latency,0.000000010330
89,GPU1.SA_10.L0ICache_00,req_average_latency,0.000000015817
90,GPU1.SA_11.L0VCache_00_00,req_average_latency,0.000000233459
91,GPU1.SA_11.L0VCache_00_01,req_average_latency,0.000000233191
92,GPU1.SA_11.L1Cache,req_average_latency,0.000000247456
93,GPU1.SA_11.L0SCache_00,req_average_latency,0.000000010368
94,GPU1.SA_11.L0ICache_00,req_average_latency,0.000000015835
95,GPU1.SA_12.L0VCache_00_00,req_average_latency,0.000000233736
96,GPU1.SA_12.L0VCache_00_01,req_average_latency,0.000000233481
97,GPU1.SA_12.L1Cache,req_average_latency,0.000000247506
98,GPU1.SA_12.L0SCache_00,req_average_latency,0.000000010357
99,GPU1.SA_12.L0ICache_00,req_average_latency,0.000000015908
100,GPU1.SA_13.L0VCache_00_00,req_average_latency,0.000000233604
101,GPU1.SA_13.L0VCache_00_01,req_average_latency,0.000000233375
102,GPU1.SA_13.L1Cache,req_average_latency,0.000000247561
103,GPU1.SA_13.L0SCache_00,req_average_latency,0.000000010384
104,GPU1.SA_13.L0ICache_00,req_average_latency,0.000000015956
105,GPU1.SA_14.L0VCache_00_00,req_average_latency,0.000000233678
106,GPU1.SA_14.L0VCache_00_01,req_average_latency,0.000000233377
107,GPU1.SA_14.L1Cache,req_average_latency,0.000000247560
108,GPU1.SA_14.L0SCache_00,req_average_latency,0.000000010371
109,GPU1.SA_14.L0ICache_00,req_average_latency,0.000000015960
110,GPU1.SA_15.L0VCache_00_00,req_average_latency,0.000000233779
111,GPU1.SA_15.L0VCache_00_01,req_average_latency,0.000000233429
112,GPU1.SA_15.L1Cache,req_average_latency,0.000000247912
113,GPU1.SA_15.L0SCache_00,req_average_latency,0.000000010380
114,GPU1.SA_15.L0ICache_00,req_average_latency,0.000000015937
115,GPU1.SA_16.L0VCache_00_00,req_average_latency,0.000000233656
116,GPU1.SA_16.L0VCache_00_01,req_average_latency,0.000000233361
117,GPU1.SA_16.L1Cache,req_average_latency,0.000000248057
118,GPU1.SA_16.L0SCache_00,req_average_latency,0.000000010415
119,GPU1.SA_16.L0ICache_00,req_average_latency,0.000000016036
120,GPU1.SA_17.L0VCache_00_00,req_average_latency,0.000000233523
121,GPU1.SA_17.L0VCache_00_01,req_average_latency,0.000000233242
122,GPU1.SA_17.L1Cache,req_average_latency,0.000000247941
123,GPU1.SA_17.L0SCache_00,req_average_latency,0.000000010448
124,GPU1.SA_17.L0ICache_00,req_average_latency,0.000000016117
125,GPU1.SA_18.L0VCache_00_00,req_average_latency,0.000000233485
126,GPU1.SA_18.L0VCache_00_01,req_average_latency,0.000000233226
127,GPU1.SA_18.L1Cache,req_average_latency,0.000000247920
128,GPU1.SA_18.L0SCache_00,req_average_latency,0.000000010525
129,GPU1.SA_18.L0ICache_00,req_average_latency,0.000000016145
130,GPU1.SA_19.L0VCache_00_00,req_average_latency,0.000000233207
131,GPU1.SA_19.L0VCache_00_01,req_average_latency,0.000000232849
132,GPU1.SA_19.L1Cache,req_average_latency,0.000000247885
133,GPU1.SA_19.L0SCache_00,req_average_latency,0.000000010513
134,GPU1.SA_19.L0ICache_00,req_average_latency,0.000000016138
135,GPU1.SA_20.L0VCache_00_00,req_average_latency,0.000000233598
136,GPU1.SA_20.L0VCache_00_01,req_average_latency,0.000000233199
137,GPU1.SA_20.L1Cache,req_average_latency,0.000000247691
138,GPU1.SA_20.L0SCache_00,req_average_latency,0.000000010536
139,GPU1.SA_20.L0ICache_00,req_average_latency,0.000000016076
140,GPU1.SA_21.L0VCache_00_00,req_average_latency,0.000000233023
141,GPU1.SA_21.L0VCache_00_01,req_average_latency,0.000000232720
142,GPU1.SA_21.L1Cache,req_average_latency,0.000000247301
143,GPU1.SA_21.L0SCache_00,req_average_latency,0.000000010496
144,GPU1.SA_21.L0ICache_00,req_average_latency,0.000000016090
145,GPU1.SA_22.L0VCache_00_00,req_average_latency,0.000000233277
146,GPU1.SA_22.L0VCache_00_01,req_average_latency,0.000000232760
147,GPU1.SA_22.L1Cache,req_average_latency,0.000000247540
148,GPU1.SA_22.L0SCache_00,req_average_latency,0.000000010537
149,GPU1.SA_22.L0ICache_00,req_average_latency,0.000000016066
150,GPU1.SA_23.L0VCache_00_00,req_average_latency,0.000000232971
151,GPU1.SA_23.L0VCache_00_01,req_average_latency,0.000000232747
152,GPU1.SA_23.L1Cache,req_average_latency,0.000000247467
153,GPU1.SA_23.L0SCache_00,req_average_latency,0.000000010540
154,GPU1.SA_23.L0ICache_00,req_average_latency,0.000000016044
155,GPU1.SA_24.L0VCache_00_00,req_average_latency,0.000000233306
156,GPU1.SA_24.L0VCache_00_01,req_average_latency,0.000000232857
157,GPU1.SA_24.L1Cache,req_average_latency,0.000000247630
158,GPU1.SA_24.L0SCache_00,req_average_latency,0.000000010571
159,GPU1.SA_24.L0ICache_00,req_average_latency,0.000000016031
160,GPU1.SA_25.L0VCache_00_00,req_average_latency,0.000000233178
161,GPU1.SA_25.L0VCache_00_01,req_average_latency,0.000000232729
162,GPU1.SA_25.L1Cache,req_average_latency,0.000000247505
163,GPU1.SA_25.L0SCache_00,req_average_latency,0.000000010589
164,GPU1.SA_25.L0ICache_00,req_average_latency,0.000000016067
165,GPU1.SA_26.L0VCache_00_00,req_average_latency,0.000000233575
166,GPU1.SA_26.L0VCache_00_01,req_average_latency,0.000000233300
167,GPU1.SA_26.L1Cache,req_average_latency,0.000000247876
168,GPU1.SA_26.L0SCache_00,req_average_latency,0.000000010630
169,GPU1.SA_26.L0ICache_00,req_average_latency,0.000000016035
170,GPU1.SA_27.L0VCache_00_00,req_average_latency,0.000000233367
171,GPU1.SA_27.L0VCache_00_01,req_average_latency,0.000000232931
172,GPU1.SA_27.L1Cache,req_average_latency,0.000000247396
173,GPU1.SA_27.L0SCache_00,req_average_latency,0.000000010589
174,GPU1.SA_27.L0ICache_00,req_average_latency,0.000000016029
175,GPU1.SA_28.L0VCache_00_00,req_average_latency,0.000000233601
176,GPU1.SA_28.L0VCache_00_01,req_average_latency,0.000000233246
177,GPU1.SA_28.L1Cache,req_average_latency,0.000000247889
178,GPU1.SA_28.L0SCache_00,req_average_latency,0.000000010613
179,GPU1.SA_28.L0ICache_00,req_average_latency,0.000000015966
180,GPU1.SA_29.L0VCache_00_00,req_average_latency,0.000000233599
181,GPU1.SA_29.L0VCache_00_01,req_average_latency,0.000000233285
182,GPU1.SA_29.L1Cache,req_average_latency,0.000000247883
183,GPU1.SA_29.L0SCache_00,req_average_latency,0.000000010641
184,GPU1.SA_29.L0ICache_00,req_average_latency,0.000000016013
185,GPU1.SA_30.L0VCache_00_00,req_average_latency,0.000000233792
186,GPU1.SA_30.L0VCache_00_01,req_average_latency,0.000000233506
187,GPU1.SA_30.L1Cache,req_average_latency,0.000000247970
188,GPU1.SA_30.L0SCache_00,req_average_latency,0.000000010630
189,GPU1.SA_30.L0ICache_00,req_average_latency,0.000000016109
190,GPU1.SA_31.L0VCache_00_00,req_average_latency,0.000000233911
191,GPU1.SA_31.L0VCache_00_01,req_average_latency,0.000000233670
192,GPU1.SA_31.L1Cache,req_average_latency,0.000000248005
193,GPU1.SA_31.L0SCache_00,req_average_latency,0.000000010649
194,GPU1.SA_31.L0ICache_00,req_average_latency,0.000000016053
195,GPU1.L2_0,req_average_latency,0.000000244644
196,GPU1.L2_1,req_average_latency,0.000000243516
197,GPU1.L2_2,req_average_latency,0.000000243340
198,GPU1.L2_3,req_average_latency,0.000000242984
199,GPU1.L2_4,req_average_latency,0.000000244059
200,GPU1.L2_5,req_average_latency,0.000000243082
201,GPU1.L2_6,req_average_latency,0.000000242315
202,GPU1.L2_7,req_average_latency,0.000000242179
203,GPU1.L2_8,req_average_latency,0.000000242594
204,GPU1.L2_9,req_average_latency,0.000000242475
205,GPU1.L2_10,req_average_latency,0.000000242362
206,GPU1.L2_11,req_average_latency,0.000000242224
207,GPU1.L2_12,req_average_latency,0.000000242402
208,GPU1.L2_13,req_average_latency,0.000000242293
209,GPU1.L2_14,req_average_latency,0.000000242198
210,GPU1.L2_15,req_average_latency,0.000000242115
211,GPU1.SA_00.L0VCache_00_00,read-hit,3616.000000000000
212,GPU1.SA_00.L0VCache_00_00,read-miss,21104.000000000000
213,GPU1.SA_00.L0VCache_00_00,read-mshr-hit,0.000000000000
214,GPU1.SA_00.L0VCache_00_00,write-hit,16404.000000000000
215,GPU1.SA_00.L0VCache_00_00,write-miss,8652.000000000000
216,GPU1.SA_00.L0VCache_00_00,write-mshr-hit,0.000000000000
217,GPU1.SA_00.L0VCache_00_01,read-hit,3775.000000000000
218,GPU1.SA_00.L0VCache_00_01,read-miss,21116.000000000000
219,GPU1.SA_00.L0VCache_00_01,read-mshr-hit,0.000000000000
220,GPU1.SA_00.L0VCache_00_01,write-hit,16270.000000000000
221,GPU1.SA_00.L0VCache_00_01,write-miss,8786.000000000000
222,GPU1.SA_00.L0VCache_00_01,write-mshr-hit,0.000000000000
223,GPU1.SA_00.L1Cache,read-hit,332.000000000000
224,GPU1.SA_00.L1Cache,read-miss,42088.000000000000
225,GPU1.SA_00.L1Cache,read-mshr-hit,0.000000000000
226,GPU1.SA_00.L1Cache,write-hit,41726.000000000000
227,GPU1.SA_00.L1Cache,write-miss,8386.000000000000
228,GPU1.SA_00.L1Cache,write-mshr-hit,0.000000000000
229,GPU1.SA_00.L0SCache_00,read-hit,41248.000000000000
230,GPU1.SA_00.L0SCache_00,read-miss,40.000000000000
231,GPU1.SA_00.L0SCache_00,read-mshr-hit,0.000000000000
232,GPU1.SA_00.L0SCache_00,write-hit,0.000000000000
233,GPU1.SA_00.L0SCache_00,write-miss,0.000000000000
234,GPU1.SA_00.L0SCache_00,write-mshr-hit,0.000000000000
235,GPU1.SA_00.L0ICache_00,read-hit,81263.000000000000
236,GPU1.SA_00.L0ICache_00,read-miss,160.000000000000
237,GPU1.SA_00.L0ICache_00,read-mshr-hit,0.000000000000
238,GPU1.SA_00.L0ICache_00,write-hit,0.000000000000
239,GPU1.SA_00.L0ICache_00,write-miss,0.000000000000
240,GPU1.SA_00.L0ICache_00,write-mshr-hit,0.000000000000
241,GPU1.SA_01.L0VCache_00_00,read-hit,3365.000000000000
242,GPU1.SA_01.L0VCache_00_00,read-miss,21040.000000000000
243,GPU1.SA_01.L0VCache_00_00,read-mshr-hit,0.000000000000
244,GPU1.SA_01.L0VCache_00_00,write-hit,16244.000000000000
245,GPU1.SA_01.L0VCache_00_00,write-miss,8652.000000000000
246,GPU1.SA_01.L0VCache_00_00,write-mshr-hit,0.000000000000
247,GPU1.SA_01.L0VCache_00_01,read-hit,3586.000000000000
248,GPU1.SA_01.L0VCache_00_01,read-miss,21080.000000000000
249,GPU1.SA_01.L0VCache_00_01,read-mshr-hit,0.000000000000
250,GPU1.SA_01.L0VCache_00_01,write-hit,16148.000000000000
251,GPU1.SA_01.L0VCache_00_01,write-miss,8748.000000000000
252,GPU1.SA_01.L0VCache_00_01,write-mshr-hit,0.000000000000
253,GPU1.SA_01.L1Cache,read-hit,360.000000000000
254,GPU1.SA_01.L1Cache,read-miss,41960.000000000000
255,GPU1.SA_01.L1Cache,read-mshr-hit,0.000000000000
256,GPU1.SA_01.L1Cache,write-hit,41589.000000000000
257,GPU1.SA_01.L1Cache,write-miss,8203.000000000000
258,GPU1.SA_01.L1Cache,write-mshr-hit,0.000000000000
259,GPU1.SA_01.L0SCache_00,read-hit,41120.000000000000
260,GPU1.SA_01.L0SCache_00,read-miss,40.000000000000
261,GPU1.SA_01.L0SCache_00,read-mshr-hit,0.000000000000
262,GPU1.SA_01.L0SCache_00,write-hit,0.000000000000
263,GPU1.SA_01.L0SCache_00,write-miss,0.000000000000
264,GPU1.SA_01.L0SCache_00,write-mshr-hit,0.000000000000
265,GPU1.SA_01.L0ICache_00,read-hit,81016.000000000000
266,GPU1.SA_01.L0ICache_00,read-miss,160.000000000000
267,GPU1.SA_01.L0ICache_00,read-mshr-hit,0.000000000000
268,GPU1.SA_01.L0ICache_00,write-hit,0.000000000000
269,GPU1.SA_01.L0ICache_00,write-miss,0.000000000000
270,GPU1.SA_01.L0ICache_00,write-mshr-hit,0.000000000000
271,GPU1.SA_02.L0VCache_00_00,read-hit,3579.000000000000
272,GPU1.SA_02.L0VCache_00_00,read-miss,21136.000000000000
273,GPU1.SA_02.L0VCache_00_00,read-mshr-hit,0.000000000000
274,GPU1.SA_02.L0VCache_00_00,write-hit,16122.000000000000
275,GPU1.SA_02.L0VCache_00_00,write-miss,8950.000000000000
276,GPU1.SA_02.L0VCache_00_00,write-mshr-hit,0.000000000000
277,GPU1.SA_02.L0VCache_00_01,read-hit,3778.000000000000
278,GPU1.SA_02.L0VCache_00_01,read-miss,21136.000000000000
279,GPU1.SA_02.L0VCache_00_01,read-mshr-hit,0.000000000000
280,GPU1.SA_02.L0VCache_00_01,write-hit,16060.000000000000
281,GPU1.SA_02.L0VCache_00_01,write-miss,9012.000000000000
282,GPU1.SA_02.L0VCache_00_01,write-mshr-hit,0.000000000000
283,GPU1.SA_02.L1Cache,read-hit,320.000000000000
284,GPU1.SA_02.L1Cache,read-miss,42152.000000000000
285,GPU1.SA_02.L1Cache,read-mshr-hit,0.000000000000
286,GPU1.SA_02.L1Cache,write-hit,41865.000000000000
287,GPU1.SA_02.L1Cache,write-miss,8279.000000000000
288,GPU1.SA_02.L1Cache,write-mshr-hit,0.000000000000
289,GPU1.SA_02.L0SCache_00,read-hit,41312.000000000000
290,GPU1.SA_02.L0SCache_00,read-miss,40.000000000000
291,GPU1.SA_02.L0SCache_00,read-mshr-hit,0.000000000000
292,GPU1.SA_02.L0SCache_00,write-hit,0.000000000000
293,GPU1.SA_02.L0SCache_00,write-miss,0.000000000000
294,GPU1.SA_02.L0SCache_00,write-mshr-hit,0.000000000000
295,GPU1.SA_02.L0ICache_00,read-hit,81379.000000000000
296,GPU1.SA_02.L0ICache_00,read-miss,160.000000000000
297,GPU1.SA_02.L0ICache_00,read-mshr-hit,0.000000000000
298,GPU1.SA_02.L0ICache_00,write-hit,0.000000000000
299,GPU1.SA_02.L0ICache_00,write-miss,0.000000000000
300,GPU1.SA_02.L0ICache_00,write-mshr-hit,0.000000000000
301,GPU1.SA_03.L0VCache_00_00,read-hit,3638.000000000000
302,GPU1.SA_03.L0VCache_00_00,read-miss,21200.000000000000
303,GPU1.SA_03.L0VCache_00_00,read-mshr-hit,0.000000000000
304,GPU1.SA_03.L0VCache_00_00,write-hit,16165.000000000000
305,GPU1.SA_03.L0VCache_00_00,write-miss,9019.000000000000
306,GPU1.SA_03.L0VCache_00_00,write-mshr-hit,0.000000000000
307,GPU1.SA_03.L0VCache_00_01,read-hit,3790.000000000000
308,GPU1.SA_03.L0VCache_00_01,read-miss,21200.000000000000
309,GPU1.SA_03.L0VCache_00_01,read-mshr-hit,0.000000000000
310,GPU1.SA_03.L0VCache_00_01,write-hit,16039.000000000000
311,GPU1.SA_03.L0VCache_00_01,write-miss,9145.000000000000
312,GPU1.SA_03.L0VCache_00_01,write-mshr-hit,0.000000000000
313,GPU1.SA_03.L1Cache,read-hit,320.000000000000
314,GPU1.SA_03.L1Cache,read-miss,42280.000000000000
315,GPU1.SA_03.L1Cache,read-mshr-hit,0.000000000000
316,GPU1.SA_03.L1Cache,write-hit,42032.000000000000
317,GPU1.SA_03.L1Cache,write-miss,8336.000000000000
318,GPU1.SA_03.L1Cache,write-mshr-hit,0.000000000000
319,GPU1.SA_03.L0SCache_00,read-hit,41440.000000000000
320,GPU1.SA_03.L0SCache_00,read-miss,40.000000000000
321,GPU1.SA_03.L0SCache_00,read-mshr-hit,0.000000000000
322,GPU1.SA_03.L0SCache_00,write-hit,0.000000000000
323,GPU1.SA_03.L0SCache_00,write-miss,0.000000000000
324,GPU1.SA_03.L0SCache_00,write-mshr-hit,0.000000000000
325,GPU1.SA_03.L0ICache_00,read-hit,81631.000000000000
326,GPU1.SA_03.L0ICache_00,read-miss,160.000000000000
327,GPU1.SA_03.L0ICache_00,read-mshr-hit,0.000000000000
328,GPU1.SA_03.L0ICache_00,write-hit,0.000000000000
329,GPU1.SA_03.L0ICache_00,write-miss,0.000000000000
330,GPU1.SA_03.L0ICache_00,write-mshr-hit,0.000000000000
331,GPU1.SA_04.L0VCache_00_00,read-hit,3596.000000000000
332,GPU1.SA_04.L0VCache_00_00,read-miss,21056.000000000000
333,GPU1.SA_04.L0VCache_00_00,read-mshr-hit,0.000000000000
334,GPU1.SA_04.L0VCache_00_00,write-hit,15960.000000000000
335,GPU1.SA_04.L0VCache_00_00,write-miss,9000.000000000000
336,GPU1.SA_04.L0VCache_00_00,write-mshr-hit,0.000000000000
337,GPU1.SA_04.L0VCache_00_01,read-hit,3662.000000000000
338,GPU1.SA_04.L0VCache_00_01,read-miss,21092.000000000000
339,GPU1.SA_04.L0VCache_00_01,read-mshr-hit,0.000000000000
340,GPU1.SA_04.L0VCache_00_01,write-hit,15906.000000000000
341,GPU1.SA_04.L0VCache_00_01,write-miss,9054.000000000000
342,GPU1.SA_04.L0VCache_00_01,write-mshr-hit,0.000000000000
343,GPU1.SA_04.L1Cache,read-hit,356.000000000000
344,GPU1.SA_04.L1Cache,read-miss,41992.000000000000
345,GPU1.SA_04.L1Cache,read-mshr-hit,0.000000000000
346,GPU1.SA_04.L1Cache,write-hit,41691.000000000000
347,GPU1.SA_04.L1Cache,write-miss,8229.000000000000
348,GPU1.SA_04.L1Cache,write-mshr-hit,0.000000000000
349,GPU1.SA_04.L0SCache_00,read-hit,41152.000000000000
350,GPU1.SA_04.L0SCache_00,read-miss,40.000000000000
351,GPU1.SA_04.L0SCache_00,read-mshr-hit,0.000000000000
352,GPU1.SA_04.L0SCache_00,write-hit,0.000000000000
353,GPU1.SA_04.L0SCache_00,write-miss,0.000000000000
354,GPU1.SA_04.L0SCache_00,write-mshr-hit,0.000000000000
355,GPU1.SA_04.L0ICache_00,read-hit,81074.000000000000
356,GPU1.SA_04.L0ICache_00,read-miss,160.000000000000
357,GPU1.SA_04.L0ICache_00,read-mshr-hit,0.000000000000
358,GPU1.SA_04.L0ICache_00,write-hit,0.000000000000
359,GPU1.SA_04.L0ICache_00,write-miss,0.000000000000
360,GPU1.SA_04.L0ICache_00,write-mshr-hit,0.000000000000
361,GPU1.SA_05.L0VCache_00_00,read-hit,3616.000000000000
362,GPU1.SA_05.L0VCache_00_00,read-miss,21024.000000000000
363,GPU1.SA_05.L0VCache_00_00,read-mshr-hit,0.000000000000
364,GPU1.SA_05.L0VCache_00_00,write-hit,15996.000000000000
365,GPU1.SA_05.L0VCache_00_00,write-miss,8980.000000000000
366,GPU1.SA_05.L0VCache_00_00,write-mshr-hit,0.000000000000
367,GPU1.SA_05.L0VCache_00_01,read-hit,3756.000000000000
368,GPU1.SA_05.L0VCache_00_01,read-miss,21024.000000000000
369,GPU1.SA_05.L0VCache_00_01,read-mshr-hit,0.000000000000
370,GPU1.SA_05.L0VCache_00_01,write-hit,15971.000000000000
371,GPU1.SA_05.L0VCache_00_01,write-miss,9005.000000000000
372,GPU1.SA_05.L0VCache_00_01,write-mshr-hit,0.000000000000
373,GPU1.SA_05.L1Cache,read-hit,320.000000000000
374,GPU1.SA_05.L1Cache,read-miss,41928.000000000000
375,GPU1.SA_05.L1Cache,read-mshr-hit,0.000000000000
376,GPU1.SA_05.L1Cache,write-hit,41622.000000000000
377,GPU1.SA_05.L1Cache,write-miss,8330.000000000000
378,GPU1.SA_05.L1Cache,write-mshr-hit,0.000000000000
379,GPU1.SA_05.L0SCache_00,read-hit,41088.000000000000
380,GPU1.SA_05.L0SCache_00,read-miss,40.000000000000
381,GPU1.SA_05.L0SCache_00,read-mshr-hit,0.000000000000
382,GPU1.SA_05.L0SCache_00,write-hit,0.000000000000
383,GPU1.SA_05.L0SCache_00,write-miss,0.000000000000
384,GPU1.SA_05.L0SCache_00,write-mshr-hit,0.000000000000
385,GPU1.SA_05.L0ICache_00,read-hit,80947.000000000000
386,GPU1.SA_05.L0ICache_00,read-miss,160.000000000000
387,GPU1.SA_05.L0ICache_00,read-mshr-hit,0.000000000000
388,GPU1.SA_05.L0ICache_00,write-hit,0.000000000000
389,GPU1.SA_05.L0ICache_00,write-miss,0.000000000000
390,GPU1.SA_05.L0ICache_00,write-mshr-hit,0.000000000000
391,GPU1.SA_06.L0VCache_00_00,read-hit,3535.000000000000
392,GPU1.SA_06.L0VCache_00_00,read-miss,20896.000000000000
393,GPU1.SA_06.L0VCache_00_00,read-mshr-hit,0.000000000000
394,GPU1.SA_06.L0VCache_00_00,write-hit,16175.000000000000
395,GPU1.SA_06.L0VCache_00_00,write-miss,8657.000000000000
396,GPU1.SA_06.L0VCache_00_00,write-mshr-hit,0.000000000000
397,GPU1.SA_06.L0VCache_00_01,read-hit,3770.000000000000
398,GPU1.SA_06.L0VCache_00_01,read-miss,20896.000000000000
399,GPU1.SA_06.L0VCache_00_01,read-mshr-hit,0.000000000000
400,GPU1.SA_06.L0VCache_00_01,write-hit,16018.000000000000
401,GPU1.SA_06.L0VCache_00_01,write-miss,8814.000000000000
402,GPU1.SA_06.L0VCache_00_01,write-mshr-hit,0.000000000000
403,GPU1.SA_06.L1Cache,read-hit,320.000000000000
404,GPU1.SA_06.L1Cache,read-miss,41672.000000000000
405,GPU1.SA_06.L1Cache,read-mshr-hit,0.000000000000
406,GPU1.SA_06.L1Cache,write-hit,41392.000000000000
407,GPU1.SA_06.L1Cache,write-miss,8272.000000000000
408,GPU1.SA_06.L1Cache,write-mshr-hit,0.000000000000
409,GPU1.SA_06.L0SCache_00,read-hit,40832.000000000000
410,GPU1.SA_06.L0SCache_00,read-miss,40.000000000000
411,GPU1.SA_06.L0SCache_00,read-mshr-hit,0.000000000000
412,GPU1.SA_06.L0SCache_00,write-hit,0.000000000000
413,GPU1.SA_06.L0SCache_00,write-miss,0.000000000000
414,GPU1.SA_06.L0SCache_00,write-mshr-hit,0.000000000000
415,GPU1.SA_06.L0ICache_00,read-hit,80427.000000000000
416,GPU1.SA_06.L0ICache_00,read-miss,160.000000000000
417,GPU1.SA_06.L0ICache_00,read-mshr-hit,0.000000000000
418,GPU1.SA_06.L0ICache_00,write-hit,0.000000000000
419,GPU1.SA_06.L0ICache_00,write-miss,0.000000000000
420,GPU1.SA_06.L0ICache_00,write-mshr-hit,0.000000000000
421,GPU1.SA_07.L0VCache_00_00,read-hit,3616.000000000000
422,GPU1.SA_07.L0VCache_00_00,read-miss,20912.000000000000
423,GPU1.SA_07.L0VCache_00_00,read-mshr-hit,0.000000000000
424,GPU1.SA_07.L0VCache_00_00,write-hit,15884.000000000000
425,GPU1.SA_07.L0VCache_00_00,write-miss,8964.000000000000
426,GPU1.SA_07.L0VCache_00_00,write-mshr-hit,0.000000000000
427,GPU1.SA_07.L0VCache_00_01,read-hit,3693.000000000000
428,GPU1.SA_07.L0VCache_00_01,read-miss,20912.000000000000
429,GPU1.SA_07.L0VCache_00_01,read-mshr-hit,0.000000000000
430,GPU1.SA_07.L0VCache_00_01,write-hit,15830.000000000000
431,GPU1.SA_07.L0VCache_00_01,write-miss,9018.000000000000
432,GPU1.SA_07.L0VCache_00_01,write-mshr-hit,0.000000000000
433,GPU1.SA_07.L1Cache,read-hit,320.000000000000
434,GPU1.SA_07.L1Cache,read-miss,41704.000000000000
435,GPU1.SA_07.L1Cache,read-mshr-hit,0.000000000000
436,GPU1.SA_07.L1Cache,write-hit,41384.000000000000
437,GPU1.SA_07.L1Cache,write-miss,8312.000000000000
438,GPU1.SA_07.L1Cache,write-mshr-hit,0.000000000000
439,GPU1.SA_07.L0SCache_00,read-hit,40864.000000000000
440,GPU1.SA_07.L0SCache_00,read-miss,40.000000000000
441,GPU1.SA_07.L0SCache_00,read-mshr-hit,0.000000000000
442,GPU1.SA_07.L0SCache_00,write-hit,0.000000000000
443,GPU1.SA_07.L0SCache_00,write-miss,0.000000000000
444,GPU1.SA_07.L0SCache_00,write-mshr-hit,0.000000000000
445,GPU1.SA_07.L0ICache_00,read-hit,80498.000000000000
446,GPU1.SA_07.L0ICache_00,read-miss,160.000000000000
447,GPU1.SA_07.L0ICache_00,read-mshr-hit,0.000000000000
448,GPU1.SA_07.L0ICache_00,write-hit,0.000000000000
449,GPU1.SA_07.L0ICache_00,write-miss,0.000000000000
450,GPU1.SA_07.L0ICache_00,write-mshr-hit,0.000000000000
451,GPU1.SA_08.L0VCache_00_00,read-hit,3796.000000000000
452,GPU1.SA_08.L0VCache_00_00,read-miss,20804.000000000000
453,GPU1.SA_08.L0VCache_00_00,read-mshr-hit,0.000000000000
454,GPU1.SA_08.L0VCache_00_00,write-hit,16306.000000000000
455,GPU1.SA_08.L0VCache_00_00,write-miss,8590.000000000000
456,GPU1.SA_08.L0VCache_00_00,write-mshr-hit,0.000000000000
457,GPU1.SA_08.L0VCache_00_01,read-hit,3862.000000000000
458,GPU1.SA_08.L0VCache_00_01,read-miss,20812.000000000000
459,GPU1.SA_08.L0VCache_00_01,read-mshr-hit,0.000000000000
460,GPU1.SA_08.L0VCache_00_01,write-hit,16238.000000000000
461,GPU1.SA_08.L0VCache_00_01,write-miss,8658.000000000000
462,GPU1.SA_08.L0VCache_00_01,write-mshr-hit,0.000000000000
463,GPU1.SA_08.L1Cache,read-hit,80.000000000000
464,GPU1.SA_08.L1Cache,read-miss,41736.000000000000
465,GPU1.SA_08.L1Cache,read-mshr-hit,0.000000000000
466,GPU1.SA_08.L1Cache,write-hit,41424.000000000000
467,GPU1.SA_08.L1Cache,write-miss,8368.000000000000
468,GPU1.SA_08.L1Cache,write-mshr-hit,0.000000000000
469,GPU1.SA_08.L0SCache_00,read-hit,40896.000000000000
470,GPU1.SA_08.L0SCache_00,read-miss,40.000000000000
471,GPU1.SA_08.L0SCache_00,read-mshr-hit,0.000000000000
472,GPU1.SA_08.L0SCache_00,write-hit,0.000000000000
473,GPU1.SA_08.L0SCache_00,write-miss,0.000000000000
474,GPU1.SA_08.L0SCache_00,write-mshr-hit,0.000000000000
475,GPU1.SA_08.L0ICache_00,read-hit,80549.000000000000
476,GPU1.SA_08.L0ICache_00,read-miss,160.000000000000
477,GPU1.SA_08.L0ICache_00,read-mshr-hit,0.000000000000
478,GPU1.SA_08.L0ICache_00,write-hit,0.000000000000
479,GPU1.SA_08.L0ICache_00,write-miss,0.000000000000
480,GPU1.SA_08.L0ICache_00,write-mshr-hit,0.000000000000
481,GPU1.SA_09.L0VCache_00_00,read-hit,3596.000000000000
482,GPU1.SA_09.L0VCache_00_00,read-miss,20816.000000000000
483,GPU1.SA_09.L0VCache_00_00,read-mshr-hit,0.000000000000
484,GPU1.SA_09.L0VCache_00_00,write-hit,15736.000000000000
485,GPU1.SA_09.L0VCache_00_00,write-miss,9112.000000000000
486,GPU1.SA_09.L0VCache_00_00,write-mshr-hit,0.000000000000
487,GPU1.SA_09.L0VCache_00_01,read-hit,3828.000000000000
488,GPU1.SA_09.L0VCache_00_01,read-miss,20824.000000000000
489,GPU1.SA_09.L0VCache_00_01,read-mshr-hit,0.000000000000
490,GPU1.SA_09.L0VCache_00_01,write-hit,15621.000000000000
491,GPU1.SA_09.L0VCache_00_01,write-miss,9227.000000000000
492,GPU1.SA_09.L0VCache_00_01,write-mshr-hit,0.000000000000
493,GPU1.SA_09.L1Cache,read-hit,168.000000000000
494,GPU1.SA_09.L1Cache,read-miss,41672.000000000000
495,GPU1.SA_09.L1Cache,read-mshr-hit,0.000000000000
496,GPU1.SA_09.L1Cache,write-hit,41417.000000000000
497,GPU1.SA_09.L1Cache,write-miss,8279.000000000000
498,GPU1.SA_09.L1Cache,write-mshr-hit,0.000000000000
499,GPU1.SA_09.L0SCache_00,read-hit,40832.000000000000
500,GPU1.SA_09.L0SCache_00,read-miss,40.000000000000
501,GPU1.SA_09.L0SCache_00,read-mshr-hit,0.000000000000
502,GPU1.SA_09.L0SCache_00,write-hit,0.000000000000
503,GPU1.SA_09.L0SCache_00,write-miss,0.000000000000
504,GPU1.SA_09.L0SCache_00,write-mshr-hit,0.000000000000
505,GPU1.SA_09.L0ICache_00,read-hit,80421.000000000000
506,GPU1.SA_09.L0ICache_00,read-miss,160.000000000000
507,GPU1.SA_09.L0ICache_00,read-mshr-hit,0.000000000000
508,GPU1.SA_09.L0ICache_00,write-hit,0.000000000000
509,GPU1.SA_09.L0ICache_00,write-miss,0.000000000000
510,GPU1.SA_09.L0ICache_00,write-mshr-hit,0.000000000000
511,GPU1.SA_10.L0VCache_00_00,read-hit,3715.000000000000
512,GPU1.SA_10.L0VCache_00_00,read-miss,20880.000000000000
513,GPU1.SA_10.L0VCache_00_00,read-mshr-hit,0.000000000000
514,GPU1.SA_10.L0VCache_00_00,write-hit,16018.000000000000
515,GPU1.SA_10.L0VCache_00_00,write-miss,8942.000000000000
516,GPU1.SA_10.L0VCache_00_00,write-mshr-hit,0.000000000000
517,GPU1.SA_10.L0VCache_00_01,read-hit,3866.000000000000
518,GPU1.SA_10.L0VCache_00_01,read-miss,20880.000000000000
519,GPU1.SA_10.L0VCache_00_01,read-mshr-hit,0.000000000000
520,GPU1.SA_10.L0VCache_00_01,write-hit,15931.000000000000
521,GPU1.SA_10.L0VCache_00_01,write-miss,9029.000000000000
522,GPU1.SA_10.L0VCache_00_01,write-mshr-hit,0.000000000000
523,GPU1.SA_10.L1Cache,read-hit,160.000000000000
524,GPU1.SA_10.L1Cache,read-miss,41800.000000000000
525,GPU1.SA_10.L1Cache,read-mshr-hit,0.000000000000
526,GPU1.SA_10.L1Cache,write-hit,41545.000000000000
527,GPU1.SA_10.L1Cache,write-miss,8375.000000000000
528,GPU1.SA_10.L1Cache,write-mshr-hit,0.000000000000
529,GPU1.SA_10.L0SCache_00,read-hit,40960.000000000000
530,GPU1.SA_10.L0SCache_00,read-miss,40.000000000000
531,GPU1.SA_10.L0SCache_00,read-mshr-hit,0.000000000000
532,GPU1.SA_10.L0SCache_00,write-hit,0.000000000000
533,GPU1.SA_10.L0SCache_00,write-miss,0.000000000000
534,GPU1.SA_10.L0SCache_00,write-mshr-hit,0.000000000000
535,GPU1.SA_10.L0ICache_00,read-hit,80680.000000000000
536,GPU1.SA_10.L0ICache_00,read-miss,160.000000000000
537,GPU1.SA_10.L0ICache_00,read-mshr-hit,0.000000000000
538,GPU1.SA_10.L0ICache_00,write-hit,0.000000000000
539,GPU1.SA_10.L0ICache_00,write-miss,0.000000000000
540,GPU1.SA_10.L0ICache_00,write-mshr-hit,0.000000000000
541,GPU1.SA_11.L0VCache_00_00,read-hit,3633.000000000000
542,GPU1.SA_11.L0VCache_00_00,read-miss,20794.000000000000
543,GPU1.SA_11.L0VCache_00_00,read-mshr-hit,0.000000000000
544,GPU1.SA_11.L0VCache_00_00,write-hit,16302.000000000000
545,GPU1.SA_11.L0VCache_00_00,write-miss,8530.000000000000
546,GPU1.SA_11.L0VCache_00_00,write-mshr-hit,0.000000000000
547,GPU1.SA_11.L0VCache_00_01,read-hit,3798.000000000000
548,GPU1.SA_11.L0VCache_00_01,read-miss,20794.000000000000
549,GPU1.SA_11.L0VCache_00_01,read-mshr-hit,0.000000000000
550,GPU1.SA_11.L0VCache_00_01,write-hit,16254.000000000000
551,GPU1.SA_11.L0VCache_00_01,write-miss,8578.000000000000
552,GPU1.SA_11.L0VCache_00_01,write-mshr-hit,0.000000000000
553,GPU1.SA_11.L1Cache,read-hit,180.000000000000
554,GPU1.SA_11.L1Cache,read-miss,41608.000000000000
555,GPU1.SA_11.L1Cache,read-mshr-hit,0.000000000000
556,GPU1.SA_11.L1Cache,write-hit,41353.000000000000
557,GPU1.SA_11.L1Cache,write-miss,8311.000000000000
558,GPU1.SA_11.L1Cache,write-mshr-hit,0.000000000000
559,GPU1.SA_11.L0SCache_00,read-hit,40768.000000000000
560,GPU1.SA_11.L0SCache_00,read-miss,40.000000000000
561,GPU1.SA_11.L0SCache_00,read-mshr-hit,0.000000000000
562,GPU1.SA_11.L0SCache_00,write-hit,0.000000000000
563,GPU1.SA_11.L0SCache_00,write-miss,0.000000000000
564,GPU1.SA_11.L0SCache_00,write-mshr-hit,0.000000000000
565,GPU1.SA_11.L0ICache_00,read-hit,80296.000000000000
566,GPU1.SA_11.L0ICache_00,read-miss,160.000000000000
567,GPU1.SA_11.L0ICache_00,read-mshr-hit,0.000000000000
568,GPU1.SA_11.L0ICache_00,write-hit,0.000000000000
569,GPU1.SA_11.L0ICache_00,write-miss,0.000000000000
570,GPU1.SA_11.L0ICache_00,write-mshr-hit,0.000000000000
571,GPU1.SA_12.L0VCache_00_00,read-hit,3667.000000000000
572,GPU1.SA_12.L0VCache_00_00,read-miss,20884.000000000000
573,GPU1.SA_12.L0VCache_00_00,read-mshr-hit,0.000000000000
574,GPU1.SA_12.L0VCache_00_00,write-hit,16131.000000000000
575,GPU1.SA_12.L0VCache_00_00,write-miss,8765.000000000000
576,GPU1.SA_12.L0VCache_00_00,write-mshr-hit,0.000000000000
577,GPU1.SA_12.L0VCache_00_01,read-hit,3773.000000000000
578,GPU1.SA_12.L0VCache_00_01,read-miss,20950.000000000000
579,GPU1.SA_12.L0VCache_00_01,read-mshr-hit,0.000000000000
580,GPU1.SA_12.L0VCache_00_01,write-hit,16034.000000000000
581,GPU1.SA_12.L0VCache_00_01,write-miss,8862.000000000000
582,GPU1.SA_12.L0VCache_00_01,write-mshr-hit,0.000000000000
583,GPU1.SA_12.L1Cache,read-hit,266.000000000000
584,GPU1.SA_12.L1Cache,read-miss,41768.000000000000
585,GPU1.SA_12.L1Cache,read-mshr-hit,0.000000000000
586,GPU1.SA_12.L1Cache,write-hit,41524.000000000000
587,GPU1.SA_12.L1Cache,write-miss,8268.000000000000
588,GPU1.SA_12.L1Cache,write-mshr-hit,0.000000000000
589,GPU1.SA_12.L0SCache_00,read-hit,40928.000000000000
590,GPU1.SA_12.L0SCache_00,read-miss,40.000000000000
591,GPU1.SA_12.L0SCache_00,read-mshr-hit,0.000000000000
592,GPU1.SA_12.L0SCache_00,write-hit,0.000000000000
593,GPU1.SA_12.L0SCache_00,write-miss,0.000000000000
594,GPU1.SA_12.L0SCache_00,write-mshr-hit,0.000000000000
595,GPU1.SA_12.L0ICache_00,read-hit,80615.000000000000
596,GPU1.SA_12.L0ICache_00,read-miss,160.000000000000
597,GPU1.SA_12.L0ICache_00,read-mshr-hit,0.000000000000
598,GPU1.SA_12.L0ICache_00,write-hit,0.000000000000
599,GPU1.SA_12.L0ICache_00,write-miss,0.000000000000
600,GPU1.SA_12.L0ICache_00,write-mshr-hit,0.000000000000
601,GPU1.SA_13.L0VCache_00_00,read-hit,3729.000000000000
602,GPU1.SA_13.L0VCache_00_00,read-miss,20804.000000000000
603,GPU1.SA_13.L0VCache_00_00,read-mshr-hit,0.000000000000
604,GPU1.SA_13.L0VCache_00_00,write-hit,15308.000000000000
605,GPU1.SA_13.L0VCache_00_00,write-miss,9508.000000000000
606,GPU1.SA_13.L0VCache_00_00,write-mshr-hit,0.000000000000
607,GPU1.SA_13.L0VCache_00_01,read-hit,3861.000000000000
608,GPU1.SA_13.L0VCache_00_01,read-miss,20808.000000000000
609,GPU1.SA_13.L0VCache_00_01,read-mshr-hit,0.000000000000
610,GPU1.SA_13.L0VCache_00_01,write-hit,15257.000000000000
611,GPU1.SA_13.L0VCache_00_01,write-miss,9559.000000000000
612,GPU1.SA_13.L0VCache_00_01,write-mshr-hit,0.000000000000
613,GPU1.SA_13.L1Cache,read-hit,204.000000000000
614,GPU1.SA_13.L1Cache,read-miss,41608.000000000000
615,GPU1.SA_13.L1Cache,read-mshr-hit,0.000000000000
616,GPU1.SA_13.L1Cache,write-hit,41358.000000000000
617,GPU1.SA_13.L1Cache,write-miss,8274.000000000000
618,GPU1.SA_13.L1Cache,write-mshr-hit,0.000000000000
619,GPU1.SA_13.L0SCache_00,read-hit,40768.000000000000
620,GPU1.SA_13.L0SCache_00,read-miss,40.000000000000
621,GPU1.SA_13.L0SCache_00,read-mshr-hit,0.000000000000
622,GPU1.SA_13.L0SCache_00,write-hit,0.000000000000
623,GPU1.SA_13.L0SCache_00,write-miss,0.000000000000
624,GPU1.SA_13.L0SCache_00,write-mshr-hit,0.000000000000
625,GPU1.SA_13.L0ICache_00,read-hit,80299.000000000000
626,GPU1.SA_13.L0ICache_00,read-miss,160.000000000000
627,GPU1.SA_13.L0ICache_00,read-mshr-hit,0.000000000000
628,GPU1.SA_13.L0ICache_00,write-hit,0.000000000000
629,GPU1.SA_13.L0ICache_00,write-miss,0.000000000000
630,GPU1.SA_13.L0ICache_00,write-mshr-hit,0.000000000000
631,GPU1.SA_14.L0VCache_00_00,read-hit,3701.000000000000
632,GPU1.SA_14.L0VCache_00_00,read-miss,20852.000000000000
633,GPU1.SA_14.L0VCache_00_00,read-mshr-hit,0.000000000000
634,GPU1.SA_14.L0VCache_00_00,write-hit,15831.000000000000
635,GPU1.SA_14.L0VCache_00_00,write-miss,9033.000000000000
636,GPU1.SA_14.L0VCache_00_00,write-mshr-hit,0.000000000000
637,GPU1.SA_14.L0VCache_00_01,read-hit,3882.000000000000
638,GPU1.SA_14.L0VCache_00_01,read-miss,20846.000000000000
639,GPU1.SA_14.L0VCache_00_01,read-mshr-hit,0.000000000000
640,GPU1.SA_14.L0VCache_00_01,write-hit,15762.000000000000
641,GPU1.SA_14.L0VCache_00_01,write-miss,9102.000000000000
642,GPU1.SA_14.L0VCache_00_01,write-mshr-hit,0.000000000000
643,GPU1.SA_14.L1Cache,read-hit,226.000000000000
644,GPU1.SA_14.L1Cache,read-miss,41672.000000000000
645,GPU1.SA_14.L1Cache,read-mshr-hit,0.000000000000
646,GPU1.SA_14.L1Cache,write-hit,41420.000000000000
647,GPU1.SA_14.L1Cache,write-miss,8308.000000000000
648,GPU1.SA_14.L1Cache,write-mshr-hit,0.000000000000
649,GPU1.SA_14.L0SCache_00,read-hit,40832.000000000000
650,GPU1.SA_14.L0SCache_00,read-miss,40.000000000000
651,GPU1.SA_14.L0SCache_00,read-mshr-hit,0.000000000000
652,GPU1.SA_14.L0SCache_00,write-hit,0.000000000000
653,GPU1.SA_14.L0SCache_00,write-miss,0.000000000000
654,GPU1.SA_14.L0SCache_00,write-mshr-hit,0.000000000000
655,GPU1.SA_14.L0ICache_00,read-hit,80422.000000000000
656,GPU1.SA_14.L0ICache_00,read-miss,160.000000000000
657,GPU1.SA_14.L0ICache_00,read-mshr-hit,0.000000000000
658,GPU1.SA_14.L0ICache_00,write-hit,0.000000000000
659,GPU1.SA_14.L0ICache_00,write-miss,0.000000000000
660,GPU1.SA_14.L0ICache_00,write-mshr-hit,0.000000000000
661,GPU1.SA_15.L0VCache_00_00,read-hit,3694.000000000000
662,GPU1.SA_15.L0VCache_00_00,read-miss,20728.000000000000
663,GPU1.SA_15.L0VCache_00_00,read-mshr-hit,0.000000000000
664,GPU1.SA_15.L0VCache_00_00,write-hit,15694.000000000000
665,GPU1.SA_15.L0VCache_00_00,write-miss,9074.000000000000
666,GPU1.SA_15.L0VCache_00_00,write-mshr-hit,0.000000000000
667,GPU1.SA_15.L0VCache_00_01,read-hit,3868.000000000000
668,GPU1.SA_15.L0VCache_00_01,read-miss,20728.000000000000
669,GPU1.SA_15.L0VCache_00_01,read-mshr-hit,0.000000000000
670,GPU1.SA_15.L0VCache_00_01,write-hit,15518.000000000000
671,GPU1.SA_15.L0VCache_00_01,write-miss,9250.000000000000
672,GPU1.SA_15.L0VCache_00_01,write-mshr-hit,0.000000000000
673,GPU1.SA_15.L1Cache,read-hit,80.000000000000
674,GPU1.SA_15.L1Cache,read-miss,41576.000000000000
675,GPU1.SA_15.L1Cache,read-mshr-hit,0.000000000000
676,GPU1.SA_15.L1Cache,write-hit,41276.000000000000
677,GPU1.SA_15.L1Cache,write-miss,8260.000000000000
678,GPU1.SA_15.L1Cache,write-mshr-hit,0.000000000000
679,GPU1.SA_15.L0SCache_00,read-hit,40736.000000000000
680,GPU1.SA_15.L0SCache_00,read-miss,40.000000000000
681,GPU1.SA_15.L0SCache_00,read-mshr-hit,0.000000000000
682,GPU1.SA_15.L0SCache_00,write-hit,0.000000000000
683,GPU1.SA_15.L0SCache_00,write-miss,0.000000000000
684,GPU1.SA_15.L0SCache_00,write-mshr-hit,0.000000000000
685,GPU1.SA_15.L0ICache_00,read-hit,80240.000000000000
686,GPU1.SA_15.L0ICache_00,read-miss,160.000000000000
687,GPU1.SA_15.L0ICache_00,read-mshr-hit,0.000000000000
688,GPU1.SA_15.L0ICache_00,write-hit,0.000000000000
689,GPU1.SA_15.L0ICache_00,write-miss,0.000000000000
690,GPU1.SA_15.L0ICache_00,write-mshr-hit,0.000000000000
691,GPU1.SA_16.L0VCache_00_00,read-hit,3738.000000000000
692,GPU1.SA_16.L0VCache_00_00,read-miss,20564.000000000000
693,GPU1.SA_16.L0VCache_00_00,read-mshr-hit,0.000000000000
694,GPU1.SA_16.L0VCache_00_00,write-hit,15489.000000000000
695,GPU1.SA_16.L0VCache_00_00,write-miss,9151.000000000000
696,GPU1.SA_16.L0VCache_00_00,write-mshr-hit,0.000000000000
697,GPU1.SA_16.L0VCache_00_01,read-hit,3885.000000000000
698,GPU1.SA_16.L0VCache_00_01,read-miss,20560.000000000000
699,GPU1.SA_16.L0VCache_00_01,read-mshr-hit,0.000000000000
700,GPU1.SA_16.L0VCache_00_01,write-hit,15469.000000000000
701,GPU1.SA_16.L0VCache_00_01,write-miss,9171.000000000000
702,GPU1.SA_16.L0VCache_00_01,write-mshr-hit,0.000000000000
703,GPU1.SA_16.L1Cache,read-hit,4.000000000000
704,GPU1.SA_16.L1Cache,read-miss,41320.000000000000
705,GPU1.SA_16.L1Cache,read-mshr-hit,0.000000000000
706,GPU1.SA_16.L1Cache,write-hit,41019.000000000000
707,GPU1.SA_16.L1Cache,write-miss,8261.000000000000
708,GPU1.SA_16.L1Cache,write-mshr-hit,0.000000000000
709,GPU1.SA_16.L0SCache_00,read-hit,40480.000000000000
710,GPU1.SA_16.L0SCache_00,read-miss,40.000000000000
711,GPU1.SA_16.L0SCache_00,read-mshr-hit,0.000000000000
712,GPU1.SA_16.L0SCache_00,write-hit,0.000000000000
713,GPU1.SA_16.L0SCache_00,write-miss,0.000000000000
714,GPU1.SA_16.L0SCache_00,write-mshr-hit,0.000000000000
715,GPU1.SA_16.L0ICache_00,read-hit,79711.000000000000
716,GPU1.SA_16.L0ICache_00,read-miss,160.000000000000
717,GPU1.SA_16.L0ICache_00,read-mshr-hit,0.000000000000
718,GPU1.SA_16.L0ICache_00,write-hit,0.000000000000
719,GPU1.SA_16.L0ICache_00,write-miss,0.000000000000
720,GPU1.SA_16.L0ICache_00,write-mshr-hit,0.000000000000
721,GPU1.SA_17.L0VCache_00_00,read-hit,3799.000000000000
722,GPU1.SA_17.L0VCache_00_00,read-miss,20464.000000000000
723,GPU1.SA_17.L0VCache_00_00,read-mshr-hit,0.000000000000
724,GPU1.SA_17.L0VCache_00_00,write-hit,15509.000000000000
725,GPU1.SA_17.L0VCache_00_00,write-miss,9051.000000000000
726,GPU1.SA_17.L0VCache_00_00,write-mshr-hit,0.000000000000
727,GPU1.SA_17.L0VCache_00_01,read-hit,3891.000000000000
728,GPU1.SA_17.L0VCache_00_01,read-miss,20484.000000000000
729,GPU1.SA_17.L0VCache_00_01,read-mshr-hit,0.000000000000
730,GPU1.SA_17.L0VCache_00_01,write-hit,15269.000000000000
731,GPU1.SA_17.L0VCache_00_01,write-miss,9291.000000000000
732,GPU1.SA_17.L0VCache_00_01,write-mshr-hit,0.000000000000
733,GPU1.SA_17.L1Cache,read-hit,20.000000000000
734,GPU1.SA_17.L1Cache,read-miss,41128.000000000000
735,GPU1.SA_17.L1Cache,read-mshr-hit,0.000000000000
736,GPU1.SA_17.L1Cache,write-hit,40811.000000000000
737,GPU1.SA_17.L1Cache,write-miss,8309.000000000000
738,GPU1.SA_17.L1Cache,write-mshr-hit,0.000000000000
739,GPU1.SA_17.L0SCache_00,read-hit,40288.000000000000
740,GPU1.SA_17.L0SCache_00,read-miss,40.000000000000
741,GPU1.SA_17.L0SCache_00,read-mshr-hit,0.000000000000
742,GPU1.SA_17.L0SCache_00,write-hit,0.000000000000
743,GPU1.SA_17.L0SCache_00,write-miss,0.000000000000
744,GPU1.SA_17.L0SCache_00,write-mshr-hit,0.000000000000
745,GPU1.SA_17.L0ICache_00,read-hit,79320.000000000000
746,GPU1.SA_17.L0ICache_00,read-miss,160.000000000000
747,GPU1.SA_17.L0ICache_00,read-mshr-hit,0.000000000000
748,GPU1.SA_17.L0ICache_00,write-hit,0.000000000000
749,GPU1.SA_17.L0ICache_00,write-miss,0.000000000000
750,GPU1.SA_17.L0ICache_00,write-mshr-hit,0.000000000000
751,GPU1.SA_18.L0VCache_00_00,read-hit,3680.000000000000
752,GPU1.SA_18.L0VCache_00_00,read-miss,20224.000000000000
753,GPU1.SA_18.L0VCache_00_00,read-mshr-hit,0.000000000000
754,GPU1.SA_18.L0VCache_00_00,write-hit,15785.000000000000
755,GPU1.SA_18.L0VCache_00_00,write-miss,8455.000000000000
756,GPU1.SA_18.L0VCache_00_00,write-mshr-hit,0.000000000000
757,GPU1.SA_18.L0VCache_00_01,read-hit,3849.000000000000
758,GPU1.SA_18.L0VCache_00_01,read-miss,20224.000000000000
759,GPU1.SA_18.L0VCache_00_01,read-mshr-hit,0.000000000000
760,GPU1.SA_18.L0VCache_00_01,write-hit,15622.000000000000
761,GPU1.SA_18.L0VCache_00_01,write-miss,8618.000000000000
762,GPU1.SA_18.L0VCache_00_01,write-mshr-hit,0.000000000000
763,GPU1.SA_18.L1Cache,read-hit,32.000000000000
764,GPU1.SA_18.L1Cache,read-miss,40616.000000000000
765,GPU1.SA_18.L1Cache,read-mshr-hit,0.000000000000
766,GPU1.SA_18.L1Cache,write-hit,40259.000000000000
767,GPU1.SA_18.L1Cache,write-miss,8221.000000000000
768,GPU1.SA_18.L1Cache,write-mshr-hit,0.000000000000
769,GPU1.SA_18.L0SCache_00,read-hit,39776.000000000000
770,GPU1.SA_18.L0SCache_00,read-miss,40.000000000000
771,GPU1.SA_18.L0SCache_00,read-mshr-hit,0.000000000000
772,GPU1.SA_18.L0SCache_00,write-hit,0.000000000000
773,GPU1.SA_18.L0SCache_00,write-miss,0.000000000000
774,GPU1.SA_18.L0SCache_00,write-mshr-hit,0.000000000000
775,GPU1.SA_18.L0ICache_00,read-hit,78315.000000000000
776,GPU1.SA_18.L0ICache_00,read-miss,160.000000000000
777,GPU1.SA_18.L0ICache_00,read-mshr-hit,0.000000000000
778,GPU1.SA_18.L0ICache_00,write-hit,0.000000000000
779,GPU1.SA_18.L0ICache_00,write-miss,0.000000000000
780,GPU1.SA_18.L0ICache_00,write-mshr-hit,0.000000000000
781,GPU1.SA_19.L0VCache_00_00,read-hit,3829.000000000000
782,GPU1.SA_19.L0VCache_00_00,read-miss,20256.000000000000
783,GPU1.SA_19.L0VCache_00_00,read-mshr-hit,0.000000000000
784,GPU1.SA_19.L0VCache_00_00,write-hit,15811.000000000000
785,GPU1.SA_19.L0VCache_00_00,write-miss,8541.000000000000
786,GPU1.SA_19.L0VCache_00_00,write-mshr-hit,0.000000000000
787,GPU1.SA_19.L0VCache_00_01,read-hit,3911.000000000000
788,GPU1.SA_19.L0VCache_00_01,read-miss,20251.000000000000
789,GPU1.SA_19.L0VCache_00_01,read-mshr-hit,0.000000000000
790,GPU1.SA_19.L0VCache_00_01,write-hit,15715.000000000000
791,GPU1.SA_19.L0VCache_00_01,write-miss,8637.000000000000
792,GPU1.SA_19.L0VCache_00_01,write-mshr-hit,0.000000000000
793,GPU1.SA_19.L1Cache,read-hit,27.000000000000
794,GPU1.SA_19.L1Cache,read-miss,40680.000000000000
795,GPU1.SA_19.L1Cache,read-mshr-hit,0.000000000000
796,GPU1.SA_19.L1Cache,write-hit,40340.000000000000
797,GPU1.SA_19.L1Cache,write-miss,8364.000000000000
798,GPU1.SA_19.L1Cache,write-mshr-hit,0.000000000000
799,GPU1.SA_19.L0SCache_00,read-hit,39840.000000000000
800,GPU1.SA_19.L0SCache_00,read-miss,40.000000000000
801,GPU1.SA_19.L0SCache_00,read-mshr-hit,0.000000000000
802,GPU1.SA_19.L0SCache_00,write-hit,0.000000000000
803,GPU1.SA_19.L0SCache_00,write-miss,0.000000000000
804,GPU1.SA_19.L0SCache_00,write-mshr-hit,0.000000000000
805,GPU1.SA_19.L0ICache_00,read-hit,78441.000000000000
806,GPU1.SA_19.L0ICache_00,read-miss,160.000000000000
807,GPU1.SA_19.L0ICache_00,read-mshr-hit,0.000000000000
808,GPU1.SA_19.L0ICache_00,write-hit,0.000000000000
809,GPU1.SA_19.L0ICache_00,write-miss,0.000000000000
810,GPU1.SA_19.L0ICache_00,write-mshr-hit,0.000000000000
811,GPU1.SA_20.L0VCache_00_00,read-hit,3493.000000000000
812,GPU1.SA_20.L0VCache_00_00,read-miss,20224.000000000000
813,GPU1.SA_20.L0VCache_00_00,read-mshr-hit,0.000000000000
814,GPU1.SA_20.L0VCache_00_00,write-hit,15757.000000000000
815,GPU1.SA_20.L0VCache_00_00,write-miss,8435.000000000000
816,GPU1.SA_20.L0VCache_00_00,write-mshr-hit,0.000000000000
817,GPU1.SA_20.L0VCache_00_01,read-hit,3808.000000000000
818,GPU1.SA_20.L0VCache_00_01,read-miss,20224.000000000000
819,GPU1.SA_20.L0VCache_00_01,read-mshr-hit,0.000000000000
820,GPU1.SA_20.L0VCache_00_01,write-hit,15427.000000000000
821,GPU1.SA_20.L0VCache_00_01,write-miss,8765.000000000000
822,GPU1.SA_20.L0VCache_00_01,write-mshr-hit,0.000000000000
823,GPU1.SA_20.L1Cache,read-hit,160.000000000000
824,GPU1.SA_20.L1Cache,read-miss,40488.000000000000
825,GPU1.SA_20.L1Cache,read-mshr-hit,0.000000000000
826,GPU1.SA_20.L1Cache,write-hit,40147.000000000000
827,GPU1.SA_20.L1Cache,write-miss,8237.000000000000
828,GPU1.SA_20.L1Cache,write-mshr-hit,0.000000000000
829,GPU1.SA_20.L0SCache_00,read-hit,39648.000000000000
830,GPU1.SA_20.L0SCache_00,read-miss,40.000000000000
831,GPU1.SA_20.L0SCache_00,read-mshr-hit,0.000000000000
832,GPU1.SA_20.L0SCache_00,write-hit,0.000000000000
833,GPU1.SA_20.L0SCache_00,write-miss,0.000000000000
834,GPU1.SA_20.L0SCache_00,write-mshr-hit,0.000000000000
835,GPU1.SA_20.L0ICache_00,read-hit,78054.000000000000
836,GPU1.SA_20.L0ICache_00,read-miss,160.000000000000
837,GPU1.SA_20.L0ICache_00,read-mshr-hit,0.000000000000
838,GPU1.SA_20.L0ICache_00,write-hit,0.000000000000
839,GPU1.SA_20.L0ICache_00,write-miss,0.000000000000
840,GPU1.SA_20.L0ICache_00,write-mshr-hit,0.000000000000
841,GPU1.SA_21.L0VCache_00_00,read-hit,3720.000000000000
842,GPU1.SA_21.L0VCache_00_00,read-miss,20336.000000000000
843,GPU1.SA_21.L0VCache_00_00,read-mshr-hit,0.000000000000
844,GPU1.SA_21.L0VCache_00_00,write-hit,16038.000000000000
845,GPU1.SA_21.L0VCache_00_00,write-miss,8362.000000000000
846,GPU1.SA_21.L0VCache_00_00,write-mshr-hit,0.000000000000
847,GPU1.SA_21.L0VCache_00_01,read-hit,3827.000000000000
848,GPU1.SA_21.L0VCache_00_01,read-miss,20425.000000000000
849,GPU1.SA_21.L0VCache_00_01,read-mshr-hit,0.000000000000
850,GPU1.SA_21.L0VCache_00_01,write-hit,15782.000000000000
851,GPU1.SA_21.L0VCache_00_01,write-miss,8618.000000000000
852,GPU1.SA_21.L0VCache_00_01,write-mshr-hit,0.000000000000
853,GPU1.SA_21.L1Cache,read-hit,249.000000000000
854,GPU1.SA_21.L1Cache,read-miss,40712.000000000000
855,GPU1.SA_21.L1Cache,read-mshr-hit,0.000000000000
856,GPU1.SA_21.L1Cache,write-hit,40275.000000000000
857,GPU1.SA_21.L1Cache,write-miss,8525.000000000000
858,GPU1.SA_21.L1Cache,write-mshr-hit,0.000000000000
859,GPU1.SA_21.L0SCache_00,read-hit,39872.000000000000
860,GPU1.SA_21.L0SCache_00,read-miss,40.000000000000
861,GPU1.SA_21.L0SCache_00,read-mshr-hit,0.000000000000
862,GPU1.SA_21.L0SCache_00,write-hit,0.000000000000
863,GPU1.SA_21.L0SCache_00,write-miss,0.000000000000
864,GPU1.SA_21.L0SCache_00,write-mshr-hit,0.000000000000
865,GPU1.SA_21.L0ICache_00,read-hit,78524.000000000000
866,GPU1.SA_21.L0ICache_00,read-miss,160.000000000000
867,GPU1.SA_21.L0ICache_00,read-mshr-hit,0.000000000000
868,GPU1.SA_21.L0ICache_00,write-hit,0.000000000000
869,GPU1.SA_21.L0ICache_00,write-miss,0.000000000000
870,GPU1.SA_21.L0ICache_00,write-mshr-hit,0.000000000000
871,GPU1.SA_22.L0VCache_00_00,read-hit,3664.000000000000
872,GPU1.SA_22.L0VCache_00_00,read-miss,20224.000000000000
873,GPU1.SA_22.L0VCache_00_00,read-mshr-hit,0.000000000000
874,GPU1.SA_22.L0VCache_00_00,write-hit,15954.000000000000
875,GPU1.SA_22.L0VCache_00_00,write-miss,8302.000000000000
876,GPU1.SA_22.L0VCache_00_00,write-mshr-hit,0.000000000000
877,GPU1.SA_22.L0VCache_00_01,read-hit,3857.000000000000
878,GPU1.SA_22.L0VCache_00_01,read-miss,20240.000000000000
879,GPU1.SA_22.L0VCache_00_01,read-mshr-hit,0.000000000000
880,GPU1.SA_22.L0VCache_00_01,write-hit,15844.000000000000
881,GPU1.SA_22.L0VCache_00_01,write-miss,8412.000000000000
882,GPU1.SA_22.L0VCache_00_01,write-mshr-hit,0.000000000000
883,GPU1.SA_22.L1Cache,read-hit,176.000000000000
884,GPU1.SA_22.L1Cache,read-miss,40488.000000000000
885,GPU1.SA_22.L1Cache,read-mshr-hit,0.000000000000
886,GPU1.SA_22.L1Cache,write-hit,40012.000000000000
887,GPU1.SA_22.L1Cache,write-miss,8500.000000000000
888,GPU1.SA_22.L1Cache,write-mshr-hit,0.000000000000
889,GPU1.SA_22.L0SCache_00,read-hit,39648.000000000000
890,GPU1.SA_22.L0SCache_00,read-miss,40.000000000000
891,GPU1.SA_22.L0SCache_00,read-mshr-hit,0.000000000000
892,GPU1.SA_22.L0SCache_00,write-hit,0.000000000000
893,GPU1.SA_22.L0SCache_00,write-miss,0.000000000000
894,GPU1.SA_22.L0SCache_00,write-mshr-hit,0.000000000000
895,GPU1.SA_22.L0ICache_00,read-hit,78073.000000000000
896,GPU1.SA_22.L0ICache_00,read-miss,160.000000000000
897,GPU1.SA_22.L0ICache_00,read-mshr-hit,0.000000000000
898,GPU1.SA_22.L0ICache_00,write-hit,0.000000000000
899,GPU1.SA_22.L0ICache_00,write-miss,0.000000000000
900,GPU1.SA_22.L0ICache_00,write-mshr-hit,0.000000000000
901,GPU1.SA_23.L0VCache_00_00,read-hit,3797.000000000000
902,GPU1.SA_23.L0VCache_00_00,read-miss,20240.000000000000
903,GPU1.SA_23.L0VCache_00_00,read-mshr-hit,0.000000000000
904,GPU1.SA_23.L0VCache_00_00,write-hit,15712.000000000000
905,GPU1.SA_23.L0VCache_00_00,write-miss,8576.000000000000
906,GPU1.SA_23.L0VCache_00_00,write-mshr-hit,0.000000000000
907,GPU1.SA_23.L0VCache_00_01,read-hit,3863.000000000000
908,GPU1.SA_23.L0VCache_00_01,read-miss,20292.000000000000
909,GPU1.SA_23.L0VCache_00_01,read-mshr-hit,0.000000000000
910,GPU1.SA_23.L0VCache_00_01,write-hit,15607.000000000000
911,GPU1.SA_23.L0VCache_00_01,write-miss,8681.000000000000
912,GPU1.SA_23.L0VCache_00_01,write-mshr-hit,0.000000000000
913,GPU1.SA_23.L1Cache,read-hit,212.000000000000
914,GPU1.SA_23.L1Cache,read-miss,40520.000000000000
915,GPU1.SA_23.L1Cache,read-mshr-hit,0.000000000000
916,GPU1.SA_23.L1Cache,write-hit,40058.000000000000
917,GPU1.SA_23.L1Cache,write-miss,8518.000000000000
918,GPU1.SA_23.L1Cache,write-mshr-hit,0.000000000000
919,GPU1.SA_23.L0SCache_00,read-hit,39680.000000000000
920,GPU1.SA_23.L0SCache_00,read-miss,40.000000000000
921,GPU1.SA_23.L0SCache_00,read-mshr-hit,0.000000000000
922,GPU1.SA_23.L0SCache_00,write-hit,0.000000000000
923,GPU1.SA_23.L0SCache_00,write-miss,0.000000000000
924,GPU1.SA_23.L0SCache_00,write-mshr-hit,0.000000000000
925,GPU1.SA_23.L0ICache_00,read-hit,78129.000000000000
926,GPU1.SA_23.L0ICache_00,read-miss,160.000000000000
927,GPU1.SA_23.L0ICache_00,read-mshr-hit,0.000000000000
928,GPU1.SA_23.L0ICache_00,write-hit,0.000000000000
929,GPU1.SA_23.L0ICache_00,write-miss,0.000000000000
930,GPU1.SA_23.L0ICache_00,write-mshr-hit,0.000000000000
931,GPU1.SA_24.L0VCache_00_00,read-hit,3568.000000000000
932,GPU1.SA_24.L0VCache_00_00,read-miss,20160.000000000000
933,GPU1.SA_24.L0VCache_00_00,read-mshr-hit,0.000000000000
934,GPU1.SA_24.L0VCache_00_00,write-hit,15618.000000000000
935,GPU1.SA_24.L0VCache_00_00,write-miss,8558.000000000000
936,GPU1.SA_24.L0VCache_00_00,write-mshr-hit,0.000000000000
937,GPU1.SA_24.L0VCache_00_01,read-hit,3848.000000000000
938,GPU1.SA_24.L0VCache_00_01,read-miss,20180.000000000000
939,GPU1.SA_24.L0VCache_00_01,read-mshr-hit,0.000000000000
940,GPU1.SA_24.L0VCache_00_01,write-hit,15572.000000000000
941,GPU1.SA_24.L0VCache_00_01,write-miss,8604.000000000000
942,GPU1.SA_24.L0VCache_00_01,write-mshr-hit,0.000000000000
943,GPU1.SA_24.L1Cache,read-hit,180.000000000000
944,GPU1.SA_24.L1Cache,read-miss,40360.000000000000
945,GPU1.SA_24.L1Cache,read-mshr-hit,0.000000000000
946,GPU1.SA_24.L1Cache,write-hit,39866.000000000000
947,GPU1.SA_24.L1Cache,write-miss,8486.000000000000
948,GPU1.SA_24.L1Cache,write-mshr-hit,0.000000000000
949,GPU1.SA_24.L0SCache_00,read-hit,39520.000000000000
950,GPU1.SA_24.L0SCache_00,read-miss,40.000000000000
951,GPU1.SA_24.L0SCache_00,read-mshr-hit,0.000000000000
952,GPU1.SA_24.L0SCache_00,write-hit,0.000000000000
953,GPU1.SA_24.L0SCache_00,write-miss,0.000000000000
954,GPU1.SA_24.L0SCache_00,write-mshr-hit,0.000000000000
955,GPU1.SA_24.L0ICache_00,read-hit,77813.000000000000
956,GPU1.SA_24.L0ICache_00,read-miss,160.000000000000
957,GPU1.SA_24.L0ICache_00,read-mshr-hit,0.000000000000
958,GPU1.SA_24.L0ICache_00,write-hit,0.000000000000
959,GPU1.SA_24.L0ICache_00,write-miss,0.000000000000
960,GPU1.SA_24.L0ICache_00,write-mshr-hit,0.000000000000
961,GPU1.SA_25.L0VCache_00_00,read-hit,3574.000000000000
962,GPU1.SA_25.L0VCache_00_00,read-miss,20128.000000000000
963,GPU1.SA_25.L0VCache_00_00,read-mshr-hit,0.000000000000
964,GPU1.SA_25.L0VCache_00_00,write-hit,16162.000000000000
965,GPU1.SA_25.L0VCache_00_00,write-miss,7998.000000000000
966,GPU1.SA_25.L0VCache_00_00,write-mshr-hit,0.000000000000
967,GPU1.SA_25.L0VCache_00_01,read-hit,3814.000000000000
968,GPU1.SA_25.L0VCache_00_01,read-miss,20156.000000000000
969,GPU1.SA_25.L0VCache_00_01,read-mshr-hit,0.000000000000
970,GPU1.SA_25.L0VCache_00_01,write-hit,16035.000000000000
971,GPU1.SA_25.L0VCache_00_01,write-miss,8125.000000000000
972,GPU1.SA_25.L0VCache_00_01,write-mshr-hit,0.000000000000
973,GPU1.SA_25.L1Cache,read-hit,188.000000000000
974,GPU1.SA_25.L1Cache,read-miss,40296.000000000000
975,GPU1.SA_25.L1Cache,read-mshr-hit,0.000000000000
976,GPU1.SA_25.L1Cache,write-hit,39794.000000000000
977,GPU1.SA_25.L1Cache,write-miss,8526.000000000000
978,GPU1.SA_25.L1Cache,write-mshr-hit,0.000000000000
979,GPU1.SA_25.L0SCache_00,read-hit,39456.000000000000
980,GPU1.SA_25.L0SCache_00,read-miss,40.000000000000
981,GPU1.SA_25.L0SCache_00,read-mshr-hit,0.000000000000
982,GPU1.SA_25.L0SCache_00,write-hit,0.000000000000
983,GPU1.SA_25.L0SCache_00,write-miss,0.000000000000
984,GPU1.SA_25.L0SCache_00,write-mshr-hit,0.000000000000
985,GPU1.SA_25.L0ICache_00,read-hit,77692.000000000000
986,GPU1.SA_25.L0ICache_00,read-miss,160.000000000000
987,GPU1.SA_25.L0ICache_00,read-mshr-hit,0.000000000000
988,GPU1.SA_25.L0ICache_00,write-hit,0.000000000000
989,GPU1.SA_25.L0ICache_00,write-miss,0.000000000000
990,GPU1.SA_25.L0ICache_00,write-mshr-hit,0.000000000000
991,GPU1.SA_26.L0VCache_00_00,read-hit,3622.000000000000
992,GPU1.SA_26.L0VCache_00_00,read-miss,20032.000000000000
993,GPU1.SA_26.L0VCache_00_00,read-mshr-hit,0.000000000000
994,GPU1.SA_26.L0VCache_00_00,write-hit,15618.000000000000
995,GPU1.SA_26.L0VCache_00_00,write-miss,8366.000000000000
996,GPU1.SA_26.L0VCache_00_00,write-mshr-hit,0.000000000000
997,GPU1.SA_26.L0VCache_00_01,read-hit,3784.000000000000
998,GPU1.SA_26.L0VCache_00_01,read-miss,20040.000000000000
999,GPU1.SA_26.L0VCache_00_01,read-mshr-hit,0.000000000000
1000,GPU1.SA_26.L0VCache_00_01,write-hit,15502.000000000000
1001,GPU1.SA_26.L0VCache_00_01,write-miss,8482.000000000000
1002,GPU1.SA_26.L0VCache_00_01,write-mshr-hit,0.000000000000
1003,GPU1.SA_26.L1Cache,read-hit,168.000000000000
1004,GPU1.SA_26.L1Cache,read-miss,40104.000000000000
1005,GPU1.SA_26.L1Cache,read-mshr-hit,0.000000000000
1006,GPU1.SA_26.L1Cache,write-hit,39566.000000000000
1007,GPU1.SA_26.L1Cache,write-miss,8402.000000000000
1008,GPU1.SA_26.L1Cache,write-mshr-hit,0.000000000000
1009,GPU1.SA_26.L0SCache_00,read-hit,39264.000000000000
1010,GPU1.SA_26.L0SCache_00,read-miss,40.000000000000
1011,GPU1.SA_26.L0SCache_00,read-mshr-hit,0.000000000000
1012,GPU1.SA_26.L0SCache_00,write-hit,0.000000000000
1013,GPU1.SA_26.L0SCache_00,write-miss,0.000000000000
1014,GPU1.SA_26.L0SCache_00,write-mshr-hit,0.000000000000
1015,GPU1.SA_26.L0ICache_00,read-hit,77326.000000000000
1016,GPU1.SA_26.L0ICache_00,read-miss,160.000000000000
1017,GPU1.SA_26.L0ICache_00,read-mshr-hit,0.000000000000
1018,GPU1.SA_26.L0ICache_00,write-hit,0.000000000000
1019,GPU1.SA_26.L0ICache_00,write-miss,0.000000000000
1020,GPU1.SA_26.L0ICache_00,write-mshr-hit,0.000000000000
1021,GPU1.SA_27.L0VCache_00_00,read-hit,3605.000000000000
1022,GPU1.SA_27.L0VCache_00_00,read-miss,20208.000000000000
1023,GPU1.SA_27.L0VCache_00_00,read-mshr-hit,0.000000000000
1024,GPU1.SA_27.L0VCache_00_00,write-hit,16298.000000000000
1025,GPU1.SA_27.L0VCache_00_00,write-miss,7878.000000000000
1026,GPU1.SA_27.L0VCache_00_00,write-mshr-hit,0.000000000000
1027,GPU1.SA_27.L0VCache_00_01,read-hit,3764.000000000000
1028,GPU1.SA_27.L0VCache_00_01,read-miss,20208.000000000000
1029,GPU1.SA_27.L0VCache_00_01,read-mshr-hit,0.000000000000
1030,GPU1.SA_27.L0VCache_00_01,write-hit,16233.000000000000
1031,GPU1.SA_27.L0VCache_00_01,write-miss,7943.000000000000
1032,GPU1.SA_27.L0VCache_00_01,write-mshr-hit,0.000000000000
1033,GPU1.SA_27.L1Cache,read-hit,320.000000000000
1034,GPU1.SA_27.L1Cache,read-miss,40296.000000000000
1035,GPU1.SA_27.L1Cache,read-mshr-hit,0.000000000000
1036,GPU1.SA_27.L1Cache,write-hit,39856.000000000000
1037,GPU1.SA_27.L1Cache,write-miss,8496.000000000000
1038,GPU1.SA_27.L1Cache,write-mshr-hit,0.000000000000
1039,GPU1.SA_27.L0SCache_00,read-hit,39456.000000000000
1040,GPU1.SA_27.L0SCache_00,read-miss,40.000000000000
1041,GPU1.SA_27.L0SCache_00,read-mshr-hit,0.000000000000
1042,GPU1.SA_27.L0SCache_00,write-hit,0.000000000000
1043,GPU1.SA_27.L0SCache_00,write-miss,0.000000000000
1044,GPU1.SA_27.L0SCache_00,write-mshr-hit,0.000000000000
1045,GPU1.SA_27.L0ICache_00,read-hit,77694.000000000000
1046,GPU1.SA_27.L0ICache_00,read-miss,160.000000000000
1047,GPU1.SA_27.L0ICache_00,read-mshr-hit,0.000000000000
1048,GPU1.SA_27.L0ICache_00,write-hit,0.000000000000
1049,GPU1.SA_27.L0ICache_00,write-miss,0.000000000000
1050,GPU1.SA_27.L0ICache_00,write-mshr-hit,0.000000000000
1051,GPU1.SA_28.L0VCache_00_00,read-hit,3628.000000000000
1052,GPU1.SA_28.L0VCache_00_00,read-miss,20128.000000000000
1053,GPU1.SA_28.L0VCache_00_00,read-mshr-hit,0.000000000000
1054,GPU1.SA_28.L0VCache_00_00,write-hit,16104.000000000000
1055,GPU1.SA_28.L0VCache_00_00,write-miss,8024.000000000000
1056,GPU1.SA_28.L0VCache_00_00,write-mshr-hit,0.000000000000
1057,GPU1.SA_28.L0VCache_00_01,read-hit,3789.000000000000
1058,GPU1.SA_28.L0VCache_00_01,read-miss,20128.000000000000
1059,GPU1.SA_28.L0VCache_00_01,read-mshr-hit,0.000000000000
1060,GPU1.SA_28.L0VCache_00_01,write-hit,16078.000000000000
1061,GPU1.SA_28.L0VCache_00_01,write-miss,8050.000000000000
1062,GPU1.SA_28.L0VCache_00_01,write-mshr-hit,0.000000000000
1063,GPU1.SA_28.L1Cache,read-hit,160.000000000000
1064,GPU1.SA_28.L1Cache,read-miss,40296.000000000000
1065,GPU1.SA_28.L1Cache,read-mshr-hit,0.000000000000
1066,GPU1.SA_28.L1Cache,write-hit,39782.000000000000
1067,GPU1.SA_28.L1Cache,write-miss,8474.000000000000
1068,GPU1.SA_28.L1Cache,write-mshr-hit,0.000000000000
1069,GPU1.SA_28.L0SCache_00,read-hit,39456.000000000000
1070,GPU1.SA_28.L0SCache_00,read-miss,40.000000000000
1071,GPU1.SA_28.L0SCache_00,read-mshr-hit,0.000000000000
1072,GPU1.SA_28.L0SCache_00,write-hit,0.000000000000
1073,GPU1.SA_28.L0SCache_00,write-miss,0.000000000000
1074,GPU1.SA_28.L0SCache_00,write-mshr-hit,0.000000000000
1075,GPU1.SA_28.L0ICache_00,read-hit,77713.000000000000
1076,GPU1.SA_28.L0ICache_00,read-miss,160.000000000000
1077,GPU1.SA_28.L0ICache_00,read-mshr-hit,0.000000000000
1078,GPU1.SA_28.L0ICache_00,write-hit,0.000000000000
1079,GPU1.SA_28.L0ICache_00,write-miss,0.000000000000
1080,GPU1.SA_28.L0ICache_00,write-mshr-hit,0.000000000000
1081,GPU1.SA_29.L0VCache_00_00,read-hit,3548.000000000000
1082,GPU1.SA_29.L0VCache_00_00,read-miss,20084.000000000000
1083,GPU1.SA_29.L0VCache_00_00,read-mshr-hit,0.000000000000
1084,GPU1.SA_29.L0VCache_00_00,write-hit,16095.000000000000
1085,GPU1.SA_29.L0VCache_00_00,write-miss,7969.000000000000
1086,GPU1.SA_29.L0VCache_00_00,write-mshr-hit,0.000000000000
1087,GPU1.SA_29.L0VCache_00_01,read-hit,3806.000000000000
1088,GPU1.SA_29.L0VCache_00_01,read-miss,20084.000000000000
1089,GPU1.SA_29.L0VCache_00_01,read-mshr-hit,0.000000000000
1090,GPU1.SA_29.L0VCache_00_01,write-hit,16058.000000000000
1091,GPU1.SA_29.L0VCache_00_01,write-miss,8006.000000000000
1092,GPU1.SA_29.L0VCache_00_01,write-mshr-hit,0.000000000000
1093,GPU1.SA_29.L1Cache,read-hit,168.000000000000
1094,GPU1.SA_29.L1Cache,read-miss,40200.000000000000
1095,GPU1.SA_29.L1Cache,read-mshr-hit,0.000000000000
1096,GPU1.SA_29.L1Cache,write-hit,39722.000000000000
1097,GPU1.SA_29.L1Cache,write-miss,8406.000000000000
1098,GPU1.SA_29.L1Cache,write-mshr-hit,0.000000000000
1099,GPU1.SA_29.L0SCache_00,read-hit,39360.000000000000
1100,GPU1.SA_29.L0SCache_00,read-miss,40.000000000000
1101,GPU1.SA_29.L0SCache_00,read-mshr-hit,0.000000000000
1102,GPU1.SA_29.L0SCache_00,write-hit,0.000000000000
1103,GPU1.SA_29.L0SCache_00,write-miss,0.000000000000
1104,GPU1.SA_29.L0SCache_00,write-mshr-hit,0.000000000000
1105,GPU1.SA_29.L0ICache_00,read-hit,77513.000000000000
1106,GPU1.SA_29.L0ICache_00,read-miss,160.000000000000
1107,GPU1.SA_29.L0ICache_00,read-mshr-hit,0.000000000000
1108,GPU1.SA_29.L0ICache_00,write-hit,0.000000000000
1109,GPU1.SA_29.L0ICache_00,write-miss,0.000000000000
1110,GPU1.SA_29.L0ICache_00,write-mshr-hit,0.000000000000
1111,GPU1.SA_30.L0VCache_00_00,read-hit,3662.000000000000
1112,GPU1.SA_30.L0VCache_00_00,read-miss,20100.000000000000
1113,GPU1.SA_30.L0VCache_00_00,read-mshr-hit,0.000000000000
1114,GPU1.SA_30.L0VCache_00_00,write-hit,16385.000000000000
1115,GPU1.SA_30.L0VCache_00_00,write-miss,7695.000000000000
1116,GPU1.SA_30.L0VCache_00_00,write-mshr-hit,0.000000000000
1117,GPU1.SA_30.L0VCache_00_01,read-hit,3788.000000000000
1118,GPU1.SA_30.L0VCache_00_01,read-miss,20100.000000000000
1119,GPU1.SA_30.L0VCache_00_01,read-mshr-hit,0.000000000000
1120,GPU1.SA_30.L0VCache_00_01,write-hit,16299.000000000000
1121,GPU1.SA_30.L0VCache_00_01,write-miss,7781.000000000000
1122,GPU1.SA_30.L0VCache_00_01,write-mshr-hit,0.000000000000
1123,GPU1.SA_30.L1Cache,read-hit,168.000000000000
1124,GPU1.SA_30.L1Cache,read-miss,40232.000000000000
1125,GPU1.SA_30.L1Cache,read-mshr-hit,0.000000000000
1126,GPU1.SA_30.L1Cache,write-hit,39787.000000000000
1127,GPU1.SA_30.L1Cache,write-miss,8373.000000000000
1128,GPU1.SA_30.L1Cache,write-mshr-hit,0.000000000000
1129,GPU1.SA_30.L0SCache_00,read-hit,39392.000000000000
1130,GPU1.SA_30.L0SCache_00,read-miss,40.000000000000
1131,GPU1.SA_30.L0SCache_00,read-mshr-hit,0.000000000000
1132,GPU1.SA_30.L0SCache_00,write-hit,0.000000000000
1133,GPU1.SA_30.L0SCache_00,write-miss,0.000000000000
1134,GPU1.SA_30.L0SCache_00,write-mshr-hit,0.000000000000
1135,GPU1.SA_30.L0ICache_00,read-hit,77550.000000000000
1136,GPU1.SA_30.L0ICache_00,read-miss,160.000000000000
1137,GPU1.SA_30.L0ICache_00,read-mshr-hit,0.000000000000
1138,GPU1.SA_30.L0ICache_00,write-hit,0.000000000000
1139,GPU1.SA_30.L0ICache_00,write-miss,0.000000000000
1140,GPU1.SA_30.L0ICache_00,write-mshr-hit,0.000000000000
1141,GPU1.SA_31.L0VCache_00_00,read-hit,3572.000000000000
1142,GPU1.SA_31.L0VCache_00_00,read-miss,20064.000000000000
1143,GPU1.SA_31.L0VCache_00_00,read-mshr-hit,0.000000000000
1144,GPU1.SA_31.L0VCache_00_00,write-hit,16226.000000000000
1145,GPU1.SA_31.L0VCache_00_00,write-miss,7806.000000000000
1146,GPU1.SA_31.L0VCache_00_00,write-mshr-hit,0.000000000000
1147,GPU1.SA_31.L0VCache_00_01,read-hit,3724.000000000000
1148,GPU1.SA_31.L0VCache_00_01,read-miss,20093.000000000000
1149,GPU1.SA_31.L0VCache_00_01,read-mshr-hit,0.000000000000
1150,GPU1.SA_31.L0VCache_00_01,write-hit,16113.000000000000
1151,GPU1.SA_31.L0VCache_00_01,write-miss,7919.000000000000
1152,GPU1.SA_31.L0VCache_00_01,write-mshr-hit,0.000000000000
1153,GPU1.SA_31.L1Cache,read-hit,189.000000000000
1154,GPU1.SA_31.L1Cache,read-miss,40168.000000000000
1155,GPU1.SA_31.L1Cache,read-mshr-hit,0.000000000000
1156,GPU1.SA_31.L1Cache,write-hit,39673.000000000000
1157,GPU1.SA_31.L1Cache,write-miss,8391.000000000000
1158,GPU1.SA_31.L1Cache,write-mshr-hit,0.000000000000
1159,GPU1.SA_31.L0SCache_00,read-hit,39328.000000000000
1160,GPU1.SA_31.L0SCache_00,read-miss,40.000000000000
1161,GPU1.SA_31.L0SCache_00,read-mshr-hit,0.000000000000
1162,GPU1.SA_31.L0SCache_00,write-hit,0.000000000000
1163,GPU1.SA_31.L0SCache_00,write-miss,0.000000000000
1164,GPU1.SA_31.L0SCache_00,write-mshr-hit,0.000000000000
1165,GPU1.SA_31.L0ICache_00,read-hit,77431.000000000000
1166,GPU1.SA_31.L0ICache_00,read-miss,160.000000000000
1167,GPU1.SA_31.L0ICache_00,read-mshr-hit,0.000000000000
1168,GPU1.SA_31.L0ICache_00,write-hit,0.000000000000
1169,GPU1.SA_31.L0ICache_00,write-miss,0.000000000000
1170,GPU1.SA_31.L0ICache_00,write-mshr-hit,0.000000000000
1171,GPU1.L2_0,read-hit,0.000000000000
1172,GPU1.L2_0,read-miss,81960.000000000000
1173,GPU1.L2_0,read-mshr-hit,0.000000000000
1174,GPU1.L2_0,write-hit,98304.000000000000
1175,GPU1.L2_0,write-miss,0.000000000000
1176,GPU1.L2_0,write-mshr-hit,0.000000000000
1177,GPU1.L2_1,read-hit,0.000000000000
1178,GPU1.L2_1,read-miss,81920.000000000000
1179,GPU1.L2_1,read-mshr-hit,0.000000000000
1180,GPU1.L2_1,write-hit,98304.000000000000
1181,GPU1.L2_1,write-miss,0.000000000000
1182,GPU1.L2_1,write-mshr-hit,0.000000000000
1183,GPU1.L2_2,read-hit,0.000000000000
1184,GPU1.L2_2,read-miss,81960.000000000000
1185,GPU1.L2_2,read-mshr-hit,0.000000000000
1186,GPU1.L2_2,write-hit,98304.000000000000
1187,GPU1.L2_2,write-miss,0.000000000000
1188,GPU1.L2_2,write-mshr-hit,0.000000000000
1189,GPU1.L2_3,read-hit,0.000000000000
1190,GPU1.L2_3,read-miss,81960.000000000000
1191,GPU1.L2_3,read-mshr-hit,0.000000000000
1192,GPU1.L2_3,write-hit,98304.000000000000
1193,GPU1.L2_3,write-miss,0.000000000000
1194,GPU1.L2_3,write-mshr-hit,0.000000000000
1195,GPU1.L2_4,read-hit,0.000000000000
1196,GPU1.L2_4,read-miss,81960.000000000000
1197,GPU1.L2_4,read-mshr-hit,0.000000000000
1198,GPU1.L2_4,write-hit,98304.000000000000
1199,GPU1.L2_4,write-miss,0.000000000000
1200,GPU1.L2_4,write-mshr-hit,0.000000000000
1201,GPU1.L2_5,read-hit,218.000000000000
1202,GPU1.L2_5,read-miss,81960.000000000000
1203,GPU1.L2_5,read-mshr-hit,0.000000000000
1204,GPU1.L2_5,write-hit,98304.000000000000
1205,GPU1.L2_5,write-miss,0.000000000000
1206,GPU1.L2_5,write-mshr-hit,0.000000000000
1207,GPU1.L2_6,read-hit,0.000000000000
1208,GPU1.L2_6,read-miss,81920.000000000000
1209,GPU1.L2_6,read-mshr-hit,0.000000000000
1210,GPU1.L2_6,write-hit,98304.000000000000
1211,GPU1.L2_6,write-miss,0.000000000000
1212,GPU1.L2_6,write-mshr-hit,0.000000000000
1213,GPU1.L2_7,read-hit,0.000000000000
1214,GPU1.L2_7,read-miss,81920.000000000000
1215,GPU1.L2_7,read-mshr-hit,0.000000000000
1216,GPU1.L2_7,write-hit,98304.000000000000
1217,GPU1.L2_7,write-miss,0.000000000000
1218,GPU1.L2_7,write-mshr-hit,0.000000000000
1219,GPU1.L2_8,read-hit,0.000000000000
1220,GPU1.L2_8,read-miss,81920.000000000000
1221,GPU1.L2_8,read-mshr-hit,0.000000000000
1222,GPU1.L2_8,write-hit,98304.000000000000
1223,GPU1.L2_8,write-miss,0.000000000000
1224,GPU1.L2_8,write-mshr-hit,0.000000000000
1225,GPU1.L2_9,read-hit,0.000000000000
1226,GPU1.L2_9,read-miss,81920.000000000000
1227,GPU1.L2_9,read-mshr-hit,0.000000000000
1228,GPU1.L2_9,write-hit,98304.000000000000
1229,GPU1.L2_9,write-miss,0.000000000000
1230,GPU1.L2_9,write-mshr-hit,0.000000000000
1231,GPU1.L2_10,read-hit,0.000000000000
1232,GPU1.L2_10,read-miss,81920.000000000000
1233,GPU1.L2_10,read-mshr-hit,0.000000000000
1234,GPU1.L2_10,write-hit,98304.000000000000
1235,GPU1.L2_10,write-miss,0.000000000000
1236,GPU1.L2_10,write-mshr-hit,0.000000000000
1237,GPU1.L2_11,read-hit,0.000000000000
1238,GPU1.L2_11,read-miss,81920.000000000000
1239,GPU1.L2_11,read-mshr-hit,0.000000000000
1240,GPU1.L2_11,write-hit,98304.000000000000
1241,GPU1.L2_11,write-miss,0.000000000000
1242,GPU1.L2_11,write-mshr-hit,0.000000000000
1243,GPU1.L2_12,read-hit,0.000000000000
1244,GPU1.L2_12,read-miss,81920.000000000000
1245,GPU1.L2_12,read-mshr-hit,0.000000000000
1246,GPU1.L2_12,write-hit,98304.000000000000
1247,GPU1.L2_12,write-miss,0.000000000000
1248,GPU1.L2_12,write-mshr-hit,0.000000000000
1249,GPU1.L2_13,read-hit,0.000000000000
1250,GPU1.L2_13,read-miss,81920.000000000000
1251,GPU1.L2_13,read-mshr-hit,0.000000000000
1252,GPU1.L2_13,write-hit,98304.000000000000
1253,GPU1.L2_13,write-miss,0.000000000000
1254,GPU1.L2_13,write-mshr-hit,0.000000000000
1255,GPU1.L2_14,read-hit,0.000000000000
1256,GPU1.L2_14,read-miss,81920.000000000000
1257,GPU1.L2_14,read-mshr-hit,0.000000000000
1258,GPU1.L2_14,write-hit,98304.000000000000
1259,GPU1.L2_14,write-miss,0.000000000000
1260,GPU1.L2_14,write-mshr-hit,0.000000000000
1261,GPU1.L2_15,read-hit,0.000000000000
1262,GPU1.L2_15,read-miss,81920.000000000000
1263,GPU1.L2_15,read-mshr-hit,0.000000000000
1264,GPU1.L2_15,write-hit,98304.000000000000
1265,GPU1.L2_15,write-miss,0.000000000000
1266,GPU1.L2_15,write-mshr-hit,0.000000000000
1267,GPU1.SA_00.L0VTLB_00_00,hit,33173.000000000000
1268,GPU1.SA_00.L0VTLB_00_00,miss,1938.000000000000
1269,GPU1.SA_00.L0VTLB_00_00,mshr-hit,15001.000000000000
1270,GPU1.SA_00.L0VTLB_00_01,hit,35090.000000000000
1271,GPU1.SA_00.L0VTLB_00_01,miss,1937.000000000000
1272,GPU1.SA_00.L0VTLB_00_01,mshr-hit,13085.000000000000
1273,GPU1.SA_00.L0STLB_00,hit,40688.000000000000
1274,GPU1.SA_00.L0STLB_00,miss,40.000000000000
1275,GPU1.SA_00.L0STLB_00,mshr-hit,1160.000000000000
1276,GPU1.SA_00.L0ITLB_00,hit,140.000000000000
1277,GPU1.SA_00.L0ITLB_00,miss,20.000000000000
1278,GPU1.SA_00.L0ITLB_00,mshr-hit,0.000000000000
1279,GPU1.SA_01.L0VTLB_00_00,hit,32959.000000000000
1280,GPU1.SA_01.L0VTLB_00_00,miss,1929.000000000000
1281,GPU1.SA_01.L0VTLB_00_00,mshr-hit,14904.000000000000
1282,GPU1.SA_01.L0VTLB_00_01,hit,34481.000000000000
1283,GPU1.SA_01.L0VTLB_00_01,miss,1927.000000000000
1284,GPU1.SA_01.L0VTLB_00_01,mshr-hit,13384.000000000000
1285,GPU1.SA_01.L0STLB_00,hit,40512.000000000000
1286,GPU1.SA_01.L0STLB_00,miss,40.000000000000
1287,GPU1.SA_01.L0STLB_00,mshr-hit,1208.000000000000
1288,GPU1.SA_01.L0ITLB_00,hit,140.000000000000
1289,GPU1.SA_01.L0ITLB_00,miss,20.000000000000
1290,GPU1.SA_01.L0ITLB_00,mshr-hit,0.000000000000
1291,GPU1.SA_02.L0VTLB_00_00,hit,33304.000000000000
1292,GPU1.SA_02.L0VTLB_00_00,miss,1944.000000000000
1293,GPU1.SA_02.L0VTLB_00_00,mshr-hit,14896.000000000000
1294,GPU1.SA_02.L0VTLB_00_01,hit,35333.000000000000
1295,GPU1.SA_02.L0VTLB_00_01,miss,1944.000000000000
1296,GPU1.SA_02.L0VTLB_00_01,mshr-hit,12867.000000000000
1297,GPU1.SA_02.L0STLB_00,hit,40752.000000000000
1298,GPU1.SA_02.L0STLB_00,miss,40.000000000000
1299,GPU1.SA_02.L0STLB_00,mshr-hit,1160.000000000000
1300,GPU1.SA_02.L0ITLB_00,hit,140.000000000000
1301,GPU1.SA_02.L0ITLB_00,miss,20.000000000000
1302,GPU1.SA_02.L0ITLB_00,mshr-hit,0.000000000000
1303,GPU1.SA_03.L0VTLB_00_00,hit,33496.000000000000
1304,GPU1.SA_03.L0VTLB_00_00,miss,1945.000000000000
1305,GPU1.SA_03.L0VTLB_00_00,mshr-hit,14927.000000000000
1306,GPU1.SA_03.L0VTLB_00_01,hit,36306.000000000000
1307,GPU1.SA_03.L0VTLB_00_01,miss,1945.000000000000
1308,GPU1.SA_03.L0VTLB_00_01,mshr-hit,12117.000000000000
1309,GPU1.SA_03.L0STLB_00,hit,40880.000000000000
1310,GPU1.SA_03.L0STLB_00,miss,40.000000000000
1311,GPU1.SA_03.L0STLB_00,mshr-hit,1160.000000000000
1312,GPU1.SA_03.L0ITLB_00,hit,140.000000000000
1313,GPU1.SA_03.L0ITLB_00,miss,20.000000000000
1314,GPU1.SA_03.L0ITLB_00,mshr-hit,0.000000000000
1315,GPU1.SA_04.L0VTLB_00_00,hit,33222.000000000000
1316,GPU1.SA_04.L0VTLB_00_00,miss,1923.000000000000
1317,GPU1.SA_04.L0VTLB_00_00,mshr-hit,14775.000000000000
1318,GPU1.SA_04.L0VTLB_00_01,hit,35313.000000000000
1319,GPU1.SA_04.L0VTLB_00_01,miss,1923.000000000000
1320,GPU1.SA_04.L0VTLB_00_01,mshr-hit,12684.000000000000
1321,GPU1.SA_04.L0STLB_00,hit,40616.000000000000
1322,GPU1.SA_04.L0STLB_00,miss,40.000000000000
1323,GPU1.SA_04.L0STLB_00,mshr-hit,1136.000000000000
1324,GPU1.SA_04.L0ITLB_00,hit,140.000000000000
1325,GPU1.SA_04.L0ITLB_00,miss,20.000000000000
1326,GPU1.SA_04.L0ITLB_00,mshr-hit,0.000000000000
1327,GPU1.SA_05.L0VTLB_00_00,hit,33473.000000000000
1328,GPU1.SA_05.L0VTLB_00_00,miss,1920.000000000000
1329,GPU1.SA_05.L0VTLB_00_00,mshr-hit,14559.000000000000
1330,GPU1.SA_05.L0VTLB_00_01,hit,34928.000000000000
1331,GPU1.SA_05.L0VTLB_00_01,miss,1920.000000000000
1332,GPU1.SA_05.L0VTLB_00_01,mshr-hit,13104.000000000000
1333,GPU1.SA_05.L0STLB_00,hit,40552.000000000000
1334,GPU1.SA_05.L0STLB_00,miss,40.000000000000
1335,GPU1.SA_05.L0STLB_00,mshr-hit,1136.000000000000
1336,GPU1.SA_05.L0ITLB_00,hit,140.000000000000
1337,GPU1.SA_05.L0ITLB_00,miss,20.000000000000
1338,GPU1.SA_05.L0ITLB_00,mshr-hit,0.000000000000
1339,GPU1.SA_06.L0VTLB_00_00,hit,33142.000000000000
1340,GPU1.SA_06.L0VTLB_00_00,miss,1909.000000000000
1341,GPU1.SA_06.L0VTLB_00_00,mshr-hit,14613.000000000000
1342,GPU1.SA_06.L0VTLB_00_01,hit,34601.000000000000
1343,GPU1.SA_06.L0VTLB_00_01,miss,1909.000000000000
1344,GPU1.SA_06.L0VTLB_00_01,mshr-hit,13154.000000000000
1345,GPU1.SA_06.L0STLB_00,hit,40296.000000000000
1346,GPU1.SA_06.L0STLB_00,miss,40.000000000000
1347,GPU1.SA_06.L0STLB_00,mshr-hit,1136.000000000000
1348,GPU1.SA_06.L0ITLB_00,hit,140.000000000000
1349,GPU1.SA_06.L0ITLB_00,miss,20.000000000000
1350,GPU1.SA_06.L0ITLB_00,mshr-hit,0.000000000000
1351,GPU1.SA_07.L0VTLB_00_00,hit,33227.000000000000
1352,GPU1.SA_07.L0VTLB_00_00,miss,1907.000000000000
1353,GPU1.SA_07.L0VTLB_00_00,mshr-hit,14562.000000000000
1354,GPU1.SA_07.L0VTLB_00_01,hit,35458.000000000000
1355,GPU1.SA_07.L0VTLB_00_01,miss,1907.000000000000
1356,GPU1.SA_07.L0VTLB_00_01,mshr-hit,12331.000000000000
1357,GPU1.SA_07.L0STLB_00,hit,40304.000000000000
1358,GPU1.SA_07.L0STLB_00,miss,40.000000000000
1359,GPU1.SA_07.L0STLB_00,mshr-hit,1160.000000000000
1360,GPU1.SA_07.L0ITLB_00,hit,140.000000000000
1361,GPU1.SA_07.L0ITLB_00,miss,20.000000000000
1362,GPU1.SA_07.L0ITLB_00,mshr-hit,0.000000000000
1363,GPU1.SA_08.L0VTLB_00_00,hit,33316.000000000000
1364,GPU1.SA_08.L0VTLB_00_00,miss,1904.000000000000
1365,GPU1.SA_08.L0VTLB_00_00,mshr-hit,14572.000000000000
1366,GPU1.SA_08.L0VTLB_00_01,hit,35071.000000000000
1367,GPU1.SA_08.L0VTLB_00_01,miss,1904.000000000000
1368,GPU1.SA_08.L0VTLB_00_01,mshr-hit,12817.000000000000
1369,GPU1.SA_08.L0STLB_00,hit,40312.000000000000
1370,GPU1.SA_08.L0STLB_00,miss,40.000000000000
1371,GPU1.SA_08.L0STLB_00,mshr-hit,1184.000000000000
1372,GPU1.SA_08.L0ITLB_00,hit,140.000000000000
1373,GPU1.SA_08.L0ITLB_00,miss,20.000000000000
1374,GPU1.SA_08.L0ITLB_00,mshr-hit,0.000000000000
1375,GPU1.SA_09.L0VTLB_00_00,hit,33206.000000000000
1376,GPU1.SA_09.L0VTLB_00_00,miss,1905.000000000000
1377,GPU1.SA_09.L0VTLB_00_00,mshr-hit,14585.000000000000
1378,GPU1.SA_09.L0VTLB_00_01,hit,35095.000000000000
1379,GPU1.SA_09.L0VTLB_00_01,miss,1905.000000000000
1380,GPU1.SA_09.L0VTLB_00_01,mshr-hit,12696.000000000000
1381,GPU1.SA_09.L0STLB_00,hit,40248.000000000000
1382,GPU1.SA_09.L0STLB_00,miss,40.000000000000
1383,GPU1.SA_09.L0STLB_00,mshr-hit,1184.000000000000
1384,GPU1.SA_09.L0ITLB_00,hit,140.000000000000
1385,GPU1.SA_09.L0ITLB_00,miss,20.000000000000
1386,GPU1.SA_09.L0ITLB_00,mshr-hit,0.000000000000
1387,GPU1.SA_10.L0VTLB_00_00,hit,33138.000000000000
1388,GPU1.SA_10.L0VTLB_00_00,miss,1911.000000000000
1389,GPU1.SA_10.L0VTLB_00_00,mshr-hit,14871.000000000000
1390,GPU1.SA_10.L0VTLB_00_01,hit,35471.000000000000
1391,GPU1.SA_10.L0VTLB_00_01,miss,1911.000000000000
1392,GPU1.SA_10.L0VTLB_00_01,mshr-hit,12538.000000000000
1393,GPU1.SA_10.L0STLB_00,hit,40448.000000000000
1394,GPU1.SA_10.L0STLB_00,miss,40.000000000000
1395,GPU1.SA_10.L0STLB_00,mshr-hit,1112.000000000000
1396,GPU1.SA_10.L0ITLB_00,hit,140.000000000000
1397,GPU1.SA_10.L0ITLB_00,miss,20.000000000000
1398,GPU1.SA_10.L0ITLB_00,mshr-hit,0.000000000000
1399,GPU1.SA_11.L0VTLB_00_00,hit,32893.000000000000
1400,GPU1.SA_11.L0VTLB_00_00,miss,1874.000000000000
1401,GPU1.SA_11.L0VTLB_00_00,mshr-hit,14897.000000000000
1402,GPU1.SA_11.L0VTLB_00_01,hit,34493.000000000000
1403,GPU1.SA_11.L0VTLB_00_01,miss,1874.000000000000
1404,GPU1.SA_11.L0VTLB_00_01,mshr-hit,13297.000000000000
1405,GPU1.SA_11.L0STLB_00,hit,40256.000000000000
1406,GPU1.SA_11.L0STLB_00,miss,40.000000000000
1407,GPU1.SA_11.L0STLB_00,mshr-hit,1112.000000000000
1408,GPU1.SA_11.L0ITLB_00,hit,140.000000000000
1409,GPU1.SA_11.L0ITLB_00,miss,20.000000000000
1410,GPU1.SA_11.L0ITLB_00,mshr-hit,0.000000000000
1411,GPU1.SA_12.L0VTLB_00_00,hit,32978.000000000000
1412,GPU1.SA_12.L0VTLB_00_00,miss,1903.000000000000
1413,GPU1.SA_12.L0VTLB_00_00,mshr-hit,14911.000000000000
1414,GPU1.SA_12.L0VTLB_00_01,hit,34990.000000000000
1415,GPU1.SA_12.L0VTLB_00_01,miss,1903.000000000000
1416,GPU1.SA_12.L0VTLB_00_01,mshr-hit,12899.000000000000
1417,GPU1.SA_12.L0STLB_00,hit,40344.000000000000
1418,GPU1.SA_12.L0STLB_00,miss,40.000000000000
1419,GPU1.SA_12.L0STLB_00,mshr-hit,1184.000000000000
1420,GPU1.SA_12.L0ITLB_00,hit,140.000000000000
1421,GPU1.SA_12.L0ITLB_00,miss,20.000000000000
1422,GPU1.SA_12.L0ITLB_00,mshr-hit,0.000000000000
1423,GPU1.SA_13.L0VTLB_00_00,hit,32733.000000000000
1424,GPU1.SA_13.L0VTLB_00_00,miss,1891.000000000000
1425,GPU1.SA_13.L0VTLB_00_00,mshr-hit,15008.000000000000
1426,GPU1.SA_13.L0VTLB_00_01,hit,34973.000000000000
1427,GPU1.SA_13.L0VTLB_00_01,miss,1891.000000000000
1428,GPU1.SA_13.L0VTLB_00_01,mshr-hit,12768.000000000000
1429,GPU1.SA_13.L0STLB_00,hit,40160.000000000000
1430,GPU1.SA_13.L0STLB_00,miss,40.000000000000
1431,GPU1.SA_13.L0STLB_00,mshr-hit,1208.000000000000
1432,GPU1.SA_13.L0ITLB_00,hit,140.000000000000
1433,GPU1.SA_13.L0ITLB_00,miss,20.000000000000
1434,GPU1.SA_13.L0ITLB_00,mshr-hit,0.000000000000
1435,GPU1.SA_14.L0VTLB_00_00,hit,32975.000000000000
1436,GPU1.SA_14.L0VTLB_00_00,miss,1878.000000000000
1437,GPU1.SA_14.L0VTLB_00_00,mshr-hit,14875.000000000000
1438,GPU1.SA_14.L0VTLB_00_01,hit,35388.000000000000
1439,GPU1.SA_14.L0VTLB_00_01,miss,1878.000000000000
1440,GPU1.SA_14.L0VTLB_00_01,mshr-hit,12462.000000000000
1441,GPU1.SA_14.L0STLB_00,hit,40224.000000000000
1442,GPU1.SA_14.L0STLB_00,miss,40.000000000000
1443,GPU1.SA_14.L0STLB_00,mshr-hit,1208.000000000000
1444,GPU1.SA_14.L0ITLB_00,hit,140.000000000000
1445,GPU1.SA_14.L0ITLB_00,miss,20.000000000000
1446,GPU1.SA_14.L0ITLB_00,mshr-hit,0.000000000000
1447,GPU1.SA_15.L0VTLB_00_00,hit,32913.000000000000
1448,GPU1.SA_15.L0VTLB_00_00,miss,1861.000000000000
1449,GPU1.SA_15.L0VTLB_00_00,mshr-hit,14762.000000000000
1450,GPU1.SA_15.L0VTLB_00_01,hit,36395.000000000000
1451,GPU1.SA_15.L0VTLB_00_01,miss,1861.000000000000
1452,GPU1.SA_15.L0VTLB_00_01,mshr-hit,11280.000000000000
1453,GPU1.SA_15.L0STLB_00,hit,40152.000000000000
1454,GPU1.SA_15.L0STLB_00,miss,40.000000000000
1455,GPU1.SA_15.L0STLB_00,mshr-hit,1184.000000000000
1456,GPU1.SA_15.L0ITLB_00,hit,140.000000000000
1457,GPU1.SA_15.L0ITLB_00,miss,20.000000000000
1458,GPU1.SA_15.L0ITLB_00,mshr-hit,0.000000000000
1459,GPU1.SA_16.L0VTLB_00_00,hit,33672.000000000000
1460,GPU1.SA_16.L0VTLB_00_00,miss,1802.000000000000
1461,GPU1.SA_16.L0VTLB_00_00,mshr-hit,13806.000000000000
1462,GPU1.SA_16.L0VTLB_00_01,hit,35738.000000000000
1463,GPU1.SA_16.L0VTLB_00_01,miss,1803.000000000000
1464,GPU1.SA_16.L0VTLB_00_01,mshr-hit,11739.000000000000
1465,GPU1.SA_16.L0STLB_00,hit,39920.000000000000
1466,GPU1.SA_16.L0STLB_00,miss,40.000000000000
1467,GPU1.SA_16.L0STLB_00,mshr-hit,1160.000000000000
1468,GPU1.SA_16.L0ITLB_00,hit,140.000000000000
1469,GPU1.SA_16.L0ITLB_00,miss,20.000000000000
1470,GPU1.SA_16.L0ITLB_00,mshr-hit,0.000000000000
1471,GPU1.SA_17.L0VTLB_00_00,hit,33978.000000000000
1472,GPU1.SA_17.L0VTLB_00_00,miss,1780.000000000000
1473,GPU1.SA_17.L0VTLB_00_00,mshr-hit,13362.000000000000
1474,GPU1.SA_17.L0VTLB_00_01,hit,35470.000000000000
1475,GPU1.SA_17.L0VTLB_00_01,miss,1779.000000000000
1476,GPU1.SA_17.L0VTLB_00_01,mshr-hit,11871.000000000000
1477,GPU1.SA_17.L0STLB_00,hit,39752.000000000000
1478,GPU1.SA_17.L0STLB_00,miss,40.000000000000
1479,GPU1.SA_17.L0STLB_00,mshr-hit,1136.000000000000
1480,GPU1.SA_17.L0ITLB_00,hit,140.000000000000
1481,GPU1.SA_17.L0ITLB_00,miss,20.000000000000
1482,GPU1.SA_17.L0ITLB_00,mshr-hit,0.000000000000
1483,GPU1.SA_18.L0VTLB_00_00,hit,33336.000000000000
1484,GPU1.SA_18.L0VTLB_00_00,miss,1742.000000000000
1485,GPU1.SA_18.L0VTLB_00_00,mshr-hit,13402.000000000000
1486,GPU1.SA_18.L0VTLB_00_01,hit,35546.000000000000
1487,GPU1.SA_18.L0VTLB_00_01,miss,1742.000000000000
1488,GPU1.SA_18.L0VTLB_00_01,mshr-hit,11192.000000000000
1489,GPU1.SA_18.L0STLB_00,hit,39216.000000000000
1490,GPU1.SA_18.L0STLB_00,miss,40.000000000000
1491,GPU1.SA_18.L0STLB_00,mshr-hit,1160.000000000000
1492,GPU1.SA_18.L0ITLB_00,hit,140.000000000000
1493,GPU1.SA_18.L0ITLB_00,miss,20.000000000000
1494,GPU1.SA_18.L0ITLB_00,mshr-hit,0.000000000000
1495,GPU1.SA_19.L0VTLB_00_00,hit,33486.000000000000
1496,GPU1.SA_19.L0VTLB_00_00,miss,1738.000000000000
1497,GPU1.SA_19.L0VTLB_00_00,mshr-hit,13480.000000000000
1498,GPU1.SA_19.L0VTLB_00_01,hit,35178.000000000000
1499,GPU1.SA_19.L0VTLB_00_01,miss,1738.000000000000
1500,GPU1.SA_19.L0VTLB_00_01,mshr-hit,11788.000000000000
1501,GPU1.SA_19.L0STLB_00,hit,39280.000000000000
1502,GPU1.SA_19.L0STLB_00,miss,40.000000000000
1503,GPU1.SA_19.L0STLB_00,mshr-hit,1160.000000000000
1504,GPU1.SA_19.L0ITLB_00,hit,140.000000000000
1505,GPU1.SA_19.L0ITLB_00,miss,20.000000000000
1506,GPU1.SA_19.L0ITLB_00,mshr-hit,0.000000000000
1507,GPU1.SA_20.L0VTLB_00_00,hit,33436.000000000000
1508,GPU1.SA_20.L0VTLB_00_00,miss,1757.000000000000
1509,GPU1.SA_20.L0VTLB_00_00,mshr-hit,13191.000000000000
1510,GPU1.SA_20.L0VTLB_00_01,hit,34942.000000000000
1511,GPU1.SA_20.L0VTLB_00_01,miss,1757.000000000000
1512,GPU1.SA_20.L0VTLB_00_01,mshr-hit,11685.000000000000
1513,GPU1.SA_20.L0STLB_00,hit,39088.000000000000
1514,GPU1.SA_20.L0STLB_00,miss,40.000000000000
1515,GPU1.SA_20.L0STLB_00,mshr-hit,1160.000000000000
1516,GPU1.SA_20.L0ITLB_00,hit,140.000000000000
1517,GPU1.SA_20.L0ITLB_00,miss,20.000000000000
1518,GPU1.SA_20.L0ITLB_00,mshr-hit,0.000000000000
1519,GPU1.SA_21.L0VTLB_00_00,hit,33822.000000000000
1520,GPU1.SA_21.L0VTLB_00_00,miss,1729.000000000000
1521,GPU1.SA_21.L0VTLB_00_00,mshr-hit,13249.000000000000
1522,GPU1.SA_21.L0VTLB_00_01,hit,35715.000000000000
1523,GPU1.SA_21.L0VTLB_00_01,miss,1728.000000000000
1524,GPU1.SA_21.L0VTLB_00_01,mshr-hit,11357.000000000000
1525,GPU1.SA_21.L0STLB_00,hit,39312.000000000000
1526,GPU1.SA_21.L0STLB_00,miss,40.000000000000
1527,GPU1.SA_21.L0STLB_00,mshr-hit,1160.000000000000
1528,GPU1.SA_21.L0ITLB_00,hit,140.000000000000
1529,GPU1.SA_21.L0ITLB_00,miss,20.000000000000
1530,GPU1.SA_21.L0ITLB_00,mshr-hit,0.000000000000
1531,GPU1.SA_22.L0VTLB_00_00,hit,33784.000000000000
1532,GPU1.SA_22.L0VTLB_00_00,miss,1690.000000000000
1533,GPU1.SA_22.L0VTLB_00_00,mshr-hit,13038.000000000000
1534,GPU1.SA_22.L0VTLB_00_01,hit,35336.000000000000
1535,GPU1.SA_22.L0VTLB_00_01,miss,1690.000000000000
1536,GPU1.SA_22.L0VTLB_00_01,mshr-hit,11486.000000000000
1537,GPU1.SA_22.L0STLB_00,hit,39088.000000000000
1538,GPU1.SA_22.L0STLB_00,miss,40.000000000000
1539,GPU1.SA_22.L0STLB_00,mshr-hit,1160.000000000000
1540,GPU1.SA_22.L0ITLB_00,hit,140.000000000000
1541,GPU1.SA_22.L0ITLB_00,miss,20.000000000000
1542,GPU1.SA_22.L0ITLB_00,mshr-hit,0.000000000000
1543,GPU1.SA_23.L0VTLB_00_00,hit,34680.000000000000
1544,GPU1.SA_23.L0VTLB_00_00,miss,1663.000000000000
1545,GPU1.SA_23.L0VTLB_00_00,mshr-hit,12233.000000000000
1546,GPU1.SA_23.L0VTLB_00_01,hit,36329.000000000000
1547,GPU1.SA_23.L0VTLB_00_01,miss,1663.000000000000
1548,GPU1.SA_23.L0VTLB_00_01,mshr-hit,10584.000000000000
1549,GPU1.SA_23.L0STLB_00,hit,39144.000000000000
1550,GPU1.SA_23.L0STLB_00,miss,40.000000000000
1551,GPU1.SA_23.L0STLB_00,mshr-hit,1136.000000000000
1552,GPU1.SA_23.L0ITLB_00,hit,140.000000000000
1553,GPU1.SA_23.L0ITLB_00,miss,20.000000000000
1554,GPU1.SA_23.L0ITLB_00,mshr-hit,0.000000000000
1555,GPU1.SA_24.L0VTLB_00_00,hit,34503.000000000000
1556,GPU1.SA_24.L0VTLB_00_00,miss,1651.000000000000
1557,GPU1.SA_24.L0VTLB_00_00,mshr-hit,12198.000000000000
1558,GPU1.SA_24.L0VTLB_00_01,hit,36176.000000000000
1559,GPU1.SA_24.L0VTLB_00_01,miss,1651.000000000000
1560,GPU1.SA_24.L0VTLB_00_01,mshr-hit,10525.000000000000
1561,GPU1.SA_24.L0STLB_00,hit,38984.000000000000
1562,GPU1.SA_24.L0STLB_00,miss,40.000000000000
1563,GPU1.SA_24.L0STLB_00,mshr-hit,1136.000000000000
1564,GPU1.SA_24.L0ITLB_00,hit,140.000000000000
1565,GPU1.SA_24.L0ITLB_00,miss,20.000000000000
1566,GPU1.SA_24.L0ITLB_00,mshr-hit,0.000000000000
1567,GPU1.SA_25.L0VTLB_00_00,hit,34662.000000000000
1568,GPU1.SA_25.L0VTLB_00_00,miss,1629.000000000000
1569,GPU1.SA_25.L0VTLB_00_00,mshr-hit,12029.000000000000
1570,GPU1.SA_25.L0VTLB_00_01,hit,36120.000000000000
1571,GPU1.SA_25.L0VTLB_00_01,miss,1629.000000000000
1572,GPU1.SA_25.L0VTLB_00_01,mshr-hit,10571.000000000000
1573,GPU1.SA_25.L0STLB_00,hit,38896.000000000000
1574,GPU1.SA_25.L0STLB_00,miss,40.000000000000
1575,GPU1.SA_25.L0STLB_00,mshr-hit,1160.000000000000
1576,GPU1.SA_25.L0ITLB_00,hit,140.000000000000
1577,GPU1.SA_25.L0ITLB_00,miss,20.000000000000
1578,GPU1.SA_25.L0ITLB_00,mshr-hit,0.000000000000
1579,GPU1.SA_26.L0VTLB_00_00,hit,34121.000000000000
1580,GPU1.SA_26.L0VTLB_00_00,miss,1625.000000000000
1581,GPU1.SA_26.L0VTLB_00_00,mshr-hit,12222.000000000000
1582,GPU1.SA_26.L0VTLB_00_01,hit,35676.000000000000
1583,GPU1.SA_26.L0VTLB_00_01,miss,1625.000000000000
1584,GPU1.SA_26.L0VTLB_00_01,mshr-hit,10667.000000000000
1585,GPU1.SA_26.L0STLB_00,hit,38728.000000000000
1586,GPU1.SA_26.L0STLB_00,miss,40.000000000000
1587,GPU1.SA_26.L0STLB_00,mshr-hit,1136.000000000000
1588,GPU1.SA_26.L0ITLB_00,hit,140.000000000000
1589,GPU1.SA_26.L0ITLB_00,miss,20.000000000000
1590,GPU1.SA_26.L0ITLB_00,mshr-hit,0.000000000000
1591,GPU1.SA_27.L0VTLB_00_00,hit,34927.000000000000
1592,GPU1.SA_27.L0VTLB_00_00,miss,1603.000000000000
1593,GPU1.SA_27.L0VTLB_00_00,mshr-hit,11822.000000000000
1594,GPU1.SA_27.L0VTLB_00_01,hit,36069.000000000000
1595,GPU1.SA_27.L0VTLB_00_01,miss,1603.000000000000
1596,GPU1.SA_27.L0VTLB_00_01,mshr-hit,10680.000000000000
1597,GPU1.SA_27.L0STLB_00,hit,38920.000000000000
1598,GPU1.SA_27.L0STLB_00,miss,40.000000000000
1599,GPU1.SA_27.L0STLB_00,mshr-hit,1136.000000000000
1600,GPU1.SA_27.L0ITLB_00,hit,140.000000000000
1601,GPU1.SA_27.L0ITLB_00,miss,20.000000000000
1602,GPU1.SA_27.L0ITLB_00,mshr-hit,0.000000000000
1603,GPU1.SA_28.L0VTLB_00_00,hit,34527.000000000000
1604,GPU1.SA_28.L0VTLB_00_00,miss,1607.000000000000
1605,GPU1.SA_28.L0VTLB_00_00,mshr-hit,12122.000000000000
1606,GPU1.SA_28.L0VTLB_00_01,hit,35784.000000000000
1607,GPU1.SA_28.L0VTLB_00_01,miss,1607.000000000000
1608,GPU1.SA_28.L0VTLB_00_01,mshr-hit,10865.000000000000
1609,GPU1.SA_28.L0STLB_00,hit,38920.000000000000
1610,GPU1.SA_28.L0STLB_00,miss,40.000000000000
1611,GPU1.SA_28.L0STLB_00,mshr-hit,1136.000000000000
1612,GPU1.SA_28.L0ITLB_00,hit,140.000000000000
1613,GPU1.SA_28.L0ITLB_00,miss,20.000000000000
1614,GPU1.SA_28.L0ITLB_00,mshr-hit,0.000000000000
1615,GPU1.SA_29.L0VTLB_00_00,hit,34758.000000000000
1616,GPU1.SA_29.L0VTLB_00_00,miss,1574.000000000000
1617,GPU1.SA_29.L0VTLB_00_00,mshr-hit,11796.000000000000
1618,GPU1.SA_29.L0VTLB_00_01,hit,36181.000000000000
1619,GPU1.SA_29.L0VTLB_00_01,miss,1574.000000000000
1620,GPU1.SA_29.L0VTLB_00_01,mshr-hit,10373.000000000000
1621,GPU1.SA_29.L0STLB_00,hit,38824.000000000000
1622,GPU1.SA_29.L0STLB_00,miss,40.000000000000
1623,GPU1.SA_29.L0STLB_00,mshr-hit,1136.000000000000
1624,GPU1.SA_29.L0ITLB_00,hit,140.000000000000
1625,GPU1.SA_29.L0ITLB_00,miss,20.000000000000
1626,GPU1.SA_29.L0ITLB_00,mshr-hit,0.000000000000
1627,GPU1.SA_30.L0VTLB_00_00,hit,34864.000000000000
1628,GPU1.SA_30.L0VTLB_00_00,miss,1579.000000000000
1629,GPU1.SA_30.L0VTLB_00_00,mshr-hit,11717.000000000000
1630,GPU1.SA_30.L0VTLB_00_01,hit,35999.000000000000
1631,GPU1.SA_30.L0VTLB_00_01,miss,1579.000000000000
1632,GPU1.SA_30.L0VTLB_00_01,mshr-hit,10582.000000000000
1633,GPU1.SA_30.L0STLB_00,hit,38832.000000000000
1634,GPU1.SA_30.L0STLB_00,miss,40.000000000000
1635,GPU1.SA_30.L0STLB_00,mshr-hit,1160.000000000000
1636,GPU1.SA_30.L0ITLB_00,hit,140.000000000000
1637,GPU1.SA_30.L0ITLB_00,miss,20.000000000000
1638,GPU1.SA_30.L0ITLB_00,mshr-hit,0.000000000000
1639,GPU1.SA_31.L0VTLB_00_00,hit,35485.000000000000
1640,GPU1.SA_31.L0VTLB_00_00,miss,1489.000000000000
1641,GPU1.SA_31.L0VTLB_00_00,mshr-hit,11090.000000000000
1642,GPU1.SA_31.L0VTLB_00_01,hit,36539.000000000000
1643,GPU1.SA_31.L0VTLB_00_01,miss,1489.000000000000
1644,GPU1.SA_31.L0VTLB_00_01,mshr-hit,10036.000000000000
1645,GPU1.SA_31.L0STLB_00,hit,38792.000000000000
1646,GPU1.SA_31.L0STLB_00,miss,40.000000000000
1647,GPU1.SA_31.L0STLB_00,mshr-hit,1136.000000000000
1648,GPU1.SA_31.L0ITLB_00,hit,140.000000000000
1649,GPU1.SA_31.L0ITLB_00,miss,20.000000000000
1650,GPU1.SA_31.L0ITLB_00,mshr-hit,0.000000000000
1651,GPU1.L2TLB,hit,111524.000000000000
1652,GPU1.L2TLB,miss,1084.000000000000
1653,GPU1.L2TLB,mshr-hit,3708.000000000000
1654,GPU1.RDMA,outgoing_trans_count,0.000000000000
1655,GPU1.RDMA,incoming_trans_count,0.000000000000
1656,GPU1.DRAM_0,read_trans_count,86056.000000000000
1657,GPU1.DRAM_0,write_trans_count,86096.000000000000
1658,GPU1.DRAM_0,read_avg_latency,0.000000190000
1659,GPU1.DRAM_0,write_avg_latency,0.000000190000
1660,GPU1.DRAM_0,read_size,5507584.000000000000
1661,GPU1.DRAM_0,write_size,5509104.000000000000
1662,GPU1.DRAM_1,read_trans_count,86016.000000000000
1663,GPU1.DRAM_1,write_trans_count,86056.000000000000
1664,GPU1.DRAM_1,read_avg_latency,0.000000190000
1665,GPU1.DRAM_1,write_avg_latency,0.000000190000
1666,GPU1.DRAM_1,read_size,5505024.000000000000
1667,GPU1.DRAM_1,write_size,5507584.000000000000
1668,GPU1.DRAM_2,read_trans_count,86056.000000000000
1669,GPU1.DRAM_2,write_trans_count,86056.000000000000
1670,GPU1.DRAM_2,read_avg_latency,0.000000190000
1671,GPU1.DRAM_2,write_avg_latency,0.000000190000
1672,GPU1.DRAM_2,read_size,5507584.000000000000
1673,GPU1.DRAM_2,write_size,5507584.000000000000
1674,GPU1.DRAM_3,read_trans_count,86056.000000000000
1675,GPU1.DRAM_3,write_trans_count,86056.000000000000
1676,GPU1.DRAM_3,read_avg_latency,0.000000190000
1677,GPU1.DRAM_3,write_avg_latency,0.000000190000
1678,GPU1.DRAM_3,read_size,5507584.000000000000
1679,GPU1.DRAM_3,write_size,5507584.000000000000
1680,GPU1.DRAM_4,read_trans_count,86056.000000000000
1681,GPU1.DRAM_4,write_trans_count,86036.000000000000
1682,GPU1.DRAM_4,read_avg_latency,0.000000190000
1683,GPU1.DRAM_4,write_avg_latency,0.000000190000
1684,GPU1.DRAM_4,read_size,5507584.000000000000
1685,GPU1.DRAM_4,write_size,5505584.000000000000
1686,GPU1.DRAM_5,read_trans_count,86056.000000000000
1687,GPU1.DRAM_5,write_trans_count,86016.000000000000
1688,GPU1.DRAM_5,read_avg_latency,0.000000190000
1689,GPU1.DRAM_5,write_avg_latency,0.000000190000
1690,GPU1.DRAM_5,read_size,5507584.000000000000
1691,GPU1.DRAM_5,write_size,5505024.000000000000
1692,GPU1.DRAM_6,read_trans_count,86016.000000000000
1693,GPU1.DRAM_6,write_trans_count,86016.000000000000
1694,GPU1.DRAM_6,read_avg_latency,0.000000190000
1695,GPU1.DRAM_6,write_avg_latency,0.000000190000
1696,GPU1.DRAM_6,read_size,5505024.000000000000
1697,GPU1.DRAM_6,write_size,5505024.000000000000
1698,GPU1.DRAM_7,read_trans_count,86016.000000000000
1699,GPU1.DRAM_7,write_trans_count,86016.000000000000
1700,GPU1.DRAM_7,read_avg_latency,0.000000190000
1701,GPU1.DRAM_7,write_avg_latency,0.000000190000
1702,GPU1.DRAM_7,read_size,5505024.000000000000
1703,GPU1.DRAM_7,write_size,5505024.000000000000
1704,GPU1.DRAM_8,read_trans_count,86016.000000000000
1705,GPU1.DRAM_8,write_trans_count,86016.000000000000
1706,GPU1.DRAM_8,read_avg_latency,0.000000190000
1707,GPU1.DRAM_8,write_avg_latency,0.000000190000
1708,GPU1.DRAM_8,read_size,5505024.000000000000
1709,GPU1.DRAM_8,write_size,5505024.000000000000
1710,GPU1.DRAM_9,read_trans_count,86016.000000000000
1711,GPU1.DRAM_9,write_trans_count,86016.000000000000
1712,GPU1.DRAM_9,read_avg_latency,0.000000190000
1713,GPU1.DRAM_9,write_avg_latency,0.000000190000
1714,GPU1.DRAM_9,read_size,5505024.000000000000
1715,GPU1.DRAM_9,write_size,5505024.000000000000
1716,GPU1.DRAM_10,read_trans_count,86016.000000000000
1717,GPU1.DRAM_10,write_trans_count,86016.000000000000
1718,GPU1.DRAM_10,read_avg_latency,0.000000190000
1719,GPU1.DRAM_10,write_avg_latency,0.000000190000
1720,GPU1.DRAM_10,read_size,5505024.000000000000
1721,GPU1.DRAM_10,write_size,5505024.000000000000
1722,GPU1.DRAM_11,read_trans_count,86016.000000000000
1723,GPU1.DRAM_11,write_trans_count,86016.000000000000
1724,GPU1.DRAM_11,read_avg_latency,0.000000190000
1725,GPU1.DRAM_11,write_avg_latency,0.000000190000
1726,GPU1.DRAM_11,read_size,5505024.000000000000
1727,GPU1.DRAM_11,write_size,5505024.000000000000
1728,GPU1.DRAM_12,read_trans_count,86016.000000000000
1729,GPU1.DRAM_12,write_trans_count,86016.000000000000
1730,GPU1.DRAM_12,read_avg_latency,0.000000190000
1731,GPU1.DRAM_12,write_avg_latency,0.000000190000
1732,GPU1.DRAM_12,read_size,5505024.000000000000
1733,GPU1.DRAM_12,write_size,5505024.000000000000
1734,GPU1.DRAM_13,read_trans_count,86016.000000000000
1735,GPU1.DRAM_13,write_trans_count,86016.000000000000
1736,GPU1.DRAM_13,read_avg_latency,0.000000190000
1737,GPU1.DRAM_13,write_avg_latency,0.000000190000
1738,GPU1.DRAM_13,read_size,5505024.000000000000
1739,GPU1.DRAM_13,write_size,5505024.000000000000
1740,GPU1.DRAM_14,read_trans_count,86016.000000000000
1741,GPU1.DRAM_14,write_trans_count,86016.000000000000
1742,GPU1.DRAM_14,read_avg_latency,0.000000190000
1743,GPU1.DRAM_14,write_avg_latency,0.000000190000
1744,GPU1.DRAM_14,read_size,5505024.000000000000
1745,GPU1.DRAM_14,write_size,5505024.000000000000
1746,GPU1.DRAM_15,read_trans_count,86016.000000000000
1747,GPU1.DRAM_15,write_trans_count,86016.000000000000
1748,GPU1.DRAM_15,read_avg_latency,0.000000190000
1749,GPU1.DRAM_15,write_avg_latency,0.000000190000
1750,GPU1.DRAM_15,read_size,5505024.000000000000
1751,GPU1.DRAM_15,write_size,5505024.000000000000
