Executing /home/yuhui/dev/src/gitlab.com/yuhuibao/instances/P2DCUL1/P2DCUL1 -benchmark=kmeans -report-all -metric-file-name=P2DCUL1_kmeans_-num-of-sa=64_-isa=gfx1010_metrics -num-of-sa=64 -isa=gfx1010
Start time: 2022-04-23 21:02:06.580697
Profiling server running on: 37351
Monitoring simulation with http://localhost:37515
GPU iterated 3 times
End time: 2022-04-24 18:08:37.365025
Elapsed time: 21:06:30.784328
