Executing /home/yuhui/dev/src/gitlab.com/yuhuibao/instances/P2DCU/P2DCU -benchmark=kmeans -report-all -metric-file-name=P2DCU_kmeans_-gpu=R9Nano_-isa=gfx803_metrics -gpu=R9Nano -isa=gfx803
Start time: 2022-04-21 02:22:53.862418
Profiling server running on: 33839
Monitoring simulation with http://localhost:38621
GPU iterated 3 times
End time: 2022-04-21 06:13:28.880445
Elapsed time: 3:50:35.018027
