Executing /home/yuhui/dev/src/gitlab.com/yuhuibao/instances/P2DCUL1/P2DCUL1 -benchmark=matrixtranspose -report-all -metric-file-name=P2DCUL1_matrixtranspose_-num-of-sa=128_-isa=gfx1010_metrics -num-of-sa=128 -isa=gfx1010
Start time: 2022-04-23 22:36:47.904557
Profiling server running on: 33949
Monitoring simulation with http://localhost:42049
End time: 2022-04-23 23:54:51.022816
Elapsed time: 1:18:03.118259
