Executing /home/yuhui/dev/src/gitlab.com/yuhuibao/instances/P2DCU/P2DCU -benchmark=matrixtranspose -report-all -metric-file-name=P2DCU_matrixtranspose_-num-of-sa=512_-isa=gfx1010_metrics -num-of-sa=512 -isa=gfx1010
Start time: 2022-04-22 23:13:43.563723
Profiling server running on: 46171
Monitoring simulation with http://localhost:42997
End time: 2022-04-22 23:25:15.839377
Elapsed time: 0:11:32.275654
