Executing /home/yuhui/dev/src/gitlab.com/yuhuibao/instances/P2DCU/P2DCU -benchmark=atax -report-all -metric-file-name=P2DCU_atax_-gpu=R9Nano_-isa=gfx1010_metrics -gpu=R9Nano -isa=gfx1010
Start time: 2022-04-21 02:47:35.205639
Profiling server running on: 38319
Monitoring simulation with http://localhost:43593
End time: 2022-04-21 03:56:28.491490
Elapsed time: 1:08:53.285851
